(export (version D)
  (design
    (source /home/dave/code/penelopean-robotics/pcb/robotv2.1/proto.sch)
    (date "Wed 21 Sep 2022 15:14:48 BST")
    (tool "Eeschema 5.1.5+dfsg1-2build2")
    (sheet (number 1) (name /) (tstamps /)
      (title_block
        (title)
        (company)
        (rev)
        (date)
        (source proto.sch)
        (comment (number 1) (value ""))
        (comment (number 2) (value ""))
        (comment (number 3) (value ""))
        (comment (number 4) (value "")))))
  (components
    (comp (ref J7)
      (value "Servo 1")
      (footprint Connector_PinHeader_2.54mm:PinHeader_1x03_P2.54mm_Vertical)
      (libsource (lib proto-rescue) (part Conn_01x03) (description ""))
      (sheetpath (names /) (tstamps /))
      (tstamp 5BBB4667))
    (comp (ref J8)
      (value "Servo 2")
      (footprint Connector_PinHeader_2.54mm:PinHeader_1x03_P2.54mm_Vertical)
      (libsource (lib proto-rescue) (part Conn_01x03) (description ""))
      (sheetpath (names /) (tstamps /))
      (tstamp 5BBB46C0))
    (comp (ref J9)
      (value "Servo 3")
      (footprint Connector_PinHeader_2.54mm:PinHeader_1x03_P2.54mm_Vertical)
      (libsource (lib proto-rescue) (part Conn_01x03) (description ""))
      (sheetpath (names /) (tstamps /))
      (tstamp 5BBB46E7))
    (comp (ref J6)
      (value Conn_02x04_Counter_Clockwise)
      (footprint Pin_Headers:Pin_Header_Straight_2x04_Pitch2.54mm)
      (libsource (lib proto-rescue) (part Conn_02x04_Counter_Clockwise) (description ""))
      (sheetpath (names /) (tstamps /))
      (tstamp 5BBB6AFE))
    (comp (ref C3)
      (value CP)
      (footprint Capacitor_THT:CP_Radial_D5.0mm_P2.50mm)
      (libsource (lib proto-rescue) (part CP) (description ""))
      (sheetpath (names /) (tstamps /))
      (tstamp 5BBB7B4C))
    (comp (ref D1)
      (value LED)
      (footprint LEDs:LED_D3.0mm_FlatTop)
      (libsource (lib proto-rescue) (part LED) (description ""))
      (sheetpath (names /) (tstamps /))
      (tstamp 5BBB94A5))
    (comp (ref R2)
      (value R)
      (footprint Resistor_THT:R_Axial_DIN0207_L6.3mm_D2.5mm_P7.62mm_Horizontal)
      (libsource (lib proto-rescue) (part R) (description ""))
      (sheetpath (names /) (tstamps /))
      (tstamp 5BBB950A))
    (comp (ref J3)
      (value Conn_01x02)
      (footprint Connector_PinHeader_2.54mm:PinHeader_1x02_P2.54mm_Vertical)
      (libsource (lib proto-rescue) (part Conn_01x02) (description ""))
      (sheetpath (names /) (tstamps /))
      (tstamp 5C9285A3))
    (comp (ref U2)
      (value LP2950-3.0_TO92)
      (footprint TO_SOT_Packages_THT:TO-92_Inline_Wide)
      (libsource (lib proto-rescue) (part LP2950-3.0_TO92) (description ""))
      (sheetpath (names /) (tstamps /))
      (tstamp 5CABB898))
    (comp (ref C2)
      (value CP)
      (footprint Capacitor_THT:CP_Radial_D5.0mm_P2.50mm)
      (libsource (lib proto-rescue) (part CP) (description ""))
      (sheetpath (names /) (tstamps /))
      (tstamp 5BBB776B))
    (comp (ref R1)
      (value R)
      (footprint Resistor_THT:R_Axial_DIN0207_L6.3mm_D2.5mm_P7.62mm_Horizontal)
      (libsource (lib proto-rescue) (part R) (description ""))
      (sheetpath (names /) (tstamps /))
      (tstamp 5AB7E3BC))
    (comp (ref C1)
      (value C)
      (footprint Capacitor_THT:C_Disc_D4.3mm_W1.9mm_P5.00mm)
      (datasheet ~)
      (libsource (lib Device) (part C) (description "Unpolarized capacitor"))
      (sheetpath (names /) (tstamps /))
      (tstamp 61EEA8AA))
    (comp (ref C5)
      (value C)
      (footprint Capacitor_THT:C_Disc_D3.0mm_W2.0mm_P2.50mm)
      (datasheet ~)
      (libsource (lib Device) (part C) (description "Unpolarized capacitor"))
      (sheetpath (names /) (tstamps /))
      (tstamp 61EEDA11))
    (comp (ref C4)
      (value C)
      (footprint Capacitor_THT:C_Disc_D3.0mm_W2.0mm_P2.50mm)
      (datasheet ~)
      (libsource (lib Device) (part C) (description "Unpolarized capacitor"))
      (sheetpath (names /) (tstamps /))
      (tstamp 61EEEEC8))
    (comp (ref Y1)
      (value Crystal)
      (footprint Crystal:Crystal_HC52-8mm_Vertical)
      (datasheet ~)
      (libsource (lib Device) (part Crystal) (description "Two pin crystal"))
      (sheetpath (names /) (tstamps /))
      (tstamp 61EF0101))
    (comp (ref U1)
      (value ATmega328P-PU)
      (footprint Package_DIP:DIP-28_W7.62mm)
      (datasheet http://ww1.microchip.com/downloads/en/DeviceDoc/ATmega328_P%20AVR%20MCU%20with%20picoPower%20Technology%20Data%20Sheet%2040001984A.pdf)
      (libsource (lib MCU_Microchip_ATmega) (part ATmega328P-PU) (description "20MHz, 32kB Flash, 2kB SRAM, 1kB EEPROM, DIP-28"))
      (sheetpath (names /) (tstamps /))
      (tstamp 61EF48A0))
    (comp (ref J5)
      (value NeoPixel)
      (footprint Connector_PinHeader_2.54mm:PinHeader_1x03_P2.54mm_Vertical)
      (libsource (lib proto-rescue) (part Conn_01x03) (description ""))
      (sheetpath (names /) (tstamps /))
      (tstamp 621DD777))
    (comp (ref J2)
      (value Sensors)
      (footprint Connector_PinHeader_2.54mm:PinHeader_1x05_P2.54mm_Vertical)
      (datasheet ~)
      (libsource (lib Connector) (part Conn_01x05_Female) (description "Generic connector, single row, 01x05, script generated (kicad-library-utils/schlib/autogen/connector/)"))
      (sheetpath (names /) (tstamps /))
      (tstamp 621F774B))
    (comp (ref J1)
      (value Conn_01x01_Female)
      (footprint Connector:Banana_Jack_1Pin)
      (datasheet ~)
      (libsource (lib Connector) (part Conn_01x01_Female) (description "Generic connector, single row, 01x01, script generated (kicad-library-utils/schlib/autogen/connector/)"))
      (sheetpath (names /) (tstamps /))
      (tstamp 6330C23E))
    (comp (ref J4)
      (value Conn_01x01_Female)
      (footprint Connector:Banana_Jack_1Pin)
      (datasheet ~)
      (libsource (lib Connector) (part Conn_01x01_Female) (description "Generic connector, single row, 01x01, script generated (kicad-library-utils/schlib/autogen/connector/)"))
      (sheetpath (names /) (tstamps /))
      (tstamp 6330CB52)))
  (libparts
    (libpart (lib Connector) (part Conn_01x01_Female)
      (description "Generic connector, single row, 01x01, script generated (kicad-library-utils/schlib/autogen/connector/)")
      (docs ~)
      (footprints
        (fp Connector*:*))
      (fields
        (field (name Reference) J)
        (field (name Value) Conn_01x01_Female))
      (pins
        (pin (num 1) (name Pin_1) (type passive))))
    (libpart (lib Connector) (part Conn_01x05_Female)
      (description "Generic connector, single row, 01x05, script generated (kicad-library-utils/schlib/autogen/connector/)")
      (docs ~)
      (footprints
        (fp Connector*:*_1x??_*))
      (fields
        (field (name Reference) J)
        (field (name Value) Conn_01x05_Female))
      (pins
        (pin (num 1) (name Pin_1) (type passive))
        (pin (num 2) (name Pin_2) (type passive))
        (pin (num 3) (name Pin_3) (type passive))
        (pin (num 4) (name Pin_4) (type passive))
        (pin (num 5) (name Pin_5) (type passive))))
    (libpart (lib Device) (part C)
      (description "Unpolarized capacitor")
      (docs ~)
      (footprints
        (fp C_*))
      (fields
        (field (name Reference) C)
        (field (name Value) C))
      (pins
        (pin (num 1) (name ~) (type passive))
        (pin (num 2) (name ~) (type passive))))
    (libpart (lib Device) (part Crystal)
      (description "Two pin crystal")
      (docs ~)
      (footprints
        (fp Crystal*))
      (fields
        (field (name Reference) Y)
        (field (name Value) Crystal))
      (pins
        (pin (num 1) (name 1) (type passive))
        (pin (num 2) (name 2) (type passive))))
    (libpart (lib MCU_Microchip_ATmega) (part ATmega48PV-10PU)
      (aliases
        (alias ATmega48P-20PU)
        (alias ATmega48A-PU)
        (alias ATmega48PA-PU)
        (alias ATmega88PV-10PU)
        (alias ATmega88P-20PU)
        (alias ATmega88A-PU)
        (alias ATmega88PA-PU)
        (alias ATmega168PV-10PU)
        (alias ATmega168P-20PU)
        (alias ATmega168A-PU)
        (alias ATmega168PA-PU)
        (alias ATmega328-PU)
        (alias ATmega328P-PU))
      (description "10MHz, 4kB Flash, 512B SRAM, 256B EEPROM, DIP-28")
      (docs http://ww1.microchip.com/downloads/en/DeviceDoc/Atmel-8025-8-bit-AVR-Microcontroller-ATmega48P-88P-168P_Datasheet.pdf)
      (footprints
        (fp DIP*W7.62mm*))
      (fields
        (field (name Reference) U)
        (field (name Value) ATmega48PV-10PU)
        (field (name Footprint) Package_DIP:DIP-28_W7.62mm))
      (pins
        (pin (num 1) (name ~RESET~/PC6) (type BiDi))
        (pin (num 2) (name PD0) (type BiDi))
        (pin (num 3) (name PD1) (type BiDi))
        (pin (num 4) (name PD2) (type BiDi))
        (pin (num 5) (name PD3) (type BiDi))
        (pin (num 6) (name PD4) (type BiDi))
        (pin (num 7) (name VCC) (type power_in))
        (pin (num 8) (name GND) (type power_in))
        (pin (num 9) (name XTAL1/PB6) (type BiDi))
        (pin (num 10) (name XTAL2/PB7) (type BiDi))
        (pin (num 11) (name PD5) (type BiDi))
        (pin (num 12) (name PD6) (type BiDi))
        (pin (num 13) (name PD7) (type BiDi))
        (pin (num 14) (name PB0) (type BiDi))
        (pin (num 15) (name PB1) (type BiDi))
        (pin (num 16) (name PB2) (type BiDi))
        (pin (num 17) (name PB3) (type BiDi))
        (pin (num 18) (name PB4) (type BiDi))
        (pin (num 19) (name PB5) (type BiDi))
        (pin (num 20) (name AVCC) (type power_in))
        (pin (num 21) (name AREF) (type passive))
        (pin (num 22) (name GND) (type passive))
        (pin (num 23) (name PC0) (type BiDi))
        (pin (num 24) (name PC1) (type BiDi))
        (pin (num 25) (name PC2) (type BiDi))
        (pin (num 26) (name PC3) (type BiDi))
        (pin (num 27) (name PC4) (type BiDi))
        (pin (num 28) (name PC5) (type BiDi))))
    (libpart (lib proto-rescue) (part CP)
      (footprints
        (fp CP_*))
      (fields
        (field (name Reference) C)
        (field (name Value) CP))
      (pins
        (pin (num 1) (name ~) (type passive))
        (pin (num 2) (name ~) (type passive))))
    (libpart (lib proto-rescue) (part Conn_01x02)
      (footprints
        (fp Connector*:*_??x*mm*)
        (fp Connector*:*1x??x*mm*)
        (fp Pin?Header?Straight?1X*)
        (fp Pin?Header?Angled?1X*)
        (fp Socket?Strip?Straight?1X*)
        (fp Socket?Strip?Angled?1X*))
      (fields
        (field (name Reference) J)
        (field (name Value) Conn_01x02))
      (pins
        (pin (num 1) (name Pin_1) (type passive))
        (pin (num 2) (name Pin_2) (type passive))))
    (libpart (lib proto-rescue) (part Conn_01x03)
      (footprints
        (fp Connector*:*_??x*mm*)
        (fp Connector*:*1x??x*mm*)
        (fp Pin?Header?Straight?1X*)
        (fp Pin?Header?Angled?1X*)
        (fp Socket?Strip?Straight?1X*)
        (fp Socket?Strip?Angled?1X*))
      (fields
        (field (name Reference) J)
        (field (name Value) Conn_01x03))
      (pins
        (pin (num 1) (name Pin_1) (type passive))
        (pin (num 2) (name Pin_2) (type passive))
        (pin (num 3) (name Pin_3) (type passive))))
    (libpart (lib proto-rescue) (part Conn_02x04_Counter_Clockwise)
      (footprints
        (fp Connector*:*2x??x*mm*)
        (fp Connector*:*2x???Pitch*))
      (fields
        (field (name Reference) J)
        (field (name Value) Conn_02x04_Counter_Clockwise))
      (pins
        (pin (num 1) (name Pin_1) (type passive))
        (pin (num 2) (name Pin_2) (type passive))
        (pin (num 3) (name Pin_3) (type passive))
        (pin (num 4) (name Pin_4) (type passive))
        (pin (num 5) (name Pin_5) (type passive))
        (pin (num 6) (name Pin_6) (type passive))
        (pin (num 7) (name Pin_7) (type passive))
        (pin (num 8) (name Pin_8) (type passive))))
    (libpart (lib proto-rescue) (part LED)
      (footprints
        (fp LED*))
      (fields
        (field (name Reference) D)
        (field (name Value) LED))
      (pins
        (pin (num 1) (name K) (type passive))
        (pin (num 2) (name A) (type passive))))
    (libpart (lib proto-rescue) (part LP2950-3.0_TO92)
      (footprints
        (fp TO?92*))
      (fields
        (field (name Reference) U)
        (field (name Value) LP2950-3.0_TO92)
        (field (name Footprint) TO_SOT_Packages_THT:TO-92_Inline_Narrow_Oval))
      (pins
        (pin (num 1) (name VO) (type power_out))
        (pin (num 2) (name GND) (type power_in))
        (pin (num 3) (name VI) (type power_in))))
    (libpart (lib proto-rescue) (part R)
      (footprints
        (fp R_*)
        (fp R_*))
      (fields
        (field (name Reference) R)
        (field (name Value) R))
      (pins
        (pin (num 1) (name ~) (type passive))
        (pin (num 2) (name ~) (type passive)))))
  (libraries
    (library (logical Connector)
      (uri /usr/share/kicad/library/Connector.lib))
    (library (logical Device)
      (uri /usr/share/kicad/library/Device.lib))
    (library (logical MCU_Microchip_ATmega)
      (uri /usr/share/kicad/library/MCU_Microchip_ATmega.lib))
    (library (logical proto-rescue)
      (uri /home/dave/code/penelopean-robotics/pcb/robotv2.1/proto-rescue.lib)))
  (nets
    (net (code 1) (name "Net-(U1-Pad12)")
      (node (ref U1) (pin 12)))
    (net (code 2) (name "Net-(U1-Pad13)")
      (node (ref U1) (pin 13)))
    (net (code 3) (name "Net-(D1-Pad2)")
      (node (ref U1) (pin 14))
      (node (ref D1) (pin 2)))
    (net (code 4) (name "Net-(J5-Pad1)")
      (node (ref J5) (pin 1))
      (node (ref U1) (pin 2)))
    (net (code 5) (name "Net-(U1-Pad20)")
      (node (ref U1) (pin 20)))
    (net (code 6) (name "Net-(U1-Pad21)")
      (node (ref U1) (pin 21)))
    (net (code 7) (name Earth)
      (node (ref J3) (pin 1))
      (node (ref R2) (pin 1))
      (node (ref C3) (pin 2))
      (node (ref J2) (pin 3))
      (node (ref U2) (pin 2))
      (node (ref J5) (pin 3))
      (node (ref C2) (pin 2))
      (node (ref J7) (pin 3))
      (node (ref J6) (pin 1))
      (node (ref J9) (pin 3))
      (node (ref J8) (pin 3))
      (node (ref U1) (pin 8))
      (node (ref C1) (pin 2))
      (node (ref C5) (pin 2))
      (node (ref C4) (pin 2))
      (node (ref U1) (pin 22)))
    (net (code 8) (name "Net-(J7-Pad1)")
      (node (ref U1) (pin 23))
      (node (ref J7) (pin 1)))
    (net (code 9) (name "Net-(U1-Pad11)")
      (node (ref U1) (pin 11)))
    (net (code 10) (name "Net-(U1-Pad26)")
      (node (ref U1) (pin 26)))
    (net (code 11) (name /SDA)
      (node (ref J2) (pin 1))
      (node (ref U1) (pin 28)))
    (net (code 12) (name "Net-(U1-Pad3)")
      (node (ref U1) (pin 3)))
    (net (code 13) (name "Net-(U1-Pad5)")
      (node (ref U1) (pin 5)))
    (net (code 14) (name "Net-(U1-Pad6)")
      (node (ref U1) (pin 6)))
    (net (code 15) (name "Net-(C4-Pad1)")
      (node (ref U1) (pin 10))
      (node (ref Y1) (pin 1))
      (node (ref C4) (pin 1)))
    (net (code 16) (name "Net-(C5-Pad1)")
      (node (ref U1) (pin 9))
      (node (ref Y1) (pin 2))
      (node (ref C5) (pin 1)))
    (net (code 17) (name "Net-(R1-Pad2)")
      (node (ref R1) (pin 2))
      (node (ref U1) (pin 1)))
    (net (code 18) (name +5V)
      (node (ref J3) (pin 2))
      (node (ref J7) (pin 2))
      (node (ref J8) (pin 2))
      (node (ref J9) (pin 2))
      (node (ref C1) (pin 1))
      (node (ref U1) (pin 7))
      (node (ref J2) (pin 5))
      (node (ref R1) (pin 1))
      (node (ref J5) (pin 2))
      (node (ref U2) (pin 3))
      (node (ref C2) (pin 1)))
    (net (code 19) (name /SCL)
      (node (ref U1) (pin 27))
      (node (ref J2) (pin 2)))
    (net (code 20) (name "Net-(J2-Pad4)")
      (node (ref J2) (pin 4)))
    (net (code 21) (name "Net-(J1-Pad1)")
      (node (ref J1) (pin 1)))
    (net (code 22) (name "Net-(J4-Pad1)")
      (node (ref J4) (pin 1)))
    (net (code 23) (name /SCK)
      (node (ref U1) (pin 19))
      (node (ref J6) (pin 5)))
    (net (code 24) (name /MISO)
      (node (ref U1) (pin 18))
      (node (ref J6) (pin 7)))
    (net (code 25) (name /MOSI)
      (node (ref U1) (pin 17))
      (node (ref J6) (pin 6)))
    (net (code 26) (name /CE)
      (node (ref U1) (pin 15))
      (node (ref J6) (pin 3)))
    (net (code 27) (name /CSN)
      (node (ref U1) (pin 16))
      (node (ref J6) (pin 4)))
    (net (code 28) (name "Net-(D1-Pad1)")
      (node (ref D1) (pin 1))
      (node (ref R2) (pin 2)))
    (net (code 29) (name /IRQ)
      (node (ref J6) (pin 8))
      (node (ref U1) (pin 4)))
    (net (code 30) (name "Net-(J8-Pad1)")
      (node (ref J8) (pin 1))
      (node (ref U1) (pin 24)))
    (net (code 31) (name "Net-(J9-Pad1)")
      (node (ref U1) (pin 25))
      (node (ref J9) (pin 1)))
    (net (code 32) (name /Reg3v)
      (node (ref C3) (pin 1))
      (node (ref U2) (pin 1))
      (node (ref J6) (pin 2)))))