( pcb2gcode 2.4.0 )
( Software-independent Gcode )
( This file uses a mill head of 1.00000mm to drill the 3 hole sizes. )
( Hole sizes: [0.8001mm] [0.89916mm] [1.00076mm] )

G94       (Millimeters per minute feed rate.)
G21       (Units == Millimeters.)
G90       (Absolute coordinates.)
S15000    (RPM spindle speed.)

G01 F20.00000 (Feedrate)
G00 Z10.00000 (Retract to tool change height)
T1
M5        (Spindle stop.)
G04 P1.00000
(MSG, Change tool bit to drill size 1.00000mm)
M6        (Tool change.)
M0        (Temporary machine stop.)
M3        (Spindle on clockwise.)
G04 P1.00000
G00 Z1.00000

G0 X-40.83382 Y30.41711
G1 Z-2.50000 F10.00000
G1 Z1.00000 F10.00000

G0 X-31.22500 Y41.47627
G1 Z-2.50000 F10.00000
G1 Z1.00000 F10.00000

G0 X-23.60500 Y41.47627
G1 Z-2.50000 F10.00000
G1 Z1.00000 F10.00000

G0 X-13.42468 Y34.67669
G1 Z-2.50000 F10.00000
G1 Z1.00000 F10.00000

G0 X-13.42468 Y38.47653
G1 Z-2.50000 F10.00000
G1 Z1.00000 F10.00000

G0 X-17.29564 Y37.17605
G1 Z-2.50000 F10.00000
G1 Z1.00000 F10.00000

G0 X-19.79500 Y37.17605
G1 Z-2.50000 F10.00000
G1 Z1.00000 F10.00000

G0 X-22.83538 Y38.16665
G1 Z-2.50000 F10.00000
G1 Z1.00000 F10.00000

G0 X-22.83538 Y35.66729
G1 Z-2.50000 F10.00000
G1 Z1.00000 F10.00000

G0 X-25.89608 Y34.70717
G1 Z-2.50000 F10.00000
G1 Z1.00000 F10.00000

G0 X-30.89480 Y34.70717
G1 Z-2.50000 F10.00000
G1 Z1.00000 F10.00000

G0 X-38.29382 Y30.41711
G1 Z-2.50000 F10.00000
G1 Z1.00000 F10.00000

G0 X-35.75382 Y30.41711
G1 Z-2.50000 F10.00000
G1 Z1.00000 F10.00000

G0 X-33.21382 Y30.41711
G1 Z-2.50000 F10.00000
G1 Z1.00000 F10.00000

G0 X-30.67382 Y30.41711
G1 Z-2.50000 F10.00000
G1 Z1.00000 F10.00000

G0 X-28.13382 Y30.41711
G1 Z-2.50000 F10.00000
G1 Z1.00000 F10.00000

G0 X-25.59382 Y30.41711
G1 Z-2.50000 F10.00000
G1 Z1.00000 F10.00000

G0 X-23.05382 Y30.41711
G1 Z-2.50000 F10.00000
G1 Z1.00000 F10.00000

G0 X-20.51382 Y30.41711
G1 Z-2.50000 F10.00000
G1 Z1.00000 F10.00000

G0 X-17.97382 Y30.41711
G1 Z-2.50000 F10.00000
G1 Z1.00000 F10.00000

G0 X-15.43382 Y30.41711
G1 Z-2.50000 F10.00000
G1 Z1.00000 F10.00000

G0 X-12.89382 Y30.41711
G1 Z-2.50000 F10.00000
G1 Z1.00000 F10.00000

G0 X-10.35382 Y30.41711
G1 Z-2.50000 F10.00000
G1 Z1.00000 F10.00000

G0 X-7.81382 Y30.41711
G1 Z-2.50000 F10.00000
G1 Z1.00000 F10.00000

G0 X-7.81382 Y22.79711
G1 Z-2.50000 F10.00000
G1 Z1.00000 F10.00000

G0 X-10.35382 Y22.79711
G1 Z-2.50000 F10.00000
G1 Z1.00000 F10.00000

G0 X-12.89382 Y22.79711
G1 Z-2.50000 F10.00000
G1 Z1.00000 F10.00000

G0 X-15.43382 Y22.79711
G1 Z-2.50000 F10.00000
G1 Z1.00000 F10.00000

G0 X-17.97382 Y22.79711
G1 Z-2.50000 F10.00000
G1 Z1.00000 F10.00000

G0 X-20.51382 Y22.79711
G1 Z-2.50000 F10.00000
G1 Z1.00000 F10.00000

G0 X-23.05382 Y22.79711
G1 Z-2.50000 F10.00000
G1 Z1.00000 F10.00000

G0 X-25.59382 Y22.79711
G1 Z-2.50000 F10.00000
G1 Z1.00000 F10.00000

G0 X-28.13382 Y22.79711
G1 Z-2.50000 F10.00000
G1 Z1.00000 F10.00000

G0 X-30.67382 Y22.79711
G1 Z-2.50000 F10.00000
G1 Z1.00000 F10.00000

G0 X-33.21382 Y22.79711
G1 Z-2.50000 F10.00000
G1 Z1.00000 F10.00000

G0 X-35.75382 Y22.79711
G1 Z-2.50000 F10.00000
G1 Z1.00000 F10.00000

G0 X-38.29382 Y22.79711
G1 Z-2.50000 F10.00000
G1 Z1.00000 F10.00000

G0 X-40.83382 Y22.79711
G1 Z-2.50000 F10.00000
G1 Z1.00000 F10.00000

G0 X-44.47618 Y26.01529
G1 Z-2.50000 F10.00000
G1 Z1.00000 F10.00000

G0 X-44.47618 Y18.39529
G1 Z-2.50000 F10.00000
G1 Z1.00000 F10.00000

G0 X-31.17420 Y5.07553
G1 Z-2.50000 F10.00000
G1 Z1.00000 F10.00000

G0 X-28.67484 Y5.07553
G1 Z-2.50000 F10.00000
G1 Z1.00000 F10.00000

G0 X-25.37538 Y5.07553
G1 Z-2.50000 F10.00000
G1 Z1.00000 F10.00000

G0 X-22.83538 Y5.07553
G1 Z-2.50000 F10.00000
G1 Z1.00000 F10.00000

G0 X-20.29538 Y5.07553
G1 Z-2.50000 F10.00000
G1 Z1.00000 F10.00000

G0 X-15.37540 Y5.87563
G1 Z-2.50000 F10.00000
G1 Z1.00000 F10.00000

G0 X-15.37540 Y3.37627
G1 Z-2.50000 F10.00000
G1 Z1.00000 F10.00000

G0 X-19.79500 Y41.47627
G1 Z-2.50000 F10.00000
G1 Z1.00000 F10.00000

G0 X-17.25500 Y41.47627
G1 Z-2.50000 F10.00000
G1 Z1.00000 F10.00000

G0 X-39.58414 Y33.86643
G1 Z-2.50000 F10.00000
G1 Z1.00000 F10.00000

G0 X-37.57500 Y40.20627
G1 Z-2.50000 F10.00000
G1 Z1.00000 F10.00000

G0 X-35.03500 Y40.20627
G1 Z-2.50000 F10.00000
G1 Z1.00000 F10.00000

G0 X-37.04414 Y33.86643
G1 Z-2.50000 F10.00000
G1 Z1.00000 F10.00000

G0 X-34.50414 Y33.86643
G1 Z-2.50000 F10.00000
G1 Z1.00000 F10.00000

G0 X-38.24556 Y18.25559
G1 Z-2.50000 F10.00000
G1 Z1.00000 F10.00000

G0 X-38.24556 Y15.71559
G1 Z-2.50000 F10.00000
G1 Z1.00000 F10.00000

G0 X-38.24556 Y13.17559
G1 Z-2.50000 F10.00000
G1 Z1.00000 F10.00000

G0 X-38.24556 Y10.63559
G1 Z-2.50000 F10.00000
G1 Z1.00000 F10.00000

G0 X-38.24556 Y8.09559
G1 Z-2.50000 F10.00000
G1 Z1.00000 F10.00000

G0 X-31.26564 Y12.10625
G1 Z-2.50000 F10.00000
G1 Z1.00000 F10.00000

G0 X-28.72564 Y12.10625
G1 Z-2.50000 F10.00000
G1 Z1.00000 F10.00000

G0 X-26.18564 Y12.10625
G1 Z-2.50000 F10.00000
G1 Z1.00000 F10.00000

G0 X-26.12468 Y15.40571
G1 Z-2.50000 F10.00000
G1 Z1.00000 F10.00000

G0 X-28.66468 Y15.40571
G1 Z-2.50000 F10.00000
G1 Z1.00000 F10.00000

G0 X-31.20468 Y15.40571
G1 Z-2.50000 F10.00000
G1 Z1.00000 F10.00000

G0 X-31.19452 Y18.62643
G1 Z-2.50000 F10.00000
G1 Z1.00000 F10.00000

G0 X-28.65452 Y18.62643
G1 Z-2.50000 F10.00000
G1 Z1.00000 F10.00000

G0 X-26.11452 Y18.62643
G1 Z-2.50000 F10.00000
G1 Z1.00000 F10.00000

G0 X-21.52474 Y20.36633
G1 Z-2.50000 F10.00000
G1 Z1.00000 F10.00000

G0 X-18.04494 Y18.42577
G1 Z-2.50000 F10.00000
G1 Z1.00000 F10.00000

G0 X-15.50494 Y18.42577
G1 Z-2.50000 F10.00000
G1 Z1.00000 F10.00000

G0 X-15.50494 Y15.88577
G1 Z-2.50000 F10.00000
G1 Z1.00000 F10.00000

G0 X-18.04494 Y15.88577
G1 Z-2.50000 F10.00000
G1 Z1.00000 F10.00000

G0 X-18.04494 Y13.34577
G1 Z-2.50000 F10.00000
G1 Z1.00000 F10.00000

G0 X-15.50494 Y10.80577
G1 Z-2.50000 F10.00000
G1 Z1.00000 F10.00000

G0 X-18.04494 Y10.80577
G1 Z-2.50000 F10.00000
G1 Z1.00000 F10.00000

G0 X-15.50494 Y13.34577
G1 Z-2.50000 F10.00000
G1 Z1.00000 F10.00000

G0 X-12.86588 Y18.42577
G1 Z-2.50000 F10.00000
G1 Z1.00000 F10.00000

G0 X-7.97384 Y18.31655
G1 Z-2.50000 F10.00000
G1 Z1.00000 F10.00000

G0 X-7.95606 Y20.41713
G1 Z-2.50000 F10.00000
G1 Z1.00000 F10.00000

G00 Z10.000000 ( All done -- retract )

M5      (Spindle off.)
G04 P1.000000
M9      (Coolant off.)
M2      (Program end.)

