( pcb2gcode 2.4.0 )
( Software-independent Gcode )

G94 ( Millimeters per minute feed rate. )
G21 ( Units == Millimeters. )

G90 ( Absolute coordinates. )
G00 S15000 ( RPM spindle speed. )
G01 F20.00000 ( Feedrate. )


G00 Z10.00000 (Retract to tool change height)
T0
M5      (Spindle stop.)
G04 P1.00000 (Wait for spindle to stop)
(MSG, Change tool bit to cutter diameter 0.80000mm)
M6      (Tool change.)
M0      (Temporary machine stop.)
M3 ( Spindle on clockwise. )
G04 P1.00000 (Wait for spindle to get up to speed)
G04 P0 ( dwell for no time -- G64 should not smooth over this point )
G00 Z1.00000 ( retract )

G00 X-24.93670 Y38.06581 ( rapid move to begin. )
G01 Z-2.50000 F10.00000 ( plunge. )
G04 P0 ( dwell for no time -- G64 should not smooth over this point )
G01 F20.00000
G00 Z-0.60000
G01 X-24.96070 Y37.83749
G01 X-25.03164 Y37.61913
G01 X-25.14645 Y37.42032
G01 X-25.30009 Y37.24966
G01 X-25.36157 Y37.20499
G01 Z-2.50000 F10.00000
G01 F20.00000
G01 X-25.48584 Y37.11471
G01 X-25.69560 Y37.02131
G01 X-25.92018 Y36.97359
G01 X-26.14978 Y36.97359
G01 X-26.37436 Y37.02131
G01 X-26.58412 Y37.11471
G01 X-26.76987 Y37.24966
G01 X-26.92348 Y37.42030
G01 X-27.03829 Y37.61913
G01 X-27.08575 Y37.76522
G00 Z-0.60000
G01 X-27.10923 Y37.83749
G01 X-27.13324 Y38.06581
G01 X-27.10923 Y38.29418
G01 X-27.03829 Y38.51255
G01 X-26.92348 Y38.71138
G01 X-26.76987 Y38.88196
G01 X-26.70835 Y38.92667
G01 Z-2.50000 F10.00000
G01 F20.00000
G01 X-26.58412 Y39.01694
G01 X-26.37436 Y39.11034
G01 X-26.14978 Y39.15806
G01 X-25.92018 Y39.15806
G01 X-25.69560 Y39.11034
G01 X-25.48584 Y39.01694
G01 X-25.30007 Y38.88196
G01 X-25.14645 Y38.71135
G01 X-25.03164 Y38.51255
G01 X-24.98418 Y38.36646
G00 Z-0.60000
G01 X-24.96070 Y38.29418
G01 X-24.93670 Y38.06581
G04 P0 ( dwell for no time -- G64 should not smooth over this point )
G00 Z1.00000 ( retract )

G00 X-24.84665 Y8.45630 ( rapid move to begin. )
G01 Z-2.50000 F10.00000 ( plunge. )
G04 P0 ( dwell for no time -- G64 should not smooth over this point )
G01 F20.00000
G00 Z-0.60000
G01 X-24.87076 Y8.22696
G01 X-24.94206 Y8.00763
G01 X-25.05732 Y7.80796
G01 X-25.10651 Y7.75332
G01 Z-2.50000 F10.00000
G01 F20.00000
G01 X-25.21163 Y7.63656
G01 X-25.39819 Y7.50103
G01 X-25.60883 Y7.40722
G01 X-25.83443 Y7.35929
G01 X-26.06502 Y7.35929
G01 X-26.29057 Y7.40722
G01 X-26.50124 Y7.50103
G01 X-26.68780 Y7.63656
G01 X-26.84210 Y7.80794
G01 X-26.92068 Y7.94400
G00 Z-0.60000
G01 X-26.95742 Y8.00763
G01 X-27.02867 Y8.22693
G01 X-27.05277 Y8.45630
G01 X-27.02867 Y8.68566
G01 X-26.95742 Y8.90496
G01 X-26.84210 Y9.10466
G01 X-26.79292 Y9.15928
G01 Z-2.50000 F10.00000
G01 F20.00000
G01 X-26.68780 Y9.27603
G01 X-26.50126 Y9.41156
G01 X-26.29057 Y9.50537
G01 X-26.06502 Y9.55330
G01 X-25.83441 Y9.55330
G01 X-25.60886 Y9.50537
G01 X-25.39816 Y9.41156
G01 X-25.21163 Y9.27603
G01 X-25.05732 Y9.10466
G01 X-24.97879 Y8.96860
G00 Z-0.60000
G01 X-24.94206 Y8.90496
G01 X-24.87076 Y8.68563
G01 X-24.84665 Y8.45630
G04 P0 ( dwell for no time -- G64 should not smooth over this point )
G00 Z1.00000 ( retract )

G00 X-0.47497 Y22.52569 ( rapid move to begin. )
G01 Z-2.50000 F10.00000 ( plunge. )
G04 P0 ( dwell for no time -- G64 should not smooth over this point )
G01 F20.00000
G01 X-0.48107 Y22.45622
G01 X-0.49910 Y22.38886
G01 X-0.52857 Y22.32566
G01 X-13.02857 Y0.67501
G01 X-13.06857 Y0.61791
G01 X-13.11787 Y0.56860
G01 X-13.17497 Y0.52860
G01 X-13.23817 Y0.49914
G01 X-13.30553 Y0.48110
G01 X-13.37500 Y0.47501
G01 X-25.22500 Y0.47501
G00 Z-0.60000
G01 X-26.52500 Y0.47501
G01 Z-2.50000 F10.00000
G01 F20.00000
G01 X-38.37500 Y0.47501
G01 X-38.44444 Y0.48110
G01 X-38.51180 Y0.49914
G01 X-38.57500 Y0.52860
G01 X-38.63210 Y0.56860
G01 X-38.68140 Y0.61791
G01 X-38.72138 Y0.67501
G01 X-51.22140 Y22.32566
G01 X-51.25087 Y22.38886
G01 X-51.26890 Y22.45622
G01 X-51.27500 Y22.52569
G01 X-51.26890 Y22.59513
G01 X-51.25087 Y22.66249
G01 X-51.22140 Y22.72569
G01 X-38.72138 Y44.37631
G01 X-38.68140 Y44.43341
G01 X-38.63210 Y44.48272
G01 X-38.57500 Y44.52272
G01 X-38.51180 Y44.55218
G01 X-38.44444 Y44.57022
G01 X-38.37500 Y44.57631
G01 X-26.52500 Y44.57631
G00 Z-0.60000
G01 X-25.22500 Y44.57631
G01 Z-2.50000 F10.00000
G01 F20.00000
G01 X-13.37500 Y44.57631
G01 X-13.30553 Y44.57022
G01 X-13.23817 Y44.55218
G01 X-13.17497 Y44.52272
G01 X-13.11787 Y44.48272
G01 X-13.06857 Y44.43341
G01 X-13.02857 Y44.37631
G01 X-0.52857 Y22.72569
G01 X-0.49910 Y22.66249
G01 X-0.48107 Y22.59513
G01 X-0.47497 Y22.52569

G04 P0 ( dwell for no time -- G64 should not smooth over this point )
G00 Z10.000000 ( retract )

M5 ( Spindle off. )
G04 P1.000000
M9 ( Coolant off. )
M2 ( Program end. )

