<?xml version="1.0" standalone="no"?>
<!DOCTYPE svg PUBLIC "-//W3C//DTD SVG 1.1//EN"
"http://www.w3.org/Graphics/SVG/1.1/DTD/svg11.dtd">
<svg width="195.591" height="170.273" viewBox="0 0 4074.8 3547.34" version="1.1"
xmlns="http://www.w3.org/2000/svg"
xmlns:xlink="http://www.w3.org/1999/xlink">
<g fill-rule="evenodd"><path d="M 123.451,1773.67 L 124.054,1770.25 L 125.865,1765.8 L 127.643,1762.58 L 129.832,1759.94 L 495.683,1126.27 L 498.118,1123.44 L 501.42,1121.7 L 505.128,1121.3 L 508.727,1122.28 L 511.716,1124.51 L 513.679,1127.68 L 514.343,1131.35 L 512.361,1142.22 L 512.361,1162.5 L 516.319,1182.4 L 524.083,1201.14 L 535.355,1218.02 L 549.701,1232.36 L 566.568,1243.63 L 585.311,1251.39 L 605.21,1255.35 L 625.497,1255.35 L 645.395,1251.39 L 664.138,1243.63 L 681.006,1232.36 L 695.353,1218.01 L 708.157,1199.14 L 711.038,1197.06 L 714.462,1196.12 L 717.999,1196.44 L 719.669,1197.06 L 722.55,1199.14 L 735.354,1218.01 L 749.701,1232.36 L 766.568,1243.63 L 785.311,1251.39 L 802.04,1254.72 L 828.667,1254.72 L 845.395,1251.39 L 864.138,1243.63 L 881.006,1232.36 L 895.353,1218.01 L 908.157,1199.14 L 911.038,1197.06 L 914.462,1196.12 L 917.999,1196.44 L 919.669,1197.06 L 922.55,1199.14 L 935.354,1218.01 L 949.701,1232.36 L 966.568,1243.63 L 985.311,1251.39 L 1002.04,1254.72 L 1028.67,1254.72 L 1045.4,1251.39 L 1064.14,1243.63 L 1081.01,1232.36 L 1095.35,1218.01 L 1108.16,1199.14 L 1111.04,1197.06 L 1114.46,1196.12 L 1118,1196.44 L 1119.67,1197.06 L 1122.55,1199.14 L 1135.35,1218.01 L 1149.7,1232.36 L 1166.57,1243.63 L 1185.31,1251.39 L 1202.04,1254.72 L 1228.67,1254.72 L 1245.4,1251.39 L 1264.14,1243.63 L 1281.01,1232.36 L 1295.35,1218.01 L 1308.16,1199.14 L 1311.04,1197.06 L 1314.46,1196.12 L 1318,1196.44 L 1319.67,1197.06 L 1322.55,1199.14 L 1335.35,1218.01 L 1349.7,1232.36 L 1366.57,1243.63 L 1385.31,1251.39 L 1402.04,1254.72 L 1428.67,1254.72 L 1445.4,1251.39 L 1464.14,1243.63 L 1481.01,1232.36 L 1495.35,1218.01 L 1508.16,1199.14 L 1509.5,1197.97 L 1512.71,1196.44 L 1516.24,1196.12 L 1519.67,1197.06 L 1522.55,1199.14 L 1535.35,1218.01 L 1549.7,1232.36 L 1566.57,1243.63 L 1585.31,1251.39 L 1602.04,1254.72 L 1628.67,1254.72 L 1645.4,1251.39 L 1664.14,1243.63 L 1681.01,1232.36 L 1695.35,1218.01 L 1706.62,1201.14 L 1714.39,1182.4 L 1718.35,1162.51 L 1718.35,1142.22 L 1714.39,1122.32 L 1706.62,1103.58 L 1695.35,1086.71 L 1681.01,1072.36 L 1672.46,1066.42 L 1671.21,1064.9 L 1669.72,1061.3 L 1669.72,972.975 L 1671.21,969.37 L 1672.46,967.855 L 1796.61,843.878 L 1797.95,843.058 L 1800.92,842.091 L 1808.17,841.968 L 1828.07,838.01 L 1846.82,830.246 L 1863.68,818.975 L 1878.03,804.629 L 1889.3,787.762 L 1897.06,769.018 L 1901.02,749.118 L 1901.02,728.832 L 1897.06,708.933 L 1889.3,690.191 L 1878.03,673.323 L 1863.68,658.975 L 1846.82,647.707 L 1828.07,639.942 L 1808.17,635.984 L 1787.89,635.984 L 1767.99,639.942 L 1749.24,647.707 L 1732.38,658.975 L 1718.03,673.322 L 1706.76,690.191 L 1699,708.933 L 1695.04,728.832 L 1695.04,749.119 L 1698.72,768.302 L 1698.29,771.533 L 1696.85,774.455 L 1587.26,884.235 L 1586.07,885.254 L 1583.28,886.675 L 1580.19,887.164 L 1210.36,887.164 L 1207.27,886.675 L 1204.48,885.254 L 1203.29,884.235 L 1158.19,839.141 L 1156.3,836.492 L 1155.35,833.374 L 1155.27,831.741 L 1156.14,826.685 L 1156.14,807.172 L 1152.33,788.034 L 1144.87,770.01 L 1134.03,753.785 L 1120.23,739.987 L 1104.01,729.146 L 1085.98,721.68 L 1066.84,717.872 L 1047.33,717.872 L 1028.19,721.68 L 1010.61,728.754 L 1006.71,728.754 L 1004.83,728.185 L 1001.59,726.017 L 999.421,722.773 L 998.659,718.946 L 998.852,662.739 L 1000.34,659.134 L 1001.59,657.619 L 1039.51,619.699 L 1042.04,617.86 L 1043.49,617.259 L 1046.58,616.77 L 1066.84,616.77 L 1085.98,612.964 L 1104.01,605.496 L 1120.23,594.656 L 1134.56,580.329 L 1135.75,579.31 L 1138.54,577.889 L 1141.63,577.4 L 1230.58,577.4 L 1233.67,577.889 L 1236.46,579.31 L 1237.65,580.329 L 1256.44,599.113 L 1258.34,601.761 L 1258.94,603.282 L 1259.36,606.512 L 1258.82,609.934 L 1258.82,630.221 L 1262.77,650.117 L 1270.54,668.863 L 1281.81,685.731 L 1296.16,700.076 L 1313.03,711.349 L 1331.77,719.112 L 1351.67,723.07 L 1371.95,723.07 L 1391.85,719.112 L 1410.59,711.348 L 1427.46,700.076 L 1441.81,685.731 L 1453.08,668.863 L 1460.84,650.117 L 1464.8,630.221 L 1464.8,609.933 L 1460.84,590.038 L 1453.08,571.293 L 1441.81,554.425 L 1427.46,540.077 L 1410.59,528.808 L 1391.85,521.044 L 1371.95,517.086 L 1351.67,517.086 L 1348.25,517.631 L 1346.61,517.551 L 1343.49,516.605 L 1340.85,514.707 L 1304.07,477.933 L 1301.86,475.307 L 1292.77,467.849 L 1282.4,462.308 L 1271.15,458.893 L 1259.45,457.742 L 1256.03,458.03 L 1140.06,457.907 L 1137.09,456.94 L 1134.56,455.101 L 1120.23,440.774 L 1104.01,429.934 L 1085.98,422.467 L 1082.4,421.557 L 1079.15,419.389 L 1076.99,416.145 L 1076.23,412.318 L 1076.99,408.492 L 1079.16,405.249 L 1141.87,342.535 L 1144.4,340.696 L 1145.85,340.095 L 1148.94,339.606 L 1260.76,339.798 L 1262.63,340.367 L 1265.88,342.534 L 1272.54,352.167 L 1287.99,367.61 L 1306.15,379.744 L 1326.32,388.1 L 1347.74,392.362 L 1369.58,392.362 L 1391,388.1 L 1411.17,379.744 L 1429.33,367.61 L 1435.31,361.881 L 1436.95,360.977 L 1440.58,360.152 L 1444.26,360.715 L 1447.49,362.587 L 1449.8,365.508 L 1450.66,367.742 L 1454.37,374.691 L 1459.37,380.783 L 1465.46,385.781 L 1472.41,389.495 L 1479.96,391.783 L 1488.29,392.604 L 1629.04,392.604 L 1637.37,391.783 L 1644.91,389.495 L 1651.86,385.781 L 1657.95,380.783 L 1662.95,374.691 L 1666.66,367.744 L 1668.95,360.201 L 1669.96,349.229 L 1671.45,345.624 L 1674.21,342.865 L 1675.94,341.941 L 1679.77,341.18 L 1770.96,341.314 L 1774.04,342.361 L 1776.63,344.345 L 1778.66,347.15 L 1793.01,361.495 L 1809.88,372.766 L 1828.62,380.528 L 1848.52,384.488 L 1868.8,384.488 L 1888.7,380.528 L 1907.44,372.766 L 1924.31,361.495 L 1938.66,347.149 L 1949.93,330.279 L 1957.69,311.537 L 1961.65,291.638 L 1961.65,271.352 L 1957.69,251.453 L 1949.93,232.711 L 1938.66,215.841 L 1924.31,201.496 L 1907.44,190.224 L 1888.7,182.462 L 1868.8,178.502 L 1848.52,178.502 L 1828.62,182.462 L 1809.88,190.224 L 1793.01,201.496 L 1778.66,215.84 L 1776.63,218.646 L 1774.04,220.629 L 1770.96,221.676 L 1679.77,221.81 L 1675.94,221.049 L 1674.21,220.125 L 1671.45,217.366 L 1669.96,213.761 L 1668.95,202.79 L 1666.66,195.247 L 1662.95,188.299 L 1657.95,182.207 L 1651.86,177.209 L 1644.91,173.496 L 1637.37,171.207 L 1629.04,170.386 L 1488.29,170.386 L 1479.96,171.207 L 1472.41,173.496 L 1465.46,177.209 L 1459.37,182.207 L 1454.37,188.299 L 1450.66,195.248 L 1449.8,197.482 L 1447.49,200.403 L 1444.26,202.275 L 1440.58,202.838 L 1436.95,202.013 L 1435.31,201.109 L 1429.33,195.379 L 1411.17,183.246 L 1391,174.89 L 1369.58,170.628 L 1347.74,170.628 L 1326.32,174.89 L 1306.15,183.246 L 1287.99,195.379 L 1272.54,210.823 L 1267.98,217.308 L 1266.46,218.551 L 1262.86,220.044 L 1123.5,220.236 L 1120.08,219.946 L 1108.38,221.099 L 1097.13,224.512 L 1086.76,230.053 L 1077.67,237.514 L 1075.45,240.137 L 967.886,347.703 L 966.407,348.922 L 962.895,350.414 L 959.079,350.48 L 955.516,349.113 L 952.725,346.51 L 951.112,343.051 L 950.913,339.24 L 952.155,335.632 L 1076.77,119.802 L 1079,117.142 L 1080.43,116.142 L 1083.69,114.954 L 1085.43,114.802 L 2989.38,114.802 L 2992.8,115.405 L 2995.8,117.142 L 2998.04,119.802 L 3950.01,1768.67 L 3951.2,1771.93 L 3951.35,1773.67 L 3950.75,1777.09 L 3950.01,1778.67 L 2998.04,3427.54 L 2997.04,3428.97 L 2994.38,3431.2 L 2992.8,3431.94 L 2989.38,3432.54 L 1085.43,3432.54 L 1083.69,3432.39 L 1080.43,3431.2 L 1079,3430.2 L 1076.77,3427.54 L 780.811,2914.93 L 777.82,2911.01 L 126.86,1783.51 L 124.054,1777.09 L 123.451,1773.67M 426.246,2052.47 L 427.399,2064.17 L 430.81,2075.42 L 436.352,2085.79 L 443.809,2094.88 L 446.437,2097.09 L 494.243,2144.9 L 496.458,2147.52 L 505.547,2154.98 L 515.917,2160.53 L 527.168,2163.94 L 539.823,2165.18 L 543.208,2166.14 L 546.054,2168.21 L 547.954,2170.77 L 562.299,2185.12 L 579.165,2196.39 L 597.909,2204.15 L 617.81,2208.11 L 638.097,2208.11 L 657.994,2204.15 L 676.738,2196.39 L 693.605,2185.12 L 707.951,2170.77 L 719.221,2153.9 L 726.986,2135.16 L 730.943,2115.26 L 730.943,2094.97 L 726.986,2075.08 L 719.221,2056.33 L 707.952,2039.46 L 696.156,2027.45 L 694.688,2024.31 L 694.385,2020.85 L 695.284,2017.49 L 696.156,2015.98 L 706.508,2005.41 L 717.779,1988.55 L 725.544,1969.8 L 729.501,1949.91 L 729.501,1929.62 L 725.544,1909.72 L 717.779,1890.98 L 706.508,1874.11 L 692.163,1859.76 L 679.482,1851.29 L 677.104,1849.06 L 675.568,1846.19 L 675.171,1844.61 L 675.037,1841.69 L 675.568,1838.48 L 677.104,1835.61 L 678.202,1834.4 L 681.006,1832.36 L 695.353,1818.01 L 708.157,1799.14 L 711.038,1797.06 L 714.462,1796.12 L 717.999,1796.44 L 721.202,1797.97 L 723.668,1800.52 L 735.354,1818.01 L 750.834,1833.77 L 752.327,1837.37 L 752.519,1839.32 L 752.519,2200.77 L 752.23,2204.19 L 753.383,2215.89 L 756.795,2227.14 L 762.338,2237.51 L 769.798,2246.6 L 772.42,2248.81 L 1059.84,2536.24 L 1062.06,2538.86 L 1071.15,2546.32 L 1081.52,2551.86 L 1092.77,2555.28 L 1104.47,2556.43 L 1107.89,2556.14 L 1126.8,2556.14 L 1128.43,2556.27 L 1131.51,2557.32 L 1134.1,2559.31 L 1137.81,2564.62 L 1152.7,2579.51 L 1165.62,2588.14 L 1167.13,2589.38 L 1169.3,2592.63 L 1170.06,2596.45 L 1169.3,2600.28 L 1168.37,2602.01 L 1165.62,2604.77 L 1152.7,2613.4 L 1137.81,2628.29 L 1126.11,2645.8 L 1118.05,2665.26 L 1113.94,2685.92 L 1113.94,2706.99 L 1118.04,2727.64 L 1126.11,2747.11 L 1137.81,2764.62 L 1152.7,2779.51 L 1156.74,2782.21 L 1159.5,2784.97 L 1160.42,2786.7 L 1161.18,2790.52 L 1160.99,2973.36 L 1159.49,2976.97 L 1156.74,2979.72 L 1155.01,2980.65 L 1153.13,2981.22 L 1139.8,2982.23 L 1132.25,2984.52 L 1125.31,2988.23 L 1119.22,2993.23 L 1114.22,2999.32 L 1110.5,3006.27 L 1108.21,3013.81 L 1107.4,3022.14 L 1107.4,3147.14 L 1108.21,3155.48 L 1110.5,3163.02 L 1114.22,3169.97 L 1119.22,3176.06 L 1125.31,3181.06 L 1132.26,3184.77 L 1139.8,3187.06 L 1148.13,3187.88 L 1195.21,3188.03 L 1196.87,3188.46 L 1199.84,3190.15 L 1208.81,3197.5 L 1219.18,3203.04 L 1230.42,3206.46 L 1242.13,3207.61 L 1245.55,3207.32 L 1490.74,3207.49 L 1494.12,3208.78 L 1496.83,3211.2 L 1498.49,3214.42 L 1501.05,3222.86 L 1504.77,3229.81 L 1509.77,3235.9 L 1515.86,3240.9 L 1522.81,3244.61 L 1530.35,3246.9 L 1538.68,3247.72 L 1657.38,3247.72 L 1665.71,3246.9 L 1673.25,3244.61 L 1680.2,3240.9 L 1686.29,3235.9 L 1691.29,3229.81 L 1695.01,3222.86 L 1697.29,3215.32 L 1698.12,3206.99 L 1698.12,3088.29 L 1697.29,3079.95 L 1695.01,3072.42 L 1691.29,3065.46 L 1686.29,3059.37 L 1680.2,3054.37 L 1673.25,3050.66 L 1665.71,3048.37 L 1657.38,3047.55 L 1538.68,3047.55 L 1530.35,3048.37 L 1522.81,3050.66 L 1515.86,3054.37 L 1509.77,3059.37 L 1504.77,3065.46 L 1501.05,3072.41 L 1498.49,3080.86 L 1496.83,3084.08 L 1494.12,3086.49 L 1490.74,3087.79 L 1323.86,3087.95 L 1321.91,3087.76 L 1318.31,3086.27 L 1315.55,3083.51 L 1314.06,3079.9 L 1313.86,3077.95 L 1313.86,3022.14 L 1313.04,3013.81 L 1310.76,3006.27 L 1307.04,2999.32 L 1302.04,2993.23 L 1295.95,2988.23 L 1284.42,2982.44 L 1282.01,2979.74 L 1280.72,2976.35 L 1280.55,2790.52 L 1280.74,2788.57 L 1282.23,2784.97 L 1284.99,2782.21 L 1289.03,2779.51 L 1303.92,2764.62 L 1315.62,2747.11 L 1323.69,2727.64 L 1327.79,2706.99 L 1327.79,2685.92 L 1323.69,2665.27 L 1315.62,2645.81 L 1303.92,2628.29 L 1289.03,2613.4 L 1274.6,2603.52 L 1272.43,2600.28 L 1271.86,2598.4 L 1271.86,2594.5 L 1272.43,2592.63 L 1274.6,2589.38 L 1289.03,2579.51 L 1303.92,2564.62 L 1313.67,2550.32 L 1316.55,2548.24 L 1319.97,2547.3 L 1321.76,2547.3 L 1325.18,2548.24 L 1328.06,2550.32 L 1337.81,2564.62 L 1352.7,2579.51 L 1370.22,2591.21 L 1389.67,2599.28 L 1410.33,2603.38 L 1431.4,2603.38 L 1452.05,2599.28 L 1471.51,2591.21 L 1489.03,2579.51 L 1503.92,2564.62 L 1515.62,2547.1 L 1523.69,2527.64 L 1527.79,2506.99 L 1527.79,2485.92 L 1526.66,2479.21 L 1526.85,2477.26 L 1528.34,2473.66 L 1734.66,2267.06 L 1737.29,2264.85 L 1744.75,2255.76 L 1750.29,2245.39 L 1753.7,2234.14 L 1754.85,2222.44 L 1754.57,2219.02 L 1754.7,2031.4 L 1755.75,2028.32 L 1757.73,2025.73 L 1760.54,2023.7 L 1774.88,2009.35 L 1786.15,1992.49 L 1793.92,1973.74 L 1797.87,1953.84 L 1797.87,1933.55 L 1793.92,1913.66 L 1786.15,1894.91 L 1774.88,1878.05 L 1760.53,1863.7 L 1743.67,1852.43 L 1724.92,1844.67 L 1705.02,1840.71 L 1696.8,1840.71 L 1693.26,1840.06 L 1690.17,1838.19 L 1687.95,1835.36 L 1686.87,1831.91 L 1687.09,1828.31 L 1688.57,1825.03 L 1695.35,1818.01 L 1708.16,1799.14 L 1709.5,1797.97 L 1712.71,1796.44 L 1716.24,1796.12 L 1719.67,1797.06 L 1722.55,1799.14 L 1735.35,1818.01 L 1749.7,1832.36 L 1766.57,1843.63 L 1785.31,1851.39 L 1805.21,1855.35 L 1825.5,1855.35 L 1845.4,1851.39 L 1864.14,1843.63 L 1881.01,1832.36 L 1895.35,1818.01 L 1906.62,1801.14 L 1914.39,1782.4 L 1918.35,1762.51 L 1918.35,1742.22 L 1914.39,1722.32 L 1906.62,1703.58 L 1895.35,1686.71 L 1881.01,1672.36 L 1864.14,1661.09 L 1845.4,1653.33 L 1825.5,1649.37 L 1805.21,1649.37 L 1785.31,1653.33 L 1766.57,1661.09 L 1749.7,1672.36 L 1735.35,1686.71 L 1722.55,1705.59 L 1719.67,1707.66 L 1716.24,1708.6 L 1712.71,1708.29 L 1711.04,1707.66 L 1708.16,1705.59 L 1695.35,1686.71 L 1681.01,1672.36 L 1664.14,1661.09 L 1645.4,1653.33 L 1625.5,1649.37 L 1605.21,1649.37 L 1585.31,1653.33 L 1566.57,1661.09 L 1549.7,1672.36 L 1535.35,1686.71 L 1522.55,1705.59 L 1519.67,1707.66 L 1516.24,1708.6 L 1512.71,1708.29 L 1509.5,1706.75 L 1508.16,1705.59 L 1495.35,1686.71 L 1481.01,1672.36 L 1464.14,1661.09 L 1445.4,1653.33 L 1425.5,1649.37 L 1405.21,1649.37 L 1385.31,1653.33 L 1366.57,1661.09 L 1349.7,1672.36 L 1335.35,1686.71 L 1322.55,1705.59 L 1319.67,1707.66 L 1316.24,1708.6 L 1312.71,1708.29 L 1311.04,1707.66 L 1308.16,1705.59 L 1295.35,1686.71 L 1281.01,1672.36 L 1264.14,1661.09 L 1245.4,1653.33 L 1225.5,1649.37 L 1205.21,1649.37 L 1185.31,1653.33 L 1166.57,1661.09 L 1149.7,1672.36 L 1135.35,1686.71 L 1122.55,1705.59 L 1119.67,1707.66 L 1116.24,1708.6 L 1112.71,1708.29 L 1111.04,1707.66 L 1108.16,1705.59 L 1095.35,1686.71 L 1081.01,1672.36 L 1064.14,1661.09 L 1045.4,1653.33 L 1025.5,1649.37 L 1005.21,1649.37 L 985.312,1653.33 L 966.568,1661.09 L 949.699,1672.36 L 935.355,1686.71 L 922.55,1705.59 L 919.669,1707.66 L 916.245,1708.6 L 912.708,1708.29 L 911.038,1707.66 L 908.157,1705.59 L 895.352,1686.71 L 881.007,1672.36 L 864.138,1661.09 L 845.395,1653.33 L 825.496,1649.37 L 805.21,1649.37 L 785.312,1653.33 L 766.568,1661.09 L 749.699,1672.36 L 735.355,1686.71 L 722.55,1705.59 L 719.669,1707.66 L 717.999,1708.29 L 714.462,1708.6 L 711.038,1707.66 L 708.157,1705.59 L 695.352,1686.71 L 681.007,1672.36 L 664.138,1661.09 L 645.395,1653.33 L 625.496,1649.37 L 605.21,1649.37 L 585.312,1653.33 L 566.568,1661.09 L 559.882,1665.36 L 556.395,1666.18 L 554.599,1666.1 L 551.19,1665.01 L 548.385,1662.78 L 546.544,1659.71 L 545.903,1656.19 L 545.903,1626 L 546.096,1624.05 L 547.589,1620.44 L 645.7,1522.06 L 646.894,1521.04 L 649.681,1519.62 L 652.771,1519.13 L 2224.84,1519.13 L 2229.53,1518.5 L 2317.59,1518.5 L 2319.97,1518.27 L 2331.22,1514.86 L 2341.59,1509.32 L 2350.67,1501.86 L 2352.89,1499.23 L 2595.64,1256.68 L 2598.56,1255.23 L 2601.79,1254.81 L 2605.21,1255.35 L 2625.5,1255.35 L 2645.4,1251.39 L 2664.14,1243.63 L 2681.01,1232.36 L 2695.35,1218.01 L 2707.04,1200.52 L 2708.16,1199.14 L 2711.04,1197.06 L 2712.71,1196.44 L 2716.24,1196.12 L 2718,1196.44 L 2721.2,1197.97 L 2723.67,1200.52 L 2735.35,1218.01 L 2749.7,1232.36 L 2766.57,1243.63 L 2785.31,1251.39 L 2805.21,1255.35 L 2825.5,1255.35 L 2845.4,1251.39 L 2864.14,1243.63 L 2881.01,1232.36 L 2895.35,1218.01 L 2908.16,1199.14 L 2911.04,1197.06 L 2914.46,1196.12 L 2918,1196.44 L 2919.67,1197.06 L 2922.55,1199.14 L 2935.35,1218.01 L 2949.7,1232.36 L 2966.57,1243.63 L 2985.31,1251.39 L 3005.21,1255.35 L 3025.5,1255.35 L 3045.39,1251.39 L 3064.14,1243.63 L 3081.01,1232.36 L 3097.4,1216.22 L 3100.83,1214.73 L 3102.69,1214.5 L 3106.39,1215.07 L 3109.61,1216.97 L 3111.91,1219.92 L 3115.23,1230.73 L 3118.94,1237.68 L 3123.94,1243.77 L 3130.03,1248.77 L 3136.98,1252.49 L 3144.52,1254.77 L 3149.24,1255.43 L 3151.05,1256.18 L 3154.07,1258.65 L 3155.91,1262.09 L 3156.53,1266.42 L 3159.95,1277.68 L 3165.49,1288.05 L 3172.94,1297.13 L 3175.57,1299.35 L 3400.25,1524.03 L 3402.42,1527.27 L 3410.7,1547.6 L 3421.97,1564.47 L 3436.31,1578.82 L 3453.18,1590.09 L 3471.93,1597.85 L 3491.82,1601.81 L 3512.11,1601.81 L 3532.01,1597.85 L 3550.5,1590.19 L 3554.33,1589.43 L 3558.16,1590.19 L 3561.4,1592.36 L 3563.57,1595.6 L 3564.33,1599.43 L 3564.33,1947.91 L 3563.84,1951 L 3563.24,1952.45 L 3561.4,1954.98 L 3522.93,1993.45 L 3520.28,1995.34 L 3518.76,1995.95 L 3515.53,1996.37 L 3512.11,1995.83 L 3491.82,1995.83 L 3471.93,1999.78 L 3453.18,2007.55 L 3436.31,2018.82 L 3421.97,2033.17 L 3410.7,2050.03 L 3402.93,2068.78 L 3398.98,2088.67 L 3398.98,2108.96 L 3400.3,2116.32 L 3399.88,2119.55 L 3398.44,2122.48 L 3357.32,2163.78 L 3354.47,2167.52 L 3255.2,2266.79 L 3253.68,2268.65 L 3248.13,2279.02 L 3244.72,2290.27 L 3244.49,2296.46 L 3244.11,2300.3 L 3243.58,2302.05 L 3243.86,2305.39 L 3243.86,2589.64 L 3243.37,2592.73 L 3241.95,2595.52 L 3134.89,2702.75 L 3131.65,2704.91 L 3129.77,2705.48 L 3125.87,2705.48 L 3123.99,2704.92 L 3122.26,2703.99 L 3119.51,2701.23 L 3118.01,2697.63 L 3114.23,2678.65 L 3106.18,2659.19 L 3094.47,2641.68 L 3079.58,2626.78 L 3062.07,2615.08 L 3042.61,2607.02 L 3021.95,2602.91 L 3000.88,2602.91 L 2980.22,2607.02 L 2960.77,2615.08 L 2943.25,2626.78 L 2928.36,2641.68 L 2916.66,2659.19 L 2908.6,2678.65 L 2904.49,2699.31 L 2904.49,2720.37 L 2908.6,2741.03 L 2916.66,2760.49 L 2928.36,2778 L 2943.25,2792.9 L 2956.17,2801.53 L 2958.72,2803.99 L 2959.63,2805.53 L 2960.57,2808.95 L 2960.25,2812.49 L 2959.63,2814.16 L 2958.72,2815.69 L 2956.16,2818.16 L 2943.25,2826.78 L 2928.36,2841.68 L 2916.66,2859.19 L 2908.6,2878.65 L 2904.49,2899.31 L 2904.49,2920.37 L 2905.63,2927.08 L 2905.43,2929.03 L 2903.94,2932.64 L 2751.83,3085.02 L 2749.3,3086.86 L 2747.85,3087.46 L 2744.76,3087.95 L 2565.47,3087.78 L 2562.05,3086.47 L 2560.58,3085.36 L 2558.36,3082.45 L 2557.69,3080.74 L 2557.14,3076.8 L 2554.85,3069.26 L 2551.13,3062.32 L 2546.14,3056.22 L 2540.05,3051.22 L 2533.1,3047.51 L 2525.56,3045.22 L 2514.58,3044.21 L 2510.98,3042.72 L 2509.46,3041.47 L 2507.3,3038.23 L 2506.54,3034.4 L 2506.54,2877.21 L 2506.82,2873.79 L 2505.67,2862.08 L 2502.26,2850.83 L 2496.72,2840.46 L 2489.26,2831.38 L 2486.63,2829.16 L 2373.46,2715.99 L 2371.35,2712.88 L 2370.77,2711.08 L 2370.67,2707.31 L 2371.96,2703.78 L 2373.08,2702.26 L 2376.07,2699.97 L 2379.7,2698.96 L 2381.59,2698.98 L 2387.04,2700.44 L 2395.37,2701.26 L 2528.25,2701.26 L 2536.58,2700.44 L 2544.12,2698.16 L 2551.07,2694.44 L 2557.16,2689.44 L 2562.16,2683.35 L 2565.87,2676.4 L 2568.16,2668.86 L 2569.21,2660.16 L 2571.05,2656.72 L 2574.06,2654.25 L 2575.87,2653.5 L 2579.81,2652.91 L 2591.06,2649.5 L 2601.43,2643.96 L 2610.52,2636.5 L 2612.73,2633.87 L 2700.81,2545.8 L 2703.43,2543.59 L 2710.89,2534.5 L 2716.43,2524.13 L 2719.84,2512.88 L 2721,2501.18 L 2720.71,2497.76 L 2720.71,1827.51 L 2720.87,1825.71 L 2722.15,1822.34 L 2724.54,1819.64 L 2727.73,1817.96 L 2731.31,1817.53 L 2734.81,1818.39 L 2737.78,1820.44 L 2749.7,1832.36 L 2766.57,1843.63 L 2785.31,1851.39 L 2805.21,1855.35 L 2817.75,1855.35 L 2821.39,1856.04 L 2824.54,1858.01 L 2825.78,1859.4 L 2827.4,1862.74 L 2827.69,1866.43 L 2826.61,1870.58 L 2825.46,1882.28 L 2825.75,1885.71 L 2825.75,2275.09 L 2825.46,2278.51 L 2826.61,2290.21 L 2830.02,2301.46 L 2835.57,2311.83 L 2843.02,2320.92 L 2845.65,2323.13 L 2872.14,2349.63 L 2874.36,2352.25 L 2883.45,2359.71 L 2893.82,2365.25 L 2905.06,2368.66 L 2918.33,2369.82 L 2921.79,2370.74 L 2924.71,2372.83 L 2928.36,2378 L 2943.25,2392.9 L 2960.77,2404.6 L 2980.22,2412.66 L 3000.88,2416.77 L 3021.95,2416.77 L 3042.61,2412.66 L 3062.07,2404.6 L 3079.58,2392.9 L 3094.47,2378 L 3106.18,2360.49 L 3114.23,2341.03 L 3118.35,2320.37 L 3118.35,2299.31 L 3114.23,2278.65 L 3106.18,2259.19 L 3094.47,2241.68 L 3083.59,2230.55 L 3082.69,2228.91 L 3081.87,2225.28 L 3081.97,2223.41 L 3083.21,2219.9 L 3085.65,2217.08 L 3088.95,2215.35 L 3093.73,2213.9 L 3100.67,2210.19 L 3106.77,2205.19 L 3111.76,2199.1 L 3115.48,2192.15 L 3117.76,2184.61 L 3118.59,2176.28 L 3118.59,2043.4 L 3117.76,2035.07 L 3115.48,2027.53 L 3111.76,2020.58 L 3106.77,2014.49 L 3100.67,2009.49 L 3093.73,2005.78 L 3086.19,2003.49 L 3078.32,2002.55 L 3076.61,2001.87 L 3073.69,1999.66 L 3071.77,1996.54 L 3071.1,1992.94 L 3071.22,1983.6 L 3072.19,1980.62 L 3074.03,1978.09 L 3195.9,1856.49 L 3197.63,1855.57 L 3201.46,1854.8 L 3205.21,1855.35 L 3225.5,1855.35 L 3245.39,1851.39 L 3264.14,1843.63 L 3281.01,1832.36 L 3295.35,1818.01 L 3306.62,1801.15 L 3314.39,1782.4 L 3318.35,1762.5 L 3318.35,1742.22 L 3314.39,1722.32 L 3306.62,1703.58 L 3295.35,1686.71 L 3281.01,1672.36 L 3264.14,1661.09 L 3245.39,1653.33 L 3225.5,1649.37 L 3205.21,1649.37 L 3185.31,1653.33 L 3166.57,1661.09 L 3149.7,1672.36 L 3135.35,1686.71 L 3122.55,1705.59 L 3119.67,1707.66 L 3116.25,1708.6 L 3112.71,1708.29 L 3111.04,1707.66 L 3108.16,1705.59 L 3095.35,1686.71 L 3081.01,1672.36 L 3064.14,1661.09 L 3045.39,1653.33 L 3025.5,1649.37 L 3005.21,1649.37 L 2985.31,1653.33 L 2966.57,1661.09 L 2949.7,1672.36 L 2935.35,1686.71 L 2922.55,1705.59 L 2919.67,1707.66 L 2916.24,1708.6 L 2912.71,1708.29 L 2911.04,1707.66 L 2908.16,1705.59 L 2895.35,1686.71 L 2881.01,1672.36 L 2864.14,1661.09 L 2845.4,1653.33 L 2825.5,1649.37 L 2805.21,1649.37 L 2785.31,1653.33 L 2766.57,1661.09 L 2749.7,1672.36 L 2735.35,1686.71 L 2722.55,1705.59 L 2719.67,1707.66 L 2716.24,1708.6 L 2712.71,1708.29 L 2711.04,1707.66 L 2708.16,1705.59 L 2695.35,1686.71 L 2681.01,1672.36 L 2664.14,1661.09 L 2645.4,1653.33 L 2625.5,1649.37 L 2605.21,1649.37 L 2585.31,1653.33 L 2566.57,1661.09 L 2549.7,1672.36 L 2535.35,1686.71 L 2522.55,1705.59 L 2519.67,1707.66 L 2516.24,1708.6 L 2512.71,1708.29 L 2509.5,1706.75 L 2508.16,1705.59 L 2495.35,1686.71 L 2481.01,1672.36 L 2464.14,1661.09 L 2445.4,1653.33 L 2425.5,1649.37 L 2405.21,1649.37 L 2385.31,1653.33 L 2366.57,1661.09 L 2349.7,1672.36 L 2335.35,1686.71 L 2322.55,1705.59 L 2319.67,1707.66 L 2316.24,1708.6 L 2312.71,1708.29 L 2311.04,1707.66 L 2308.16,1705.59 L 2295.35,1686.71 L 2281.01,1672.36 L 2264.14,1661.09 L 2245.4,1653.33 L 2225.5,1649.37 L 2205.21,1649.37 L 2185.31,1653.33 L 2166.57,1661.09 L 2149.7,1672.36 L 2135.36,1686.71 L 2124.08,1703.58 L 2116.32,1722.32 L 2112.36,1742.22 L 2112.36,1762.5 L 2116.32,1782.4 L 2124.08,1801.14 L 2135.36,1818.02 L 2149.7,1832.36 L 2166.57,1843.63 L 2185.31,1851.39 L 2205.21,1855.35 L 2225.5,1855.35 L 2228.92,1854.81 L 2232.15,1855.23 L 2235.07,1856.68 L 2355.89,1977.3 L 2357.96,1980.32 L 2358.81,1983.88 L 2358.31,1987.51 L 2352.24,1998.4 L 2350.79,2003.17 L 2349.06,2006.47 L 2346.25,2008.91 L 2344.55,2009.7 L 2340.86,2010.26 L 2339.01,2010.02 L 2335.59,2008.53 L 2324.46,1997.65 L 2306.95,1985.95 L 2287.49,1977.89 L 2266.83,1973.78 L 2245.77,1973.78 L 2225.11,1977.89 L 2205.65,1985.95 L 2188.13,1997.65 L 2173.24,2012.54 L 2161.54,2030.06 L 2153.48,2049.52 L 2149.37,2070.18 L 2149.37,2091.24 L 2153.48,2111.9 L 2161.54,2131.36 L 2173.24,2148.87 L 2188.13,2163.76 L 2193.69,2167.71 L 2194.93,2169.22 L 2196.42,2172.83 L 2196.61,2240.71 L 2196.08,2243.92 L 2194.55,2246.8 L 2192.17,2249.03 L 2188.92,2251.19 L 2174.03,2266.09 L 2162.33,2283.6 L 2154.27,2303.06 L 2150.16,2323.72 L 2150.16,2344.78 L 2154.27,2365.44 L 2162.33,2384.9 L 2174.03,2402.41 L 2188.92,2417.31 L 2192.96,2420 L 2195.33,2422.23 L 2196.87,2425.1 L 2197.4,2428.32 L 2197.27,2504.82 L 2196.87,2506.41 L 2195.32,2509.29 L 2178.75,2525.93 L 2167.05,2543.44 L 2158.99,2562.9 L 2154.88,2583.56 L 2154.88,2604.62 L 2158.99,2625.28 L 2167.05,2644.74 L 2178.75,2662.26 L 2193.65,2677.15 L 2198.82,2680.8 L 2200.91,2683.72 L 2201.83,2687.18 L 2202.99,2700.44 L 2206.4,2711.7 L 2211.94,2722.07 L 2219.4,2731.15 L 2222.03,2733.37 L 2385.48,2897.09 L 2386.4,2898.82 L 2387.16,2902.65 L 2387,3038.63 L 2385.71,3042.01 L 2383.29,3044.72 L 2380.07,3046.38 L 2376.35,3047.51 L 2369.4,3051.22 L 2363.31,3056.22 L 2358.31,3062.32 L 2354.6,3069.26 L 2352.31,3076.8 L 2351.49,3085.14 L 2351.49,3162.32 L 2350.73,3166.15 L 2348.56,3169.39 L 2309.37,3208.31 L 2305.76,3209.81 L 2303.81,3210 L 2265.8,3210 L 2264.46,3210.28 L 2251.29,3210.28 L 2249.95,3210 L 2148.94,3210 L 2146.99,3209.81 L 2143.39,3208.31 L 2099.66,3164.67 L 2098.82,3163.27 L 2097.88,3160.14 L 2097.87,3137.8 L 2094.04,3118.51 L 2086.51,3100.34 L 2075.58,3083.99 L 2061.68,3070.08 L 2054.02,3064.97 L 2051.42,3062.44 L 2049.89,3059.15 L 2049.64,3055.53 L 2050,3053.75 L 2051.67,3050.53 L 2054.37,3048.11 L 2056.01,3047.31 L 2091.46,3040.3 L 2121.52,3027.86 L 2148.57,3009.78 L 2171.57,2986.78 L 2189.65,2959.73 L 2202.1,2929.67 L 2208.44,2897.76 L 2208.44,2865.23 L 2202.1,2833.32 L 2189.65,2803.26 L 2171.57,2776.21 L 2148.57,2753.21 L 2121.52,2735.13 L 2091.46,2722.69 L 2059.55,2716.34 L 2027.02,2716.34 L 1995.11,2722.69 L 1965.05,2735.13 L 1938,2753.21 L 1915,2776.21 L 1896.93,2803.26 L 1884.47,2833.32 L 1878.13,2865.23 L 1878.13,2897.76 L 1884.47,2929.67 L 1896.93,2959.73 L 1915,2986.78 L 1938,3009.78 L 1965.05,3027.86 L 1976.35,3032.74 L 1977.87,3033.99 L 1980.04,3037.23 L 1980.8,3041.06 L 1980.04,3044.88 L 1979.12,3046.61 L 1976.36,3049.37 L 1972.75,3050.87 L 1968.91,3051.63 L 1950.74,3059.16 L 1934.38,3070.08 L 1920.48,3083.99 L 1909.55,3100.34 L 1902.03,3118.51 L 1898.19,3137.8 L 1898.19,3157.47 L 1902.03,3176.76 L 1909.55,3194.93 L 1920.48,3211.28 L 1934.38,3225.19 L 1950.74,3236.12 L 1968.91,3243.64 L 1988.2,3247.48 L 2008.89,3247.41 L 2012.13,3247.83 L 2013.66,3248.43 L 2016.32,3250.33 L 2075.45,3309.47 L 2077.67,3312.09 L 2086.76,3319.55 L 2097.13,3325.09 L 2108.38,3328.5 L 2120.08,3329.66 L 2123.5,3329.37 L 2329.25,3329.37 L 2332.68,3329.66 L 2336.82,3329.37 L 2340.24,3329.66 L 2351.95,3328.5 L 2363.2,3325.09 L 2373.57,3319.55 L 2382.65,3312.09 L 2384.87,3309.47 L 2442.05,3252.56 L 2445.66,3251.06 L 2447.61,3250.87 L 2517.23,3250.87 L 2525.56,3250.05 L 2533.1,3247.76 L 2540.05,3244.05 L 2546.14,3239.05 L 2551.13,3232.96 L 2554.85,3226.01 L 2557.14,3218.47 L 2557.69,3214.54 L 2558.37,3212.83 L 2560.58,3209.91 L 2562.05,3208.81 L 2565.47,3207.49 L 2770.2,3207.32 L 2773.62,3207.61 L 2785.32,3206.46 L 2796.57,3203.05 L 2806.94,3197.5 L 2816.03,3190.04 L 2818.25,3187.42 L 2988.62,3017.32 L 2990.35,3016.39 L 2994.17,3015.63 L 3000.88,3016.77 L 3021.95,3016.77 L 3042.61,3012.66 L 3062.07,3004.6 L 3079.58,2992.9 L 3094.47,2978.01 L 3106.18,2960.49 L 3114.23,2941.03 L 3118.35,2920.37 L 3118.35,2899.31 L 3117.38,2893.64 L 3117.97,2890.11 L 3119.75,2887.01 L 3123.68,2882.77 L 3343.33,2663.13 L 3345.95,2660.91 L 3353.41,2651.82 L 3358.95,2641.45 L 3362.36,2630.2 L 3363.52,2618.5 L 3363.23,2615.08 L 3363.23,2330.83 L 3363.35,2329.27 L 3364.32,2326.29 L 3366.16,2323.76 L 3486.69,2203.5 L 3488.42,2202.57 L 3492.25,2201.81 L 3512.11,2201.81 L 3532.01,2197.85 L 3550.75,2190.09 L 3567.62,2178.82 L 3581.97,2164.47 L 3593.24,2147.6 L 3601,2128.86 L 3604.96,2108.96 L 3604.96,2088.67 L 3604.41,2085.25 L 3604.49,2083.62 L 3605.44,2080.5 L 3607.34,2077.85 L 3663.8,2021.39 L 3666.42,2019.18 L 3673.88,2010.09 L 3679.42,1999.72 L 3682.84,1988.47 L 3683.99,1976.77 L 3683.7,1973.35 L 3683.7,1441.61 L 3683.99,1438.19 L 3682.84,1426.49 L 3679.42,1415.24 L 3673.88,1404.87 L 3666.42,1395.78 L 3663.8,1393.56 L 3400.01,1129.78 L 3398.18,1127.25 L 3397.57,1125.8 L 3397.09,1122.71 L 3397.09,1045.55 L 3397.37,1042.12 L 3396.22,1030.42 L 3392.81,1019.17 L 3387.27,1008.81 L 3379.81,999.717 L 3377.18,997.501 L 3325.21,945.529 L 3323.37,942.998 L 3322.77,941.548 L 3322.28,938.458 L 3322.28,810.902 L 3322.57,807.483 L 3321.42,795.778 L 3318.01,784.528 L 3312.46,774.159 L 3305,765.071 L 3302.38,762.855 L 3181.24,641.713 L 3179.02,639.088 L 3169.93,631.629 L 3159.56,626.086 L 3148.31,622.673 L 3136.61,621.521 L 3133.19,621.81 L 3048.57,621.81 L 3045.44,621.308 L 3042.62,619.853 L 3041.42,618.81 L 2886.92,460.895 L 2885.46,457.328 L 2885.28,451.846 L 2885.56,448.425 L 2884.41,436.724 L 2881,425.472 L 2875.46,415.105 L 2866.89,404.897 L 2865.85,403.428 L 2864.65,400.057 L 2864.71,396.477 L 2865.59,392.028 L 2865.59,370.963 L 2861.48,350.304 L 2853.42,330.845 L 2841.72,313.332 L 2826.82,298.438 L 2809.31,286.736 L 2789.85,278.676 L 2769.19,274.566 L 2748.13,274.566 L 2727.47,278.676 L 2708.01,286.736 L 2690.5,298.438 L 2675.6,313.332 L 2663.9,330.845 L 2655.84,350.304 L 2651.73,370.963 L 2651.73,392.029 L 2652.87,398.737 L 2652.68,400.688 L 2651.18,404.292 L 2392.89,662.855 L 2390.27,665.07 L 2382.81,674.161 L 2377.27,684.529 L 2373.85,695.779 L 2372.7,707.478 L 2372.99,710.902 L 2372.99,725.234 L 2372.46,728.449 L 2371.81,729.948 L 2369.83,732.533 L 2367.02,734.568 L 2352.68,748.912 L 2341.4,765.782 L 2333.64,784.525 L 2329.68,804.425 L 2329.68,824.707 L 2333.64,844.608 L 2341.4,863.35 L 2352.68,880.22 L 2367.02,894.565 L 2383.89,905.836 L 2402.63,913.6 L 2422.53,917.558 L 2442.82,917.558 L 2462.72,913.6 L 2481.46,905.836 L 2498.33,894.565 L 2512.68,880.219 L 2523.95,863.351 L 2531.71,844.608 L 2535.67,824.709 L 2535.67,804.423 L 2531.71,784.525 L 2523.95,765.781 L 2512.68,748.913 L 2501.23,737.471 L 2499.07,734.227 L 2498.31,730.4 L 2498.5,728.449 L 2499.99,724.844 L 2734.35,490.215 L 2737.59,488.047 L 2741.42,487.286 L 2748.13,488.424 L 2757.19,488.424 L 2760.75,489.081 L 2763.85,490.967 L 2766.07,493.833 L 2770.04,506.541 L 2775.53,516.946 L 2783.18,526.265 L 2785.61,528.33 L 2929.46,675.112 L 2931.59,678.355 L 2932.32,682.162 L 2931.55,685.962 L 2929.39,689.183 L 2877.14,741.431 L 2874.52,743.646 L 2867.06,752.737 L 2861.52,763.106 L 2858.11,774.355 L 2856.95,787.621 L 2856.02,791.086 L 2853.94,794.002 L 2848.76,797.651 L 2833.87,812.545 L 2822.17,830.057 L 2814.11,849.518 L 2810,870.177 L 2810,891.239 L 2811.14,897.949 L 2810.95,899.9 L 2809.45,903.504 L 2745.53,967.699 L 2744.34,968.718 L 2741.55,970.139 L 2738.46,970.628 L 2140.82,970.628 L 2137.4,970.34 L 2125.7,971.494 L 2114.45,974.906 L 2104.08,980.448 L 2094.99,987.904 L 2092.78,990.531 L 2034.8,1048.23 L 2033.07,1049.16 L 2029.25,1049.92 L 2025.5,1049.37 L 2005.21,1049.37 L 1985.31,1053.33 L 1966.57,1061.09 L 1949.7,1072.36 L 1935.36,1086.71 L 1924.08,1103.58 L 1916.32,1122.32 L 1912.36,1142.22 L 1912.36,1162.5 L 1916.32,1182.4 L 1924.08,1201.14 L 1935.36,1218.02 L 1949.7,1232.36 L 1966.57,1243.63 L 1985.31,1251.39 L 2005.21,1255.35 L 2025.5,1255.35 L 2045.4,1251.39 L 2064.14,1243.63 L 2081.01,1232.36 L 2095.35,1218.01 L 2108.16,1199.14 L 2109.5,1197.97 L 2112.71,1196.44 L 2116.24,1196.12 L 2119.67,1197.06 L 2122.55,1199.14 L 2135.35,1218.01 L 2149.7,1232.36 L 2166.57,1243.63 L 2185.31,1251.39 L 2205.21,1255.35 L 2225.5,1255.35 L 2245.4,1251.39 L 2264.14,1243.63 L 2281.01,1232.36 L 2295.35,1218.01 L 2308.16,1199.14 L 2311.04,1197.06 L 2312.71,1196.44 L 2316.24,1196.12 L 2319.67,1197.06 L 2322.55,1199.14 L 2335.35,1218.01 L 2349.7,1232.36 L 2366.57,1243.63 L 2385.31,1251.39 L 2405.83,1255.48 L 2407.71,1256.05 L 2410.95,1258.21 L 2413.12,1261.46 L 2413.88,1265.28 L 2413.12,1269.11 L 2410.95,1272.36 L 2286.47,1396.83 L 2283.94,1398.67 L 2282.49,1399.27 L 2279.4,1399.76 L 627.329,1399.76 L 623.907,1399.47 L 612.205,1400.63 L 600.957,1404.04 L 590.587,1409.58 L 581.499,1417.04 L 579.282,1419.67 L 446.436,1552.51 L 443.811,1554.73 L 436.353,1563.82 L 430.811,1574.19 L 427.399,1585.43 L 426.246,1597.14 L 426.533,1600.56 L 426.533,2049.05 L 426.246,2052.47M 1885.22,566.265 L 1891.55,598.101 L 1903.97,628.089 L 1922.01,655.078 L 1944.96,678.031 L 1971.95,696.064 L 2001.93,708.484 L 2033.77,714.818 L 2066.23,714.818 L 2098.06,708.484 L 2128.05,696.064 L 2155.04,678.031 L 2177.99,655.077 L 2196.03,628.09 L 2208.45,598.101 L 2214.78,566.265 L 2214.78,533.807 L 2208.45,501.971 L 2196.03,471.982 L 2177.99,444.993 L 2155.04,422.042 L 2128.05,404.008 L 2098.06,391.586 L 2066.23,385.254 L 2033.77,385.254 L 2001.93,391.586 L 1971.95,404.008 L 1944.96,422.042 L 1922,444.993 L 1903.97,471.983 L 1891.55,501.971 L 1885.22,533.807 L 1885.22,566.265 z " style="fill-opacity:1.000000;fill:rgb(103,198,105);stroke:rgb(0,0,0);stroke-width:2"/></g>
<g fill-rule="evenodd"><path d="M 466.534,2052.47 L 466.534,1597.14 L 466.913,1593.3 L 468.033,1589.6 L 469.852,1586.2 L 472.3,1583.22 L 609.988,1445.53 L 612.337,1443.52 L 614.971,1441.91 L 617.824,1440.73 L 620.828,1440.01 L 623.907,1439.76 L 2300.11,1439.76 L 2559.3,1180.57 L 2557.81,1177.98 L 2553.74,1165.46 L 2552.36,1152.36 L 2553.74,1139.27 L 2557.81,1126.74 L 2564.39,1115.34 L 2573.2,1105.55 L 2583.86,1097.81 L 2595.89,1092.45 L 2608.77,1089.72 L 2621.94,1089.72 L 2634.82,1092.45 L 2646.85,1097.81 L 2657.5,1105.55 L 2666.32,1115.34 L 2672.9,1126.74 L 2676.97,1139.27 L 2678.35,1152.36 L 2676.97,1165.46 L 2672.9,1177.98 L 2666.32,1189.39 L 2657.5,1199.17 L 2646.85,1206.91 L 2634.82,1212.27 L 2621.94,1215.01 L 2608.77,1215.01 L 2595.89,1212.27 L 2587.17,1208.39 L 2322.19,1473.37 L 2319.2,1475.82 L 2315.8,1477.63 L 2312.11,1478.75 L 2308.27,1479.13 L 632.061,1479.13 L 505.904,1605.29 L 505.905,2044.31 L 547.021,2085.43 L 568.478,2085.43 L 570.407,2079.5 L 576.991,2068.09 L 585.803,2058.31 L 596.457,2050.57 L 608.487,2045.21 L 621.368,2042.47 L 634.537,2042.47 L 647.418,2045.21 L 659.449,2050.57 L 670.103,2058.31 L 678.914,2068.09 L 685.499,2079.5 L 689.568,2092.02 L 690.945,2105.12 L 689.568,2118.21 L 685.499,2130.74 L 678.914,2142.14 L 670.103,2151.93 L 659.449,2159.67 L 647.418,2165.03 L 634.537,2167.77 L 621.368,2167.77 L 608.487,2165.03 L 596.457,2159.67 L 585.803,2151.93 L 576.991,2142.14 L 570.407,2130.74 L 568.478,2124.8 L 538.867,2124.8 L 535.788,2124.56 L 532.784,2123.84 L 529.93,2122.66 L 527.297,2121.04 L 524.948,2119.04 L 472.3,2066.39 L 469.852,2063.4 L 468.033,2060 L 466.913,2056.31 L 466.534,2052.47 z " style="fill-opacity:1.000000;fill:rgb(115,81,255);stroke:rgb(0,0,0);stroke-width:2"/></g>
<g fill-rule="evenodd"><path d="M 552.362,1752.36 L 553.739,1739.27 L 557.808,1726.74 L 564.393,1715.34 L 573.204,1705.55 L 583.858,1697.81 L 595.889,1692.45 L 608.77,1689.72 L 621.939,1689.72 L 634.82,1692.45 L 646.85,1697.81 L 657.504,1705.55 L 666.316,1715.34 L 672.901,1726.74 L 676.97,1739.27 L 678.346,1752.36 L 676.97,1765.46 L 672.901,1777.98 L 666.316,1789.39 L 657.504,1799.17 L 646.85,1806.91 L 635.039,1812.17 L 635.038,1877.53 L 645.975,1879.85 L 658.006,1885.21 L 668.66,1892.95 L 677.471,1902.74 L 684.056,1914.14 L 688.125,1926.67 L 689.502,1939.76 L 688.125,1952.86 L 684.056,1965.38 L 677.471,1976.79 L 668.66,1986.58 L 658.006,1994.32 L 645.975,1999.67 L 633.094,2002.41 L 619.925,2002.41 L 607.044,1999.67 L 595.014,1994.32 L 584.36,1986.58 L 575.548,1976.79 L 568.964,1965.38 L 564.894,1952.86 L 563.518,1939.76 L 564.894,1926.67 L 568.964,1914.14 L 575.548,1902.74 L 584.36,1892.95 L 595.669,1884.92 L 595.669,1812.17 L 583.858,1806.91 L 573.204,1799.17 L 564.393,1789.39 L 557.808,1777.98 L 553.739,1765.46 L 552.362,1752.36 z " style="fill-opacity:1.000000;fill:rgb(74,236,41);stroke:rgb(0,0,0);stroke-width:2"/></g>
<g fill-rule="evenodd"><path d="M 552.362,1152.36 L 553.739,1139.27 L 557.808,1126.74 L 564.393,1115.34 L 573.204,1105.55 L 583.858,1097.81 L 595.889,1092.45 L 608.77,1089.72 L 621.939,1089.72 L 627.681,1090.94 L 840.548,878.066 L 840.548,539.764 L 840.791,536.685 L 841.512,533.681 L 842.694,530.827 L 844.308,528.193 L 846.314,525.845 L 1106.16,266.001 L 1109.14,263.553 L 1112.54,261.733 L 1116.24,260.613 L 1120.08,260.235 L 1291.46,260.235 L 1293.92,252.672 L 1301.33,239.842 L 1311.24,228.832 L 1323.23,220.124 L 1336.76,214.098 L 1351.25,211.018 L 1366.07,211.018 L 1380.56,214.098 L 1394.09,220.124 L 1406.08,228.832 L 1415.99,239.842 L 1423.4,252.672 L 1427.98,266.762 L 1429.53,281.496 L 1427.98,296.23 L 1423.4,310.32 L 1415.99,323.15 L 1406.08,334.16 L 1394.09,342.868 L 1380.56,348.894 L 1366.07,351.974 L 1351.25,351.974 L 1336.76,348.894 L 1323.23,342.868 L 1311.24,334.16 L 1301.33,323.15 L 1293.92,310.32 L 1290.44,299.605 L 1128.23,299.605 L 879.918,547.918 L 879.918,886.22 L 879.54,890.06 L 878.42,893.753 L 876.601,897.156 L 874.153,900.139 L 662.83,1111.46 L 666.316,1115.34 L 672.901,1126.74 L 676.97,1139.27 L 678.346,1152.36 L 676.97,1165.46 L 672.901,1177.98 L 666.316,1189.39 L 657.504,1199.17 L 646.85,1206.91 L 634.82,1212.27 L 621.939,1215.01 L 608.77,1215.01 L 595.889,1212.27 L 583.858,1206.91 L 573.204,1199.17 L 564.393,1189.39 L 557.808,1177.98 L 553.739,1165.46 L 552.362,1152.36 z " style="fill-opacity:1.000000;fill:rgb(205,186,171);stroke:rgb(0,0,0);stroke-width:2"/></g>
<g fill-rule="evenodd"><path d="M 752.362,1752.36 L 753.739,1739.27 L 757.808,1726.74 L 764.393,1715.34 L 773.204,1705.55 L 783.858,1697.81 L 795.889,1692.45 L 808.77,1689.72 L 821.939,1689.72 L 834.82,1692.45 L 846.85,1697.81 L 857.504,1705.55 L 866.316,1715.34 L 872.901,1726.74 L 876.97,1739.27 L 878.346,1752.36 L 876.97,1765.46 L 872.901,1777.98 L 866.316,1789.39 L 857.504,1799.17 L 846.85,1806.91 L 834.82,1812.27 L 831.889,1812.89 L 831.888,2196.04 L 1112.62,2476.77 L 1157.27,2476.77 L 1159.72,2469.23 L 1166.72,2457.12 L 1176.08,2446.72 L 1187.4,2438.49 L 1200.18,2432.8 L 1213.87,2429.89 L 1227.86,2429.89 L 1241.55,2432.8 L 1254.33,2438.49 L 1265.65,2446.72 L 1275.01,2457.12 L 1282.01,2469.23 L 1286.33,2482.54 L 1287.8,2496.46 L 1286.33,2510.37 L 1282.01,2523.68 L 1275.01,2535.8 L 1265.65,2546.19 L 1254.33,2554.42 L 1241.55,2560.11 L 1227.86,2563.02 L 1213.87,2563.02 L 1200.18,2560.11 L 1187.4,2554.42 L 1176.08,2546.19 L 1166.72,2535.8 L 1159.72,2523.68 L 1157.27,2516.14 L 1104.47,2516.14 L 1100.63,2515.76 L 1096.94,2514.64 L 1093.53,2512.82 L 1090.55,2510.38 L 798.284,2218.11 L 796.278,2215.76 L 794.664,2213.13 L 793.482,2210.27 L 792.761,2207.27 L 792.518,2204.19 L 792.519,1810.77 L 783.858,1806.91 L 773.204,1799.17 L 764.393,1789.39 L 757.808,1777.98 L 753.739,1765.46 L 752.362,1752.36 z " style="fill-opacity:1.000000;fill:rgb(242,251,227);stroke:rgb(0,0,0);stroke-width:2"/></g>
<g fill-rule="evenodd"><path d="M 752.362,1152.36 L 753.739,1139.27 L 757.808,1126.74 L 764.393,1115.34 L 773.204,1105.55 L 783.858,1097.81 L 795.889,1092.45 L 808.77,1089.72 L 821.939,1089.72 L 834.82,1092.45 L 846.85,1097.81 L 857.504,1105.55 L 866.316,1115.34 L 872.901,1126.74 L 876.97,1139.27 L 878.346,1152.36 L 876.97,1165.46 L 872.901,1177.98 L 866.316,1189.39 L 857.504,1199.17 L 846.85,1206.91 L 834.82,1212.27 L 821.939,1215.01 L 808.77,1215.01 L 795.889,1212.27 L 783.858,1206.91 L 773.204,1199.17 L 764.393,1189.39 L 757.808,1177.98 L 753.739,1165.46 L 752.362,1152.36 z " style="fill-opacity:1.000000;fill:rgb(70,124,194);stroke:rgb(0,0,0);stroke-width:2"/></g>
<g fill-rule="evenodd"><path d="M 871.26,2171.57 L 871.26,1876.77 L 871.503,1873.69 L 872.224,1870.69 L 873.406,1867.83 L 875.02,1865.2 L 877.026,1862.85 L 959.303,1780.57 L 957.808,1777.98 L 953.739,1765.46 L 952.362,1752.36 L 953.739,1739.27 L 957.808,1726.74 L 964.393,1715.34 L 973.204,1705.55 L 983.858,1697.81 L 995.889,1692.45 L 1008.77,1689.72 L 1021.94,1689.72 L 1034.82,1692.45 L 1046.85,1697.81 L 1057.5,1705.55 L 1066.32,1715.34 L 1072.9,1726.74 L 1076.97,1739.27 L 1078.35,1752.36 L 1076.97,1765.46 L 1072.9,1777.98 L 1066.32,1789.39 L 1057.5,1799.17 L 1046.85,1806.91 L 1034.82,1812.27 L 1021.94,1815.01 L 1008.77,1815.01 L 995.889,1812.27 L 987.166,1808.39 L 910.63,1884.92 L 910.63,2163.42 L 1023.98,2276.77 L 1157.27,2276.77 L 1159.72,2269.23 L 1166.72,2257.12 L 1176.08,2246.72 L 1187.4,2238.49 L 1200.18,2232.8 L 1213.87,2229.89 L 1227.86,2229.89 L 1241.55,2232.8 L 1254.33,2238.49 L 1265.65,2246.72 L 1275.01,2257.12 L 1282.01,2269.23 L 1286.33,2282.54 L 1287.8,2296.46 L 1286.33,2310.37 L 1282.01,2323.68 L 1275.01,2335.8 L 1265.65,2346.19 L 1254.33,2354.42 L 1241.55,2360.11 L 1227.86,2363.02 L 1213.87,2363.02 L 1200.18,2360.11 L 1187.4,2354.42 L 1176.08,2346.19 L 1166.72,2335.8 L 1159.72,2323.68 L 1157.27,2316.14 L 1015.83,2316.14 L 1012.75,2315.9 L 1009.74,2315.18 L 1006.89,2314 L 1004.25,2312.38 L 1001.91,2310.38 L 877.026,2185.49 L 874.578,2182.51 L 872.759,2179.11 L 871.639,2175.41 L 871.26,2171.57 z " style="fill-opacity:1.000000;fill:rgb(84,248,27);stroke:rgb(0,0,0);stroke-width:2"/></g>
<g fill-rule="evenodd"><path d="M 919.29,873.622 L 919.29,635.826 L 919.533,632.747 L 920.254,629.743 L 921.436,626.889 L 923.05,624.255 L 925.056,621.907 L 1003.9,543.061 L 1003.14,541.736 L 999.322,529.995 L 998.031,517.717 L 999.322,505.438 L 1003.14,493.697 L 1009.31,483.005 L 1017.57,473.83 L 1027.56,466.573 L 1038.84,461.552 L 1050.91,458.985 L 1063.26,458.985 L 1075.34,461.552 L 1086.61,466.573 L 1096.6,473.83 L 1104.86,483.005 L 1111.04,493.697 L 1112.44,498.031 L 1259.45,498.031 L 1263.29,498.409 L 1266.98,499.529 L 1270.38,501.349 L 1273.37,503.797 L 1333.62,564.053 L 1342.35,560.17 L 1355.23,557.432 L 1368.4,557.432 L 1381.28,560.17 L 1393.31,565.526 L 1403.96,573.266 L 1412.77,583.053 L 1419.36,594.458 L 1423.43,606.982 L 1424.8,620.079 L 1423.43,633.176 L 1419.36,645.7 L 1412.77,657.105 L 1403.96,666.891 L 1393.31,674.632 L 1381.28,679.988 L 1368.4,682.726 L 1355.23,682.726 L 1342.35,679.988 L 1330.31,674.632 L 1319.66,666.891 L 1310.85,657.105 L 1304.26,645.7 L 1300.2,633.176 L 1298.82,620.079 L 1300.2,606.982 L 1304.26,594.458 L 1305.76,591.868 L 1251.29,537.401 L 1112.44,537.401 L 1111.04,541.736 L 1104.86,552.428 L 1096.6,561.603 L 1086.61,568.86 L 1075.34,573.881 L 1063.26,576.448 L 1050.91,576.448 L 1038.84,573.881 L 1031.86,570.776 L 958.66,643.98 L 958.66,865.468 L 1099.1,1005.91 L 1288.58,1005.91 L 1291.66,1006.15 L 1294.67,1006.87 L 1297.52,1008.05 L 1300.15,1009.66 L 1302.5,1011.67 L 1387.17,1096.34 L 1395.89,1092.45 L 1408.77,1089.72 L 1421.94,1089.72 L 1434.82,1092.45 L 1446.85,1097.81 L 1457.5,1105.55 L 1466.32,1115.34 L 1472.9,1126.74 L 1476.97,1139.27 L 1478.35,1152.36 L 1476.97,1165.46 L 1472.9,1177.98 L 1466.32,1189.39 L 1457.5,1199.17 L 1446.85,1206.91 L 1434.82,1212.27 L 1421.94,1215.01 L 1408.77,1215.01 L 1395.89,1212.27 L 1383.86,1206.91 L 1373.2,1199.17 L 1364.39,1189.39 L 1357.81,1177.98 L 1353.74,1165.46 L 1352.36,1152.36 L 1353.74,1139.27 L 1357.81,1126.74 L 1359.3,1124.15 L 1280.43,1045.28 L 1090.95,1045.28 L 1087.11,1044.9 L 1083.41,1043.78 L 1080.01,1041.96 L 1077.03,1039.51 L 925.056,887.542 L 923.05,885.193 L 921.436,882.559 L 920.254,879.705 L 919.533,876.702 L 919.29,873.622 z " style="fill-opacity:1.000000;fill:rgb(232,231,141);stroke:rgb(0,0,0);stroke-width:2"/></g>
<g fill-rule="evenodd"><path d="M 950.002,2096.46 L 951.378,2083.36 L 955.448,2070.84 L 962.032,2059.43 L 970.844,2049.64 L 981.498,2041.9 L 993.528,2036.55 L 1006.41,2033.81 L 1019.58,2033.81 L 1032.46,2036.55 L 1044.49,2041.9 L 1055.14,2049.64 L 1063.96,2059.43 L 1070.54,2070.84 L 1072.47,2076.77 L 1157.27,2076.77 L 1159.72,2069.23 L 1166.72,2057.12 L 1176.08,2046.72 L 1187.4,2038.49 L 1200.18,2032.8 L 1213.87,2029.89 L 1227.86,2029.89 L 1241.55,2032.8 L 1254.33,2038.49 L 1265.65,2046.72 L 1275.01,2057.12 L 1282.01,2069.23 L 1286.33,2082.54 L 1287.8,2096.46 L 1286.33,2110.37 L 1282.01,2123.68 L 1275.01,2135.8 L 1265.65,2146.19 L 1254.33,2154.42 L 1241.55,2160.11 L 1227.86,2163.02 L 1213.87,2163.02 L 1200.18,2160.11 L 1187.4,2154.42 L 1176.08,2146.19 L 1166.72,2135.8 L 1159.72,2123.68 L 1157.27,2116.14 L 1072.47,2116.14 L 1070.54,2122.08 L 1063.96,2133.48 L 1055.14,2143.27 L 1044.49,2151.01 L 1032.46,2156.37 L 1019.58,2159.1 L 1006.41,2159.1 L 993.528,2156.37 L 981.498,2151.01 L 970.844,2143.27 L 962.032,2133.48 L 955.448,2122.08 L 951.378,2109.55 L 950.002,2096.46 z " style="fill-opacity:1.000000;fill:rgb(118,90,46);stroke:rgb(0,0,0);stroke-width:2"/></g>
<g fill-rule="evenodd"><path d="M 952.362,1152.36 L 953.739,1139.27 L 957.808,1126.74 L 964.393,1115.34 L 973.204,1105.55 L 983.858,1097.81 L 995.889,1092.45 L 1008.77,1089.72 L 1021.94,1089.72 L 1034.82,1092.45 L 1046.85,1097.81 L 1057.5,1105.55 L 1066.32,1115.34 L 1072.9,1126.74 L 1076.97,1139.27 L 1078.35,1152.36 L 1076.97,1165.46 L 1072.9,1177.98 L 1066.32,1189.39 L 1057.5,1199.17 L 1046.85,1206.91 L 1034.82,1212.27 L 1021.94,1215.01 L 1008.77,1215.01 L 995.889,1212.27 L 983.858,1206.91 L 973.204,1199.17 L 964.393,1189.39 L 957.808,1177.98 L 953.739,1165.46 L 952.362,1152.36 z " style="fill-opacity:1.000000;fill:rgb(99,51,159);stroke:rgb(0,0,0);stroke-width:2"/></g>
<g fill-rule="evenodd"><path d="M 998.031,816.929 L 999.322,804.651 L 1003.14,792.909 L 1009.31,782.217 L 1017.57,773.043 L 1027.56,765.786 L 1038.84,760.764 L 1050.91,758.198 L 1063.26,758.198 L 1075.34,760.764 L 1086.61,765.786 L 1096.6,773.043 L 1104.86,782.217 L 1111.04,792.909 L 1114.85,804.651 L 1116.14,816.929 L 1114.85,829.207 L 1111.04,840.949 L 1108.25,845.769 L 1189.65,927.165 L 1600.93,927.165 L 1749.44,778.629 L 1747.07,776.002 L 1740.49,764.598 L 1736.42,752.073 L 1735.04,738.976 L 1736.42,725.88 L 1740.49,713.355 L 1747.07,701.951 L 1755.88,692.164 L 1766.54,684.424 L 1778.57,679.067 L 1791.45,676.329 L 1804.62,676.329 L 1817.5,679.067 L 1829.53,684.424 L 1840.18,692.164 L 1848.99,701.951 L 1855.58,713.355 L 1859.65,725.88 L 1861.02,738.976 L 1859.65,752.073 L 1855.58,764.598 L 1848.99,776.002 L 1840.18,785.789 L 1829.53,793.529 L 1817.5,798.885 L 1804.62,801.623 L 1791.45,801.623 L 1783.75,799.988 L 1629.53,954.246 L 1629.53,1091.33 L 1634.82,1092.45 L 1646.85,1097.81 L 1657.5,1105.55 L 1666.32,1115.34 L 1672.9,1126.74 L 1676.97,1139.27 L 1678.35,1152.36 L 1676.97,1165.46 L 1672.9,1177.98 L 1666.32,1189.39 L 1657.5,1199.17 L 1646.85,1206.91 L 1634.82,1212.27 L 1621.94,1215.01 L 1608.77,1215.01 L 1595.89,1212.27 L 1583.86,1206.91 L 1573.2,1199.17 L 1564.39,1189.39 L 1557.81,1177.98 L 1553.74,1165.46 L 1552.36,1152.36 L 1553.74,1139.27 L 1557.81,1126.74 L 1564.39,1115.34 L 1573.2,1105.55 L 1583.86,1097.81 L 1590.16,1095.01 L 1590.16,966.535 L 1181.5,966.535 L 1177.66,966.157 L 1173.96,965.037 L 1170.56,963.218 L 1167.58,960.769 L 1078.49,871.688 L 1075.34,873.094 L 1063.26,875.661 L 1050.91,875.661 L 1038.84,873.094 L 1027.56,868.072 L 1017.57,860.816 L 1009.31,851.641 L 1003.14,840.949 L 999.322,829.207 L 998.031,816.929 z " style="fill-opacity:1.000000;fill:rgb(201,154,102);stroke:rgb(0,0,0);stroke-width:2"/></g>
<g fill-rule="evenodd"><path d="M 1147.64,3147.64 L 1147.64,3021.65 L 1201.18,3021.65 L 1201.18,2760.32 L 1187.4,2754.42 L 1176.08,2746.19 L 1166.72,2735.8 L 1159.72,2723.68 L 1155.4,2710.37 L 1153.94,2696.46 L 1155.4,2682.54 L 1159.72,2669.23 L 1166.72,2657.12 L 1176.08,2646.72 L 1187.4,2638.49 L 1200.18,2632.8 L 1213.87,2629.89 L 1227.86,2629.89 L 1241.55,2632.8 L 1254.33,2638.49 L 1265.65,2646.72 L 1275.01,2657.12 L 1282.01,2669.23 L 1286.33,2682.54 L 1287.8,2696.46 L 1286.33,2710.37 L 1282.01,2723.68 L 1275.01,2735.8 L 1265.65,2746.19 L 1254.33,2754.42 L 1240.55,2760.32 L 1240.55,3021.65 L 1273.62,3021.65 L 1273.62,3127.95 L 1538.19,3127.95 L 1538.19,3087.8 L 1657.87,3087.8 L 1657.87,3207.48 L 1538.19,3207.48 L 1538.19,3167.32 L 1242.13,3167.32 L 1238.29,3166.94 L 1234.59,3165.82 L 1231.19,3164 L 1228.21,3161.56 L 1214.29,3147.64 L 1147.64,3147.64 z " style="fill-opacity:1.000000;fill:rgb(50,13,183);stroke:rgb(0,0,0);stroke-width:2"/></g>
<g fill-rule="evenodd"><path d="M 1152.36,1752.36 L 1153.74,1739.27 L 1157.81,1726.74 L 1164.39,1715.34 L 1173.2,1705.55 L 1183.86,1697.81 L 1195.89,1692.45 L 1208.77,1689.72 L 1221.94,1689.72 L 1234.82,1692.45 L 1246.85,1697.81 L 1257.5,1705.55 L 1266.32,1715.34 L 1272.9,1726.74 L 1276.97,1739.27 L 1278.35,1752.36 L 1276.97,1765.46 L 1272.9,1777.98 L 1266.32,1789.39 L 1257.5,1799.17 L 1246.85,1806.91 L 1238.19,1810.77 L 1238.19,1885.94 L 1389.71,2037.47 L 1400.18,2032.8 L 1413.87,2029.89 L 1427.86,2029.89 L 1441.55,2032.8 L 1454.33,2038.49 L 1465.65,2046.72 L 1475.01,2057.12 L 1482.01,2069.23 L 1486.33,2082.54 L 1487.8,2096.46 L 1486.33,2110.37 L 1482.01,2123.68 L 1475.01,2135.8 L 1465.65,2146.19 L 1454.33,2154.42 L 1441.55,2160.11 L 1427.86,2163.02 L 1413.87,2163.02 L 1400.18,2160.11 L 1387.4,2154.42 L 1376.08,2146.19 L 1366.72,2135.8 L 1359.72,2123.68 L 1355.4,2110.37 L 1353.94,2096.46 L 1355.4,2082.54 L 1359.72,2069.23 L 1361.95,2065.38 L 1204.58,1908.01 L 1202.58,1905.66 L 1200.96,1903.03 L 1199.78,1900.18 L 1199.06,1897.17 L 1198.82,1894.09 L 1198.82,1812.89 L 1195.89,1812.27 L 1183.86,1806.91 L 1173.2,1799.17 L 1164.39,1789.39 L 1157.81,1777.98 L 1153.74,1765.46 L 1152.36,1752.36 z " style="fill-opacity:1.000000;fill:rgb(49,88,163);stroke:rgb(0,0,0);stroke-width:2"/></g>
<g fill-rule="evenodd"><path d="M 1152.36,1152.36 L 1153.74,1139.27 L 1157.81,1126.74 L 1164.39,1115.34 L 1173.2,1105.55 L 1183.86,1097.81 L 1195.89,1092.45 L 1208.77,1089.72 L 1221.94,1089.72 L 1234.82,1092.45 L 1246.85,1097.81 L 1257.5,1105.55 L 1266.32,1115.34 L 1272.9,1126.74 L 1276.97,1139.27 L 1278.35,1152.36 L 1276.97,1165.46 L 1272.9,1177.98 L 1266.32,1189.39 L 1257.5,1199.17 L 1246.85,1206.91 L 1234.82,1212.27 L 1221.94,1215.01 L 1208.77,1215.01 L 1195.89,1212.27 L 1183.86,1206.91 L 1173.2,1199.17 L 1164.39,1189.39 L 1157.81,1177.98 L 1153.74,1165.46 L 1152.36,1152.36 z " style="fill-opacity:1.000000;fill:rgb(90,37,93);stroke:rgb(0,0,0);stroke-width:2"/></g>
<g fill-rule="evenodd"><path d="M 1352.36,1752.36 L 1353.74,1739.27 L 1357.81,1726.74 L 1364.39,1715.34 L 1373.2,1705.55 L 1383.86,1697.81 L 1395.89,1692.45 L 1408.77,1689.72 L 1421.94,1689.72 L 1434.82,1692.45 L 1446.85,1697.81 L 1457.5,1705.55 L 1466.32,1715.34 L 1472.9,1726.74 L 1476.97,1739.27 L 1478.35,1752.36 L 1476.97,1765.46 L 1472.9,1777.98 L 1471.4,1780.57 L 1560.77,1869.94 L 1562.77,1872.29 L 1564.39,1874.92 L 1565.57,1877.78 L 1566.29,1880.78 L 1566.53,1883.86 L 1566.53,2170.47 L 1566.29,2173.55 L 1565.57,2176.56 L 1564.39,2179.41 L 1562.77,2182.04 L 1560.77,2184.39 L 1479.78,2265.38 L 1482.01,2269.23 L 1486.33,2282.54 L 1487.8,2296.46 L 1486.33,2310.37 L 1482.01,2323.68 L 1475.01,2335.8 L 1465.65,2346.19 L 1454.33,2354.42 L 1441.55,2360.11 L 1427.86,2363.02 L 1413.87,2363.02 L 1400.18,2360.11 L 1387.4,2354.42 L 1376.08,2346.19 L 1366.72,2335.8 L 1359.72,2323.68 L 1355.4,2310.37 L 1353.94,2296.46 L 1355.4,2282.54 L 1359.72,2269.23 L 1366.72,2257.12 L 1376.08,2246.72 L 1387.4,2238.49 L 1400.18,2232.8 L 1413.87,2229.89 L 1427.86,2229.89 L 1441.55,2232.8 L 1452.02,2237.46 L 1527.16,2162.32 L 1527.16,1892.01 L 1443.54,1808.39 L 1434.82,1812.27 L 1421.94,1815.01 L 1408.77,1815.01 L 1395.89,1812.27 L 1383.86,1806.91 L 1373.2,1799.17 L 1364.39,1789.39 L 1357.81,1777.98 L 1353.74,1765.46 L 1352.36,1752.36 z " style="fill-opacity:1.000000;fill:rgb(5,23,88);stroke:rgb(0,0,0);stroke-width:2"/></g>
<g fill-rule="evenodd"><path d="M 1353.94,2496.46 L 1355.4,2482.54 L 1359.72,2469.23 L 1366.72,2457.12 L 1376.08,2446.72 L 1387.4,2438.49 L 1400.18,2432.8 L 1413.87,2429.89 L 1427.86,2429.89 L 1441.55,2432.8 L 1452.02,2437.46 L 1675.2,2214.29 L 1675.2,2003.51 L 1663.39,1998.25 L 1652.73,1990.51 L 1643.92,1980.73 L 1637.34,1969.32 L 1633.27,1956.8 L 1631.89,1943.7 L 1633.27,1930.6 L 1637.34,1918.08 L 1643.92,1906.67 L 1652.73,1896.89 L 1663.39,1889.15 L 1675.42,1883.79 L 1688.3,1881.05 L 1701.47,1881.05 L 1714.35,1883.79 L 1726.38,1889.15 L 1737.03,1896.89 L 1745.84,1906.67 L 1752.43,1918.08 L 1756.5,1930.6 L 1757.87,1943.7 L 1756.5,1956.8 L 1752.43,1969.32 L 1745.84,1980.73 L 1737.03,1990.51 L 1726.38,1998.25 L 1714.57,2003.51 L 1714.57,2222.44 L 1714.32,2225.52 L 1713.6,2228.52 L 1712.42,2231.38 L 1710.81,2234.01 L 1708.8,2236.36 L 1479.78,2465.38 L 1482.01,2469.23 L 1486.33,2482.54 L 1487.8,2496.46 L 1486.33,2510.37 L 1482.01,2523.68 L 1475.01,2535.8 L 1465.65,2546.19 L 1454.33,2554.42 L 1441.55,2560.11 L 1427.86,2563.02 L 1413.87,2563.02 L 1400.18,2560.11 L 1387.4,2554.42 L 1376.08,2546.19 L 1366.72,2535.8 L 1359.72,2523.68 L 1355.4,2510.37 L 1353.94,2496.46 z " style="fill-opacity:1.000000;fill:rgb(233,94,212);stroke:rgb(0,0,0);stroke-width:2"/></g>
<g fill-rule="evenodd"><path d="M 1487.8,352.362 L 1487.8,210.63 L 1629.53,210.63 L 1629.53,261.811 L 1799.19,261.811 L 1801.12,255.875 L 1807.7,244.47 L 1816.51,234.684 L 1827.17,226.943 L 1839.2,221.587 L 1852.08,218.849 L 1865.25,218.849 L 1878.13,221.587 L 1890.16,226.943 L 1900.81,234.684 L 1909.62,244.47 L 1916.21,255.875 L 1920.28,268.399 L 1921.65,281.496 L 1920.28,294.593 L 1916.21,307.117 L 1909.62,318.522 L 1900.81,328.308 L 1890.16,336.049 L 1878.13,341.405 L 1865.25,344.143 L 1852.08,344.143 L 1839.2,341.405 L 1827.17,336.049 L 1816.51,328.308 L 1807.7,318.522 L 1801.12,307.117 L 1799.19,301.181 L 1629.53,301.181 L 1629.53,352.362 L 1487.8,352.362 z " style="fill-opacity:1.000000;fill:rgb(171,178,205);stroke:rgb(0,0,0);stroke-width:2"/></g>
<g fill-rule="evenodd"><path d="M 1552.36,1752.36 L 1553.74,1739.27 L 1557.81,1726.74 L 1564.39,1715.34 L 1573.2,1705.55 L 1583.86,1697.81 L 1595.89,1692.45 L 1608.77,1689.72 L 1621.94,1689.72 L 1634.82,1692.45 L 1646.85,1697.81 L 1657.5,1705.55 L 1666.32,1715.34 L 1672.9,1726.74 L 1676.97,1739.27 L 1678.35,1752.36 L 1676.97,1765.46 L 1672.9,1777.98 L 1666.32,1789.39 L 1657.5,1799.17 L 1646.85,1806.91 L 1634.82,1812.27 L 1621.94,1815.01 L 1608.77,1815.01 L 1595.89,1812.27 L 1583.86,1806.91 L 1573.2,1799.17 L 1564.39,1789.39 L 1557.81,1777.98 L 1553.74,1765.46 L 1552.36,1752.36 z " style="fill-opacity:1.000000;fill:rgb(198,155,180);stroke:rgb(0,0,0);stroke-width:2"/></g>
<g fill-rule="evenodd"><path d="M 1752.36,1752.36 L 1753.74,1739.27 L 1757.81,1726.74 L 1764.39,1715.34 L 1773.2,1705.55 L 1783.86,1697.81 L 1795.89,1692.45 L 1808.77,1689.72 L 1821.94,1689.72 L 1834.82,1692.45 L 1846.85,1697.81 L 1857.5,1705.55 L 1866.32,1715.34 L 1872.9,1726.74 L 1876.97,1739.27 L 1878.35,1752.36 L 1876.97,1765.46 L 1872.9,1777.98 L 1866.32,1789.39 L 1857.5,1799.17 L 1846.85,1806.91 L 1834.82,1812.27 L 1821.94,1815.01 L 1808.77,1815.01 L 1795.89,1812.27 L 1783.86,1806.91 L 1773.2,1799.17 L 1764.39,1789.39 L 1757.81,1777.98 L 1753.74,1765.46 L 1752.36,1752.36 z " style="fill-opacity:1.000000;fill:rgb(84,17,14);stroke:rgb(0,0,0);stroke-width:2"/></g>
<g fill-rule="evenodd"><path d="M 1938.19,3147.64 L 1939.5,3135.2 L 1943.36,3123.3 L 1949.62,3112.46 L 1957.99,3103.17 L 1968.11,3095.81 L 1979.54,3090.72 L 1991.78,3088.12 L 2004.29,3088.12 L 2016.52,3090.72 L 2027.95,3095.81 L 2038.07,3103.17 L 2046.45,3112.46 L 2052.7,3123.3 L 2056.57,3135.2 L 2057.87,3147.64 L 2056.57,3160.08 L 2052.7,3171.98 L 2051.79,3173.56 L 2128.23,3250 L 2324.52,3250 L 2391.73,3182.79 L 2391.73,3084.65 L 2427.16,3084.65 L 2427.16,2881.94 L 2247.89,2702.67 L 2245.88,2700.32 L 2244.27,2697.68 L 2243.09,2694.83 L 2242.37,2691.83 L 2242.12,2688.75 L 2242.12,2657.96 L 2228.35,2652.06 L 2217.03,2643.83 L 2207.66,2633.43 L 2200.67,2621.32 L 2196.34,2608.01 L 2194.88,2594.09 L 2196.34,2580.18 L 2200.67,2566.87 L 2207.66,2554.75 L 2217.03,2544.36 L 2228.35,2536.13 L 2237.4,2532.1 L 2237.4,2398.12 L 2223.62,2392.21 L 2212.3,2383.99 L 2202.94,2373.59 L 2195.94,2361.47 L 2191.62,2348.17 L 2190.16,2334.25 L 2191.62,2320.34 L 2195.94,2307.03 L 2202.94,2294.91 L 2212.3,2284.51 L 2223.62,2276.29 L 2236.61,2270.55 L 2236.61,2144.57 L 2222.83,2138.67 L 2211.51,2130.45 L 2202.15,2120.05 L 2195.16,2107.93 L 2190.83,2094.62 L 2189.37,2080.71 L 2190.83,2066.79 L 2195.16,2053.49 L 2202.15,2041.37 L 2211.51,2030.97 L 2222.83,2022.75 L 2235.62,2017.06 L 2249.3,2014.15 L 2263.3,2014.15 L 2276.98,2017.06 L 2289.76,2022.75 L 2301.08,2030.97 L 2310.45,2041.37 L 2317.44,2053.49 L 2321.77,2066.79 L 2323.23,2080.71 L 2321.77,2094.62 L 2317.44,2107.93 L 2310.45,2120.05 L 2301.08,2130.45 L 2289.76,2138.67 L 2275.98,2144.57 L 2275.98,2270.22 L 2277.77,2270.6 L 2290.55,2276.29 L 2301.87,2284.51 L 2311.23,2294.91 L 2318.23,2307.03 L 2322.55,2320.34 L 2324.02,2334.25 L 2322.55,2348.17 L 2318.23,2361.47 L 2311.23,2373.59 L 2301.87,2383.99 L 2290.55,2392.21 L 2276.77,2398.12 L 2276.77,2529.22 L 2282.49,2530.44 L 2295.28,2536.13 L 2306.6,2544.36 L 2315.96,2554.75 L 2322.95,2566.87 L 2327.28,2580.18 L 2328.74,2594.09 L 2327.28,2608.01 L 2322.95,2621.32 L 2315.96,2633.43 L 2306.6,2643.83 L 2295.28,2652.06 L 2281.49,2657.96 L 2281.49,2680.59 L 2460.77,2859.86 L 2462.77,2862.21 L 2464.39,2864.85 L 2465.57,2867.7 L 2466.29,2870.7 L 2466.53,2873.78 L 2466.53,3084.65 L 2517.72,3084.65 L 2517.72,3127.95 L 2765.47,3127.95 L 2952.5,2940.92 L 2950.27,2937.07 L 2945.95,2923.76 L 2944.49,2909.84 L 2945.95,2895.93 L 2950.27,2882.62 L 2957.27,2870.5 L 2966.63,2860.1 L 2977.95,2851.88 L 2990.74,2846.19 L 3004.42,2843.28 L 3018.41,2843.28 L 3032.1,2846.19 L 3042.57,2850.85 L 3062,2831.42 L 3063.62,2829.22 L 3066.22,2826.77 L 3069.47,2824.74 L 3283.86,2610.35 L 3283.86,2301.97 L 3284.23,2298.13 L 3285.35,2294.43 L 3287.17,2291.03 L 3289.62,2288.05 L 3447.65,2130.02 L 3444.42,2124.44 L 3440.35,2111.92 L 3438.98,2098.82 L 3440.35,2085.72 L 3444.42,2073.2 L 3451.01,2061.79 L 3459.82,2052.01 L 3470.47,2044.27 L 3482.5,2038.91 L 3495.38,2036.17 L 3508.55,2036.17 L 3521.43,2038.91 L 3530.15,2042.79 L 3604.33,1968.62 L 3604.33,1446.34 L 3323.48,1165.49 L 3321.03,1162.51 L 3319.21,1159.11 L 3318.09,1155.41 L 3317.72,1151.57 L 3317.72,1050.28 L 3248.68,981.242 L 3246.67,978.893 L 3245.06,976.259 L 3243.88,973.405 L 3243.15,970.402 L 3242.91,967.322 L 3242.91,815.634 L 3128.46,701.181 L 3035.95,701.181 L 3033.78,703.435 L 3030.93,705.497 L 3027.76,707.02 L 3024.37,707.953 L 3022.72,708.101 L 2936.61,794.21 L 2936.61,816.843 L 2950.39,822.746 L 2961.71,830.971 L 2971.08,841.369 L 2978.07,853.486 L 2982.4,866.793 L 2983.86,880.709 L 2982.4,894.624 L 2978.07,907.931 L 2971.08,920.049 L 2961.71,930.447 L 2950.39,938.671 L 2937.61,944.362 L 2923.93,947.271 L 2909.93,947.271 L 2896.25,944.362 L 2885.77,939.7 L 2781.24,1044.23 L 2778.26,1046.68 L 2774.85,1048.5 L 2771.16,1049.62 L 2767.32,1050 L 2145.56,1050 L 2071.4,1124.15 L 2072.9,1126.74 L 2076.97,1139.27 L 2078.35,1152.36 L 2076.97,1165.46 L 2072.9,1177.98 L 2066.32,1189.39 L 2057.5,1199.17 L 2046.85,1206.91 L 2034.82,1212.27 L 2021.94,1215.01 L 2008.77,1215.01 L 1995.89,1212.27 L 1983.86,1206.91 L 1973.2,1199.17 L 1964.39,1189.39 L 1957.81,1177.98 L 1953.74,1165.46 L 1952.36,1152.36 L 1953.74,1139.27 L 1957.81,1126.74 L 1964.39,1115.34 L 1973.2,1105.55 L 1983.86,1097.81 L 1995.89,1092.45 L 2008.77,1089.72 L 2021.94,1089.72 L 2034.82,1092.45 L 2043.54,1096.34 L 2123.48,1016.39 L 2125.83,1014.39 L 2128.46,1012.77 L 2131.32,1011.59 L 2134.32,1010.87 L 2137.4,1010.63 L 2759.17,1010.63 L 2858.01,911.785 L 2855.79,907.931 L 2851.46,894.624 L 2850,880.709 L 2851.46,866.793 L 2855.79,853.486 L 2862.78,841.369 L 2872.14,830.971 L 2883.46,822.746 L 2897.24,816.844 L 2897.24,786.056 L 2897.48,782.977 L 2898.21,779.973 L 2899.39,777.119 L 2901,774.485 L 2903.01,772.137 L 2992.68,682.467 L 2811.53,497.637 L 2809.14,494.671 L 2807.37,491.3 L 2806.27,487.65 L 2805.9,483.858 L 2805.9,456.578 L 2789.81,440.488 L 2779.34,445.149 L 2765.66,448.059 L 2751.67,448.059 L 2737.98,445.149 L 2727.51,440.488 L 2452.36,715.634 L 2452.36,754.755 L 2464.17,760.014 L 2474.83,767.755 L 2483.64,777.541 L 2490.22,788.946 L 2494.29,801.47 L 2495.67,814.567 L 2494.29,827.664 L 2490.22,840.188 L 2483.64,851.593 L 2474.83,861.379 L 2464.17,869.12 L 2452.14,874.476 L 2439.26,877.214 L 2426.09,877.214 L 2413.21,874.476 L 2401.18,869.12 L 2390.53,861.379 L 2381.72,851.593 L 2375.13,840.188 L 2371.06,827.664 L 2369.69,814.567 L 2371.06,801.47 L 2375.13,788.946 L 2381.72,777.541 L 2390.53,767.755 L 2401.18,760.014 L 2412.99,754.756 L 2412.99,707.48 L 2413.23,704.401 L 2413.95,701.397 L 2415.14,698.543 L 2416.75,695.909 L 2418.76,693.561 L 2699.74,412.574 L 2697.52,408.719 L 2693.19,395.411 L 2691.73,381.496 L 2693.19,367.581 L 2697.52,354.274 L 2704.51,342.156 L 2713.88,331.758 L 2725.2,323.534 L 2737.98,317.843 L 2751.67,314.934 L 2765.66,314.934 L 2779.34,317.843 L 2792.13,323.534 L 2803.45,331.758 L 2812.81,342.156 L 2819.8,354.274 L 2824.13,367.581 L 2825.59,381.496 L 2824.13,395.411 L 2819.8,408.719 L 2817.58,412.574 L 2839.51,434.505 L 2841.96,437.488 L 2843.78,440.891 L 2844.9,444.584 L 2845.27,448.424 L 2845.27,475.82 L 3027.56,661.811 L 3136.61,661.811 L 3139.69,662.053 L 3142.7,662.774 L 3145.55,663.957 L 3148.18,665.571 L 3150.53,667.577 L 3276.52,793.561 L 3278.96,796.544 L 3280.78,799.947 L 3281.9,803.64 L 3282.28,807.48 L 3282.28,959.168 L 3351.32,1028.2 L 3353.33,1030.55 L 3354.94,1033.19 L 3356.12,1036.04 L 3356.84,1039.04 L 3357.09,1042.12 L 3357.09,1143.42 L 3637.93,1424.27 L 3640.38,1427.25 L 3642.2,1430.65 L 3643.32,1434.35 L 3643.7,1438.19 L 3643.7,1976.77 L 3643.32,1980.61 L 3642.2,1984.3 L 3640.38,1987.71 L 3637.93,1990.69 L 3558.02,2070.61 L 3559.51,2073.2 L 3563.58,2085.72 L 3564.96,2098.82 L 3563.58,2111.92 L 3559.51,2124.44 L 3552.93,2135.84 L 3544.12,2145.63 L 3533.46,2153.37 L 3521.43,2158.73 L 3508.55,2161.47 L 3495.38,2161.47 L 3482.5,2158.73 L 3477.05,2156.3 L 3323.23,2310.12 L 3323.23,2618.5 L 3322.85,2622.34 L 3321.73,2626.04 L 3319.91,2629.44 L 3317.46,2632.42 L 3092.97,2856.91 L 3089.48,2859.61 L 3070.33,2878.76 L 3072.56,2882.62 L 3076.88,2895.93 L 3078.35,2909.84 L 3076.88,2923.76 L 3072.56,2937.07 L 3065.56,2949.18 L 3056.2,2959.58 L 3044.88,2967.8 L 3032.1,2973.5 L 3018.41,2976.41 L 3004.42,2976.41 L 2990.74,2973.5 L 2980.26,2968.83 L 2787.54,3161.56 L 2784.56,3164 L 2781.15,3165.82 L 2777.46,3166.94 L 2773.62,3167.32 L 2517.72,3167.32 L 2517.72,3210.63 L 2427.14,3210.63 L 2354.16,3283.6 L 2351.18,3286.05 L 2347.78,3287.87 L 2344.09,3288.99 L 2340.25,3289.37 L 2120.08,3289.37 L 2116.24,3288.99 L 2112.54,3287.87 L 2109.14,3286.05 L 2106.16,3283.6 L 2023.85,3201.29 L 2016.52,3204.55 L 2004.29,3207.15 L 1991.78,3207.15 L 1979.54,3204.55 L 1968.11,3199.46 L 1957.99,3192.11 L 1949.62,3182.81 L 1943.36,3171.98 L 1939.5,3160.08 L 1938.19,3147.64 z " style="fill-opacity:1.000000;fill:rgb(130,116,65);stroke:rgb(0,0,0);stroke-width:2"/></g>
<g fill-rule="evenodd"><path d="M 2152.36,1752.36 L 2153.74,1739.27 L 2157.81,1726.74 L 2164.39,1715.34 L 2173.2,1705.55 L 2183.86,1697.81 L 2195.89,1692.45 L 2208.77,1689.72 L 2221.94,1689.72 L 2234.82,1692.45 L 2246.85,1697.81 L 2257.5,1705.55 L 2266.32,1715.34 L 2272.9,1726.74 L 2276.97,1739.27 L 2278.35,1752.36 L 2276.97,1765.46 L 2272.9,1777.98 L 2271.4,1780.57 L 2470.22,1979.39 L 2472.22,1981.74 L 2473.84,1984.37 L 2475.02,1987.22 L 2475.74,1990.23 L 2475.98,1993.31 L 2475.98,2013.78 L 2523.23,2013.78 L 2523.23,2147.64 L 2389.37,2147.64 L 2389.37,2013.78 L 2436.61,2013.78 L 2436.61,2001.46 L 2243.54,1808.39 L 2234.82,1812.27 L 2221.94,1815.01 L 2208.77,1815.01 L 2195.89,1812.27 L 2183.86,1806.91 L 2173.2,1799.17 L 2164.39,1789.39 L 2157.81,1777.98 L 2153.74,1765.46 L 2152.36,1752.36 z " style="fill-opacity:1.000000;fill:rgb(33,61,220);stroke:rgb(0,0,0);stroke-width:2"/></g>
<g fill-rule="evenodd"><path d="M 2152.36,1152.36 L 2153.74,1139.27 L 2157.81,1126.74 L 2164.39,1115.34 L 2173.2,1105.55 L 2183.86,1097.81 L 2195.89,1092.45 L 2208.77,1089.72 L 2221.94,1089.72 L 2234.82,1092.45 L 2246.85,1097.81 L 2257.5,1105.55 L 2266.32,1115.34 L 2272.9,1126.74 L 2276.97,1139.27 L 2278.35,1152.36 L 2276.97,1165.46 L 2272.9,1177.98 L 2266.32,1189.39 L 2257.5,1199.17 L 2246.85,1206.91 L 2234.82,1212.27 L 2221.94,1215.01 L 2208.77,1215.01 L 2195.89,1212.27 L 2183.86,1206.91 L 2173.2,1199.17 L 2164.39,1189.39 L 2157.81,1177.98 L 2153.74,1165.46 L 2152.36,1152.36 z " style="fill-opacity:1.000000;fill:rgb(135,112,233);stroke:rgb(0,0,0);stroke-width:2"/></g>
<g fill-rule="evenodd"><path d="M 2352.36,1752.36 L 2353.74,1739.27 L 2357.81,1726.74 L 2364.39,1715.34 L 2373.2,1705.55 L 2383.86,1697.81 L 2395.89,1692.45 L 2408.77,1689.72 L 2421.94,1689.72 L 2434.82,1692.45 L 2446.85,1697.81 L 2457.5,1705.55 L 2466.32,1715.34 L 2472.9,1726.74 L 2476.97,1739.27 L 2478.35,1752.36 L 2476.97,1765.46 L 2472.9,1777.98 L 2471.4,1780.57 L 2596.2,1905.37 L 2598.21,1907.72 L 2599.82,1910.35 L 2601,1913.21 L 2601.73,1916.21 L 2601.97,1919.29 L 2601.97,2315.35 L 2601.73,2318.43 L 2601,2321.44 L 2599.82,2324.29 L 2598.21,2326.93 L 2596.2,2329.27 L 2577.3,2348.17 L 2574.32,2350.62 L 2570.92,2352.44 L 2567.23,2353.56 L 2563.39,2353.94 L 2524.02,2353.94 L 2524.02,2401.18 L 2390.16,2401.18 L 2390.16,2267.32 L 2524.02,2267.32 L 2524.02,2314.57 L 2555.23,2314.57 L 2562.6,2307.2 L 2562.6,1927.44 L 2443.54,1808.39 L 2434.82,1812.27 L 2421.94,1815.01 L 2408.77,1815.01 L 2395.89,1812.27 L 2383.86,1806.91 L 2373.2,1799.17 L 2364.39,1789.39 L 2357.81,1777.98 L 2353.74,1765.46 L 2352.36,1752.36 z " style="fill-opacity:1.000000;fill:rgb(62,161,65);stroke:rgb(0,0,0);stroke-width:2"/></g>
<g fill-rule="evenodd"><path d="M 2352.36,1152.36 L 2353.74,1139.27 L 2357.81,1126.74 L 2364.39,1115.34 L 2373.2,1105.55 L 2383.86,1097.81 L 2395.89,1092.45 L 2408.77,1089.72 L 2421.94,1089.72 L 2434.82,1092.45 L 2446.85,1097.81 L 2457.5,1105.55 L 2466.32,1115.34 L 2472.9,1126.74 L 2476.97,1139.27 L 2478.35,1152.36 L 2476.97,1165.46 L 2472.9,1177.98 L 2466.32,1189.39 L 2457.5,1199.17 L 2446.85,1206.91 L 2434.82,1212.27 L 2421.94,1215.01 L 2408.77,1215.01 L 2395.89,1212.27 L 2383.86,1206.91 L 2373.2,1199.17 L 2364.39,1189.39 L 2357.81,1177.98 L 2353.74,1165.46 L 2352.36,1152.36 z " style="fill-opacity:1.000000;fill:rgb(225,252,103);stroke:rgb(0,0,0);stroke-width:2"/></g>
<g fill-rule="evenodd"><path d="M 2394.88,2661.02 L 2394.88,2527.17 L 2528.74,2527.17 L 2528.74,2574.41 L 2559.96,2574.41 L 2641.34,2493.03 L 2641.34,1809.37 L 2634.82,1812.27 L 2621.94,1815.01 L 2608.77,1815.01 L 2595.89,1812.27 L 2583.86,1806.91 L 2573.2,1799.17 L 2564.39,1789.39 L 2557.81,1777.98 L 2553.74,1765.46 L 2552.36,1752.36 L 2553.74,1739.27 L 2557.81,1726.74 L 2564.39,1715.34 L 2573.2,1705.55 L 2583.86,1697.81 L 2595.89,1692.45 L 2608.77,1689.72 L 2621.94,1689.72 L 2634.82,1692.45 L 2646.85,1697.81 L 2657.5,1705.55 L 2666.32,1715.34 L 2672.9,1726.74 L 2676.97,1739.27 L 2678.35,1752.36 L 2676.97,1765.46 L 2672.9,1777.98 L 2671.4,1780.57 L 2676.95,1786.46 L 2678.56,1789.1 L 2679.75,1791.95 L 2680.47,1794.95 L 2680.71,1798.03 L 2680.71,2501.18 L 2680.47,2504.26 L 2679.74,2507.26 L 2678.56,2510.12 L 2676.95,2512.75 L 2674.94,2515.1 L 2582.03,2608.01 L 2579.05,2610.46 L 2575.64,2612.28 L 2571.95,2613.4 L 2568.11,2613.78 L 2528.74,2613.78 L 2528.74,2661.02 L 2394.88,2661.02 z " style="fill-opacity:1.000000;fill:rgb(62,1,126);stroke:rgb(0,0,0);stroke-width:2"/></g>
<g fill-rule="evenodd"><path d="M 2752.36,1752.36 L 2753.74,1739.27 L 2757.81,1726.74 L 2764.39,1715.34 L 2773.2,1705.55 L 2783.86,1697.81 L 2795.89,1692.45 L 2808.77,1689.72 L 2821.94,1689.72 L 2834.82,1692.45 L 2846.85,1697.81 L 2857.5,1705.55 L 2866.32,1715.34 L 2872.9,1726.74 L 2876.97,1739.27 L 2878.35,1752.36 L 2876.97,1765.46 L 2872.9,1777.98 L 2866.32,1789.39 L 2857.5,1799.17 L 2846.85,1806.91 L 2834.82,1812.27 L 2821.94,1815.01 L 2808.77,1815.01 L 2795.89,1812.27 L 2783.86,1806.91 L 2773.2,1799.17 L 2764.39,1789.39 L 2757.81,1777.98 L 2753.74,1765.46 L 2752.36,1752.36 z " style="fill-opacity:1.000000;fill:rgb(151,234,220);stroke:rgb(0,0,0);stroke-width:2"/></g>
<g fill-rule="evenodd"><path d="M 2752.36,1152.36 L 2753.74,1139.27 L 2757.81,1126.74 L 2764.39,1115.34 L 2773.2,1105.55 L 2783.86,1097.81 L 2795.89,1092.45 L 2808.77,1089.72 L 2821.94,1089.72 L 2834.82,1092.45 L 2846.85,1097.81 L 2857.5,1105.55 L 2866.32,1115.34 L 2872.9,1126.74 L 2876.97,1139.27 L 2878.35,1152.36 L 2876.97,1165.46 L 2872.9,1177.98 L 2866.32,1189.39 L 2857.5,1199.17 L 2846.85,1206.91 L 2834.82,1212.27 L 2821.94,1215.01 L 2808.77,1215.01 L 2795.89,1212.27 L 2783.86,1206.91 L 2773.2,1199.17 L 2764.39,1189.39 L 2757.81,1177.98 L 2753.74,1165.46 L 2752.36,1152.36 z " style="fill-opacity:1.000000;fill:rgb(107,150,143);stroke:rgb(0,0,0);stroke-width:2"/></g>
<g fill-rule="evenodd"><path d="M 2865.75,2278.51 L 2865.75,1882.28 L 2865.99,1879.2 L 2866.71,1876.2 L 2867.89,1873.35 L 2869.51,1870.71 L 2871.51,1868.36 L 2959.3,1780.57 L 2957.81,1777.98 L 2953.74,1765.46 L 2952.36,1752.36 L 2953.74,1739.27 L 2957.81,1726.74 L 2964.39,1715.34 L 2973.2,1705.55 L 2983.86,1697.81 L 2995.89,1692.45 L 3008.77,1689.72 L 3021.94,1689.72 L 3034.82,1692.45 L 3046.85,1697.81 L 3057.5,1705.55 L 3066.32,1715.34 L 3072.9,1726.74 L 3076.97,1739.27 L 3078.35,1752.36 L 3076.97,1765.46 L 3072.9,1777.98 L 3066.32,1789.39 L 3057.5,1799.17 L 3046.85,1806.91 L 3034.82,1812.27 L 3021.94,1815.01 L 3008.77,1815.01 L 2995.89,1812.27 L 2987.17,1808.39 L 2905.12,1890.44 L 2905.12,2270.36 L 2924.92,2290.16 L 2947.83,2290.16 L 2950.27,2282.62 L 2957.27,2270.5 L 2966.63,2260.1 L 2977.95,2251.88 L 2990.74,2246.19 L 3004.42,2243.28 L 3018.41,2243.28 L 3032.1,2246.19 L 3044.88,2251.88 L 3056.2,2260.1 L 3065.56,2270.5 L 3072.56,2282.62 L 3076.88,2295.93 L 3078.35,2309.84 L 3076.88,2323.76 L 3072.56,2337.07 L 3065.56,2349.18 L 3056.2,2359.58 L 3044.88,2367.8 L 3032.1,2373.5 L 3018.41,2376.41 L 3004.42,2376.41 L 2990.74,2373.5 L 2977.95,2367.8 L 2966.63,2359.58 L 2957.27,2349.18 L 2950.27,2337.07 L 2947.83,2329.53 L 2916.76,2329.53 L 2912.92,2329.15 L 2909.23,2328.03 L 2905.83,2326.21 L 2902.84,2323.76 L 2871.51,2292.43 L 2869.06,2289.45 L 2867.24,2286.04 L 2866.12,2282.35 L 2865.75,2278.51 z " style="fill-opacity:1.000000;fill:rgb(56,92,42);stroke:rgb(0,0,0);stroke-width:2"/></g>
<g fill-rule="evenodd"><path d="M 2944.49,2709.84 L 2945.95,2695.93 L 2950.27,2682.62 L 2957.27,2670.5 L 2966.63,2660.1 L 2977.95,2651.88 L 2990.74,2646.19 L 3004.42,2643.28 L 3018.41,2643.28 L 3032.1,2646.19 L 3044.88,2651.88 L 3056.2,2660.1 L 3065.56,2670.5 L 3072.56,2682.62 L 3076.88,2695.93 L 3078.35,2709.84 L 3076.88,2723.76 L 3072.56,2737.07 L 3065.56,2749.18 L 3056.2,2759.58 L 3044.88,2767.8 L 3032.1,2773.5 L 3018.41,2776.41 L 3004.42,2776.41 L 2990.74,2773.5 L 2977.95,2767.8 L 2966.63,2759.58 L 2957.27,2749.18 L 2950.27,2737.07 L 2945.95,2723.76 L 2944.49,2709.84 z " style="fill-opacity:1.000000;fill:rgb(236,176,59);stroke:rgb(0,0,0);stroke-width:2"/></g>
<g fill-rule="evenodd"><path d="M 2944.49,2176.77 L 2944.49,2042.91 L 2991.73,2042.91 L 2991.73,1956.3 L 2991.97,1953.22 L 2992.69,1950.22 L 2993.88,1947.36 L 2995.49,1944.73 L 2997.5,1942.38 L 3159.3,1780.57 L 3157.81,1777.98 L 3153.74,1765.46 L 3152.36,1752.36 L 3153.74,1739.27 L 3157.81,1726.74 L 3164.39,1715.34 L 3173.2,1705.55 L 3183.86,1697.81 L 3195.89,1692.45 L 3208.77,1689.72 L 3221.94,1689.72 L 3234.82,1692.45 L 3246.85,1697.81 L 3257.5,1705.55 L 3266.32,1715.34 L 3272.9,1726.74 L 3276.97,1739.27 L 3278.35,1752.36 L 3276.97,1765.46 L 3272.9,1777.98 L 3266.32,1789.39 L 3257.5,1799.17 L 3246.85,1806.91 L 3234.82,1812.27 L 3221.94,1815.01 L 3208.77,1815.01 L 3195.89,1812.27 L 3187.17,1808.39 L 3031.1,1964.45 L 3031.1,2042.91 L 3078.35,2042.91 L 3078.35,2176.77 L 2944.49,2176.77 z " style="fill-opacity:1.000000;fill:rgb(251,50,175);stroke:rgb(0,0,0);stroke-width:2"/></g>
<g fill-rule="evenodd"><path d="M 2952.36,1152.36 L 2953.74,1139.27 L 2957.81,1126.74 L 2964.39,1115.34 L 2973.2,1105.55 L 2983.86,1097.81 L 2995.67,1092.55 L 2995.67,1017.72 L 2996.05,1013.88 L 2997.17,1010.18 L 2998.99,1006.78 L 3001.43,1003.8 L 3057.59,947.638 L 3050,947.638 L 3050,813.78 L 3183.86,813.78 L 3183.86,947.638 L 3113.27,947.638 L 3035.04,1025.87 L 3035.04,1092.55 L 3046.85,1097.81 L 3057.5,1105.55 L 3066.32,1115.34 L 3072.9,1126.74 L 3076.97,1139.27 L 3078.35,1152.36 L 3076.97,1165.46 L 3072.9,1177.98 L 3066.32,1189.39 L 3057.5,1199.17 L 3046.85,1206.91 L 3034.82,1212.27 L 3021.94,1215.01 L 3008.77,1215.01 L 2995.89,1212.27 L 2983.86,1206.91 L 2973.2,1199.17 L 2964.39,1189.39 L 2957.81,1177.98 L 2953.74,1165.46 L 2952.36,1152.36 z " style="fill-opacity:1.000000;fill:rgb(60,84,236);stroke:rgb(0,0,0);stroke-width:2"/></g>
<g fill-rule="evenodd"><path d="M 3152.36,1215.35 L 3152.36,1089.37 L 3278.35,1089.37 L 3278.35,1215.35 L 3235.04,1215.35 L 3235.04,1246.57 L 3450.73,1462.27 L 3459.82,1452.01 L 3470.47,1444.27 L 3482.5,1438.91 L 3495.38,1436.17 L 3508.55,1436.17 L 3521.43,1438.91 L 3533.46,1444.27 L 3544.12,1452.01 L 3552.93,1461.79 L 3559.51,1473.2 L 3563.58,1485.72 L 3564.96,1498.82 L 3563.58,1511.92 L 3559.51,1524.44 L 3552.93,1535.84 L 3544.12,1545.63 L 3533.46,1553.37 L 3521.43,1558.73 L 3508.55,1561.47 L 3495.38,1561.47 L 3482.5,1558.73 L 3470.47,1553.37 L 3459.82,1545.63 L 3451.01,1535.84 L 3444.42,1524.44 L 3440.35,1511.92 L 3439.84,1507.05 L 3201.43,1268.64 L 3198.99,1265.66 L 3197.17,1262.26 L 3196.05,1258.56 L 3195.67,1254.72 L 3195.67,1215.35 L 3152.36,1215.35 z " style="fill-opacity:1.000000;fill:rgb(24,219,92);stroke:rgb(0,0,0);stroke-width:2"/></g>
</svg>
