G04 #@! TF.GenerationSoftware,KiCad,Pcbnew,5.1.5+dfsg1-2build2*
G04 #@! TF.CreationDate,2022-10-20T15:11:13+01:00*
G04 #@! TF.ProjectId,proto,70726f74-6f2e-46b6-9963-61645f706362,rev?*
G04 #@! TF.SameCoordinates,Original*
G04 #@! TF.FileFunction,Copper,L2,Bot*
G04 #@! TF.FilePolarity,Positive*
%FSLAX46Y46*%
G04 Gerber Fmt 4.6, Leading zero omitted, Abs format (unit mm)*
G04 Created by KiCad (PCBNEW 5.1.5+dfsg1-2build2) date 2022-10-20 15:11:13*
%MOMM*%
%LPD*%
G04 APERTURE LIST*
G04 #@! TA.AperFunction,ComponentPad*
%ADD10R,1.700000X1.700000*%
G04 #@! TD*
G04 #@! TA.AperFunction,ComponentPad*
%ADD11O,1.700000X1.700000*%
G04 #@! TD*
G04 #@! TA.AperFunction,ComponentPad*
%ADD12C,1.500000*%
G04 #@! TD*
G04 #@! TA.AperFunction,ComponentPad*
%ADD13C,1.600000*%
G04 #@! TD*
G04 #@! TA.AperFunction,ComponentPad*
%ADD14R,1.600000X1.600000*%
G04 #@! TD*
G04 #@! TA.AperFunction,ComponentPad*
%ADD15C,1.520000*%
G04 #@! TD*
G04 #@! TA.AperFunction,ComponentPad*
%ADD16R,1.520000X1.520000*%
G04 #@! TD*
G04 #@! TA.AperFunction,ComponentPad*
%ADD17R,1.800000X1.800000*%
G04 #@! TD*
G04 #@! TA.AperFunction,ComponentPad*
%ADD18C,1.800000*%
G04 #@! TD*
G04 #@! TA.AperFunction,ComponentPad*
%ADD19O,1.600000X1.600000*%
G04 #@! TD*
G04 #@! TA.AperFunction,ViaPad*
%ADD20C,1.600000*%
G04 #@! TD*
G04 #@! TA.AperFunction,Conductor*
%ADD21C,0.500000*%
G04 #@! TD*
G04 #@! TA.AperFunction,Conductor*
%ADD22C,0.254000*%
G04 #@! TD*
G04 APERTURE END LIST*
D10*
G04 #@! TO.P,J5,1*
G04 #@! TO.N,Net-(J5-Pad1)*
X205210000Y-83810000D03*
D11*
G04 #@! TO.P,J5,2*
G04 #@! TO.N,+5V*
X202670000Y-83810000D03*
G04 #@! TO.P,J5,3*
G04 #@! TO.N,Earth*
X200130000Y-83810000D03*
G04 #@! TD*
D10*
G04 #@! TO.P,J7,1*
G04 #@! TO.N,Net-(J7-Pad1)*
X196820000Y-99050000D03*
D11*
G04 #@! TO.P,J7,2*
G04 #@! TO.N,+5V*
X194280000Y-99050000D03*
G04 #@! TO.P,J7,3*
G04 #@! TO.N,Earth*
X191740000Y-99050000D03*
G04 #@! TD*
D12*
G04 #@! TO.P,Y1,1*
G04 #@! TO.N,Net-(C4-Pad1)*
X179050000Y-79200000D03*
G04 #@! TO.P,Y1,2*
G04 #@! TO.N,Net-(C5-Pad1)*
X179050000Y-83000000D03*
G04 #@! TD*
D10*
G04 #@! TO.P,J6,1*
G04 #@! TO.N,Earth*
X183670000Y-106870000D03*
D11*
G04 #@! TO.P,J6,2*
G04 #@! TO.N,/Reg3v*
X181130000Y-106870000D03*
G04 #@! TO.P,J6,3*
G04 #@! TO.N,/CE*
X183670000Y-104330000D03*
G04 #@! TO.P,J6,4*
G04 #@! TO.N,/CSN*
X181130000Y-104330000D03*
G04 #@! TO.P,J6,5*
G04 #@! TO.N,/SCK*
X183670000Y-101790000D03*
G04 #@! TO.P,J6,6*
G04 #@! TO.N,/MOSI*
X181130000Y-101790000D03*
G04 #@! TO.P,J6,7*
G04 #@! TO.N,/MISO*
X183670000Y-99250000D03*
G04 #@! TO.P,J6,8*
G04 #@! TO.N,/IRQ*
X181130000Y-99250000D03*
G04 #@! TD*
D13*
G04 #@! TO.P,C2,2*
G04 #@! TO.N,Earth*
X194300000Y-112600000D03*
D14*
G04 #@! TO.P,C2,1*
G04 #@! TO.N,+5V*
X196800000Y-112600000D03*
G04 #@! TD*
D11*
G04 #@! TO.P,J2,5*
G04 #@! TO.N,+5V*
X203870000Y-109580000D03*
G04 #@! TO.P,J2,4*
G04 #@! TO.N,Net-(J2-Pad4)*
X203870000Y-107040000D03*
G04 #@! TO.P,J2,3*
G04 #@! TO.N,Earth*
X203870000Y-104500000D03*
G04 #@! TO.P,J2,2*
G04 #@! TO.N,/SCL*
X203870000Y-101960000D03*
D10*
G04 #@! TO.P,J2,1*
G04 #@! TO.N,/SDA*
X203870000Y-99420000D03*
G04 #@! TD*
D13*
G04 #@! TO.P,C1,1*
G04 #@! TO.N,+5V*
X196520000Y-82970000D03*
G04 #@! TO.P,C1,2*
G04 #@! TO.N,Earth*
X191520000Y-82970000D03*
G04 #@! TD*
D10*
G04 #@! TO.P,J3,1*
G04 #@! TO.N,Earth*
X203200000Y-77470000D03*
D11*
G04 #@! TO.P,J3,2*
G04 #@! TO.N,+5V*
X200660000Y-77470000D03*
G04 #@! TD*
D15*
G04 #@! TO.P,U2,2*
G04 #@! TO.N,Earth*
X188460000Y-112600000D03*
G04 #@! TO.P,U2,3*
G04 #@! TO.N,+5V*
X191000000Y-112600000D03*
D16*
G04 #@! TO.P,U2,1*
G04 #@! TO.N,/Reg3v*
X185920000Y-112600000D03*
G04 #@! TD*
D17*
G04 #@! TO.P,D1,1*
G04 #@! TO.N,Net-(D1-Pad1)*
X185420000Y-76200000D03*
D18*
G04 #@! TO.P,D1,2*
G04 #@! TO.N,Net-(D1-Pad2)*
X182880000Y-76200000D03*
G04 #@! TD*
D14*
G04 #@! TO.P,C3,1*
G04 #@! TO.N,/Reg3v*
X181000000Y-111800000D03*
D13*
G04 #@! TO.P,C3,2*
G04 #@! TO.N,Earth*
X181000000Y-114300000D03*
G04 #@! TD*
D14*
G04 #@! TO.P,U1,1*
G04 #@! TO.N,Net-(R1-Pad2)*
X206460000Y-87260000D03*
D19*
G04 #@! TO.P,U1,15*
G04 #@! TO.N,/CE*
X173440000Y-94880000D03*
G04 #@! TO.P,U1,2*
G04 #@! TO.N,Net-(J5-Pad1)*
X203920000Y-87260000D03*
G04 #@! TO.P,U1,16*
G04 #@! TO.N,/CSN*
X175980000Y-94880000D03*
G04 #@! TO.P,U1,3*
G04 #@! TO.N,Net-(U1-Pad3)*
X201380000Y-87260000D03*
G04 #@! TO.P,U1,17*
G04 #@! TO.N,/MOSI*
X178520000Y-94880000D03*
G04 #@! TO.P,U1,4*
G04 #@! TO.N,/IRQ*
X198840000Y-87260000D03*
G04 #@! TO.P,U1,18*
G04 #@! TO.N,/MISO*
X181060000Y-94880000D03*
G04 #@! TO.P,U1,5*
G04 #@! TO.N,Net-(U1-Pad5)*
X196300000Y-87260000D03*
G04 #@! TO.P,U1,19*
G04 #@! TO.N,/SCK*
X183600000Y-94880000D03*
G04 #@! TO.P,U1,6*
G04 #@! TO.N,Net-(U1-Pad6)*
X193760000Y-87260000D03*
G04 #@! TO.P,U1,20*
G04 #@! TO.N,Net-(U1-Pad20)*
X186140000Y-94880000D03*
G04 #@! TO.P,U1,7*
G04 #@! TO.N,+5V*
X191220000Y-87260000D03*
G04 #@! TO.P,U1,21*
G04 #@! TO.N,Net-(U1-Pad21)*
X188680000Y-94880000D03*
G04 #@! TO.P,U1,8*
G04 #@! TO.N,Earth*
X188680000Y-87260000D03*
G04 #@! TO.P,U1,22*
X191220000Y-94880000D03*
G04 #@! TO.P,U1,9*
G04 #@! TO.N,Net-(C5-Pad1)*
X186140000Y-87260000D03*
G04 #@! TO.P,U1,23*
G04 #@! TO.N,Net-(J7-Pad1)*
X193760000Y-94880000D03*
G04 #@! TO.P,U1,10*
G04 #@! TO.N,Net-(C4-Pad1)*
X183600000Y-87260000D03*
G04 #@! TO.P,U1,24*
G04 #@! TO.N,Net-(J8-Pad1)*
X196300000Y-94880000D03*
G04 #@! TO.P,U1,11*
G04 #@! TO.N,Net-(U1-Pad11)*
X181060000Y-87260000D03*
G04 #@! TO.P,U1,25*
G04 #@! TO.N,Net-(J9-Pad1)*
X198840000Y-94880000D03*
G04 #@! TO.P,U1,12*
G04 #@! TO.N,Net-(U1-Pad12)*
X178520000Y-87260000D03*
G04 #@! TO.P,U1,26*
G04 #@! TO.N,Net-(U1-Pad26)*
X201380000Y-94880000D03*
G04 #@! TO.P,U1,13*
G04 #@! TO.N,Net-(U1-Pad13)*
X175980000Y-87260000D03*
G04 #@! TO.P,U1,27*
G04 #@! TO.N,/SCL*
X203920000Y-94880000D03*
G04 #@! TO.P,U1,14*
G04 #@! TO.N,Net-(D1-Pad2)*
X173440000Y-87260000D03*
G04 #@! TO.P,U1,28*
G04 #@! TO.N,/SDA*
X206460000Y-94880000D03*
G04 #@! TD*
D11*
G04 #@! TO.P,J8,3*
G04 #@! TO.N,Earth*
X191750000Y-102270000D03*
G04 #@! TO.P,J8,2*
G04 #@! TO.N,+5V*
X194290000Y-102270000D03*
D10*
G04 #@! TO.P,J8,1*
G04 #@! TO.N,Net-(J8-Pad1)*
X196830000Y-102270000D03*
G04 #@! TD*
G04 #@! TO.P,J9,1*
G04 #@! TO.N,Net-(J9-Pad1)*
X196890000Y-105570000D03*
D11*
G04 #@! TO.P,J9,2*
G04 #@! TO.N,+5V*
X194350000Y-105570000D03*
G04 #@! TO.P,J9,3*
G04 #@! TO.N,Earth*
X191810000Y-105570000D03*
G04 #@! TD*
D13*
G04 #@! TO.P,C4,1*
G04 #@! TO.N,Net-(C4-Pad1)*
X182920000Y-80500000D03*
G04 #@! TO.P,C4,2*
G04 #@! TO.N,Earth*
X185420000Y-80500000D03*
G04 #@! TD*
G04 #@! TO.P,C5,2*
G04 #@! TO.N,Earth*
X188460000Y-79510000D03*
G04 #@! TO.P,C5,1*
G04 #@! TO.N,Net-(C5-Pad1)*
X188460000Y-82010000D03*
G04 #@! TD*
D19*
G04 #@! TO.P,R1,2*
G04 #@! TO.N,Net-(R1-Pad2)*
X210100000Y-91660000D03*
D13*
G04 #@! TO.P,R1,1*
G04 #@! TO.N,+5V*
X210100000Y-99280000D03*
G04 #@! TD*
G04 #@! TO.P,R2,1*
G04 #@! TO.N,Earth*
X196850000Y-76200000D03*
D19*
G04 #@! TO.P,R2,2*
G04 #@! TO.N,Net-(D1-Pad1)*
X189230000Y-76200000D03*
G04 #@! TD*
D20*
G04 #@! TO.N,/CE*
X187150000Y-97310000D03*
X173581673Y-97259989D03*
G04 #@! TO.N,/IRQ*
X173600000Y-99360000D03*
X178490021Y-99250000D03*
G04 #@! TD*
D21*
G04 #@! TO.N,+5V*
X196740000Y-112540000D02*
X196800000Y-112600000D01*
X195249999Y-114150001D02*
X192550001Y-114150001D01*
X196800000Y-112600000D02*
X195249999Y-114150001D01*
X192550001Y-114150001D02*
X191400000Y-113000000D01*
X191400000Y-113000000D02*
X191200000Y-113000000D01*
X191200000Y-113000000D02*
X191000000Y-112800000D01*
X191000000Y-112600000D02*
X192550001Y-114150001D01*
X195346117Y-114150001D02*
X196329999Y-113166119D01*
X192550001Y-114150001D02*
X195346117Y-114150001D01*
X200850000Y-112600000D02*
X196800000Y-112600000D01*
X203870000Y-109580000D02*
X200850000Y-112600000D01*
X194280000Y-102260000D02*
X194290000Y-102270000D01*
X194280000Y-99050000D02*
X194280000Y-102260000D01*
X194290000Y-105510000D02*
X194350000Y-105570000D01*
X194290000Y-102270000D02*
X194290000Y-105510000D01*
X201509999Y-78319999D02*
X201509999Y-78769999D01*
X200660000Y-77470000D02*
X201509999Y-78319999D01*
X201820001Y-84659999D02*
X202670000Y-83810000D01*
X192770001Y-85709999D02*
X200770001Y-85709999D01*
X200770001Y-85709999D02*
X201820001Y-84659999D01*
X191220000Y-87260000D02*
X192770001Y-85709999D01*
X203907919Y-81370000D02*
X203990000Y-81370000D01*
X202670000Y-82607919D02*
X203907919Y-81370000D01*
X202670000Y-83810000D02*
X202670000Y-82607919D01*
X200660000Y-77470000D02*
X196520000Y-81610000D01*
X196520000Y-81610000D02*
X196520000Y-82970000D01*
X203970000Y-81280000D02*
X203990000Y-81370000D01*
X201509999Y-78769999D02*
X203970000Y-81280000D01*
X211650001Y-97729999D02*
X210100000Y-99280000D01*
X211650001Y-90890001D02*
X211650001Y-97729999D01*
X208010001Y-85859999D02*
X208010001Y-87250001D01*
X207060000Y-84909998D02*
X208010001Y-85859999D01*
X205460000Y-81280000D02*
X207060000Y-82880000D01*
X208010001Y-87250001D02*
X211650001Y-90890001D01*
X207060000Y-82880000D02*
X207060000Y-84909998D01*
X203970000Y-81280000D02*
X205460000Y-81280000D01*
X196700000Y-112500000D02*
X196800000Y-112600000D01*
X196700000Y-109122081D02*
X196700000Y-112500000D01*
X194350000Y-106772081D02*
X196700000Y-109122081D01*
X194350000Y-105570000D02*
X194350000Y-106772081D01*
X210100000Y-99340000D02*
X210100000Y-99280000D01*
X207580000Y-105880000D02*
X207580000Y-101860000D01*
X207580000Y-101860000D02*
X210100000Y-99340000D01*
X204729000Y-108731000D02*
X207580000Y-105880000D01*
X204719999Y-108730001D02*
X204719999Y-108721999D01*
X203870000Y-109580000D02*
X204719999Y-108730001D01*
X204719999Y-108721999D02*
X204729000Y-108731000D01*
G04 #@! TO.N,Earth*
X188400000Y-112414228D02*
X188400000Y-112816258D01*
X186916258Y-114300000D02*
X182131370Y-114300000D01*
X188400000Y-112816258D02*
X186916258Y-114300000D01*
X182131370Y-114300000D02*
X181000000Y-114300000D01*
X188460000Y-112337919D02*
X188460000Y-112600000D01*
X203200000Y-76120000D02*
X203200000Y-77470000D01*
X202480001Y-75400001D02*
X203200000Y-76120000D01*
X197649999Y-75400001D02*
X202480001Y-75400001D01*
X196850000Y-76200000D02*
X197649999Y-75400001D01*
X188010000Y-79450000D02*
X187960000Y-79500000D01*
X186420000Y-79500000D02*
X185420000Y-80500000D01*
X187960000Y-79500000D02*
X186420000Y-79500000D01*
X188460000Y-111525198D02*
X188460000Y-112600000D01*
X188460000Y-110310000D02*
X188460000Y-111525198D01*
X185020000Y-106870000D02*
X188460000Y-110310000D01*
X183670000Y-106870000D02*
X185020000Y-106870000D01*
X188680000Y-87940000D02*
X188680000Y-87260000D01*
X187810000Y-88810000D02*
X188680000Y-87940000D01*
X173793273Y-88810001D02*
X187810000Y-88810000D01*
X175719833Y-109469835D02*
X167452639Y-95150635D01*
X181000000Y-114300000D02*
X180549998Y-114300000D01*
X180549998Y-114300000D02*
X175719833Y-109469835D01*
X167452639Y-95150635D02*
X173793273Y-88810001D01*
X188680000Y-85810000D02*
X191520000Y-82970000D01*
X188680000Y-87260000D02*
X188680000Y-85810000D01*
X199280001Y-84659999D02*
X200130000Y-83810000D01*
X193209999Y-84659999D02*
X199280001Y-84659999D01*
X191520000Y-82970000D02*
X193209999Y-84659999D01*
X196850000Y-77331370D02*
X196850000Y-76200000D01*
X196850000Y-78771370D02*
X196850000Y-77331370D01*
X192651370Y-82970000D02*
X196850000Y-78771370D01*
X191520000Y-82970000D02*
X192651370Y-82970000D01*
X190510000Y-106870000D02*
X191810000Y-105570000D01*
X183670000Y-106870000D02*
X190510000Y-106870000D01*
X192659999Y-106969459D02*
X194300000Y-108609460D01*
X192659999Y-106419999D02*
X192659999Y-106969459D01*
X194300000Y-111468630D02*
X194300000Y-112600000D01*
X194300000Y-108609460D02*
X194300000Y-111468630D01*
X191810000Y-105570000D02*
X192659999Y-106419999D01*
X188700000Y-78960000D02*
X188700000Y-79510000D01*
X191460000Y-76200000D02*
X188700000Y-78960000D01*
X196850000Y-76200000D02*
X191460000Y-76200000D01*
X193939989Y-92160011D02*
X192019999Y-94080001D01*
X207244001Y-92069999D02*
X195444230Y-92069999D01*
X195354218Y-92160011D02*
X193939989Y-92160011D01*
X203870000Y-104500000D02*
X206579989Y-101790011D01*
X195444230Y-92069999D02*
X195354218Y-92160011D01*
X208050001Y-92875999D02*
X207244001Y-92069999D01*
X208050001Y-99975771D02*
X208050001Y-92875999D01*
X206579989Y-101445782D02*
X208050001Y-99975771D01*
X192019999Y-94080001D02*
X191220000Y-94880000D01*
X206579989Y-101790011D02*
X206579989Y-101445782D01*
G04 #@! TO.N,Net-(D1-Pad1)*
X185420000Y-76200000D02*
X189230000Y-76200000D01*
G04 #@! TO.N,Net-(D1-Pad2)*
X173440000Y-86990000D02*
X173440000Y-87260000D01*
X176549989Y-83880011D02*
X173440000Y-86990000D01*
X176549989Y-79480009D02*
X176549989Y-83880011D01*
X179849998Y-76180000D02*
X176549989Y-79480009D01*
X182860000Y-76180000D02*
X179849998Y-76180000D01*
X182880000Y-76200000D02*
X182860000Y-76180000D01*
G04 #@! TO.N,/CE*
X183670000Y-104330000D02*
X187150000Y-100850000D01*
X187150000Y-100850000D02*
X187150000Y-97310000D01*
X173440000Y-97118316D02*
X173581673Y-97259989D01*
X173440000Y-94880000D02*
X173440000Y-97118316D01*
G04 #@! TO.N,/MOSI*
X176940011Y-96459989D02*
X176940011Y-100204015D01*
X178525996Y-101790000D02*
X179927919Y-101790000D01*
X178520000Y-94880000D02*
X176940011Y-96459989D01*
X176940011Y-100204015D02*
X178525996Y-101790000D01*
X179927919Y-101790000D02*
X181130000Y-101790000D01*
G04 #@! TO.N,/MISO*
X182820001Y-98400001D02*
X183670000Y-99250000D01*
X181100000Y-96680000D02*
X182820001Y-98400001D01*
X181100000Y-94920000D02*
X181100000Y-96680000D01*
X181060000Y-94880000D02*
X181100000Y-94920000D01*
G04 #@! TO.N,/SCK*
X184519999Y-100940001D02*
X183670000Y-101790000D01*
X185270001Y-100189999D02*
X184519999Y-100940001D01*
X185270001Y-96550001D02*
X185270001Y-100189999D01*
X183600000Y-94880000D02*
X185270001Y-96550001D01*
G04 #@! TO.N,/IRQ*
X181130000Y-99250000D02*
X178490021Y-99250000D01*
X172468630Y-99360000D02*
X173600000Y-99360000D01*
X173548630Y-91160000D02*
X171799998Y-92908632D01*
X198840000Y-87260000D02*
X194940000Y-91160000D01*
X194940000Y-91160000D02*
X173548630Y-91160000D01*
X171799998Y-92908632D02*
X171799998Y-98691368D01*
X171799998Y-98691368D02*
X172468630Y-99360000D01*
G04 #@! TO.N,/Reg3v*
X185920000Y-112600000D02*
X181400000Y-112600000D01*
X181400000Y-112600000D02*
X180800000Y-112000000D01*
X181130000Y-111670000D02*
X181000000Y-111800000D01*
X181130000Y-106870000D02*
X181130000Y-111670000D01*
G04 #@! TO.N,/SCL*
X203175999Y-95624001D02*
X203920000Y-94880000D01*
X202269999Y-96530001D02*
X203175999Y-95624001D01*
X202667919Y-101960000D02*
X202269999Y-101562080D01*
X202269999Y-101562080D02*
X202269999Y-96530001D01*
X203870000Y-101960000D02*
X202667919Y-101960000D01*
G04 #@! TO.N,/SDA*
X203870000Y-97470000D02*
X203870000Y-99420000D01*
X206460000Y-94880000D02*
X203870000Y-97470000D01*
G04 #@! TO.N,Net-(C4-Pad1)*
X178300001Y-79949999D02*
X179050000Y-79200000D01*
X177549999Y-83720001D02*
X177549999Y-80700001D01*
X179480008Y-85650010D02*
X177549999Y-83720001D01*
X181990010Y-85650010D02*
X179480008Y-85650010D01*
X177549999Y-80700001D02*
X178300001Y-79949999D01*
X183600000Y-87260000D02*
X181990010Y-85650010D01*
X181620000Y-79200000D02*
X182920000Y-80500000D01*
X179050000Y-79200000D02*
X181620000Y-79200000D01*
G04 #@! TO.N,Net-(C5-Pad1)*
X186140000Y-84570000D02*
X188700000Y-82010000D01*
X186140000Y-87260000D02*
X186140000Y-87060000D01*
X186070000Y-86990000D02*
X186070000Y-84650000D01*
X186140000Y-87060000D02*
X186070000Y-86990000D01*
X186070000Y-84650000D02*
X186140000Y-84570000D01*
X180630000Y-84650000D02*
X186070000Y-84650000D01*
X179050000Y-83070000D02*
X180630000Y-84650000D01*
X179050000Y-83000000D02*
X179050000Y-83070000D01*
G04 #@! TO.N,/CSN*
X175940000Y-100618233D02*
X179651767Y-104330000D01*
X175940000Y-94920000D02*
X175940000Y-100618233D01*
X179927919Y-104330000D02*
X181130000Y-104330000D01*
X175980000Y-94880000D02*
X175940000Y-94920000D01*
X179651767Y-104330000D02*
X179927919Y-104330000D01*
G04 #@! TO.N,Net-(J7-Pad1)*
X196820000Y-97940000D02*
X196820000Y-99050000D01*
X193760000Y-94880000D02*
X196820000Y-97940000D01*
G04 #@! TO.N,Net-(J8-Pad1)*
X198180000Y-102270000D02*
X196830000Y-102270000D01*
X198420001Y-102029999D02*
X198180000Y-102270000D01*
X198420001Y-97000001D02*
X198420001Y-102029999D01*
X196300000Y-94880000D02*
X198420001Y-97000001D01*
G04 #@! TO.N,Net-(J9-Pad1)*
X198240000Y-105570000D02*
X196890000Y-105570000D01*
X199420011Y-104389989D02*
X198240000Y-105570000D01*
X199420011Y-95460011D02*
X199420011Y-104389989D01*
X198840000Y-94880000D02*
X199420011Y-95460011D01*
G04 #@! TO.N,Net-(J5-Pad1)*
X203920000Y-85550000D02*
X203920000Y-87260000D01*
X205210000Y-84260000D02*
X203920000Y-85550000D01*
X205210000Y-83810000D02*
X205210000Y-84260000D01*
G04 #@! TO.N,Net-(R1-Pad2)*
X206460000Y-87260000D02*
X206460000Y-88560000D01*
X206460000Y-88560000D02*
X209560000Y-91660000D01*
X209560000Y-91660000D02*
X210100000Y-91660000D01*
G04 #@! TD*
D22*
G04 #@! TO.N,Earth*
G36*
X215680162Y-95150635D02*
G01*
X203590082Y-116091270D01*
X179409918Y-116091270D01*
X167319837Y-95150635D01*
X168614257Y-92908632D01*
X170910717Y-92908632D01*
X170914998Y-92952101D01*
X170914999Y-98647889D01*
X170910717Y-98691368D01*
X170927803Y-98864858D01*
X170978410Y-99031681D01*
X171060588Y-99185427D01*
X171143466Y-99286414D01*
X171143469Y-99286417D01*
X171171182Y-99320185D01*
X171204949Y-99347897D01*
X171812100Y-99955049D01*
X171839813Y-99988817D01*
X171873581Y-100016530D01*
X171873583Y-100016532D01*
X171915241Y-100050720D01*
X171974571Y-100099411D01*
X172128317Y-100181589D01*
X172295140Y-100232195D01*
X172425153Y-100245000D01*
X172425163Y-100245000D01*
X172468319Y-100249250D01*
X172485363Y-100274759D01*
X172685241Y-100474637D01*
X172920273Y-100631680D01*
X173181426Y-100739853D01*
X173458665Y-100795000D01*
X173741335Y-100795000D01*
X174018574Y-100739853D01*
X174279727Y-100631680D01*
X174514759Y-100474637D01*
X174714637Y-100274759D01*
X174871680Y-100039727D01*
X174979853Y-99778574D01*
X175035000Y-99501335D01*
X175035000Y-99218665D01*
X174979853Y-98941426D01*
X174871680Y-98680273D01*
X174714637Y-98445241D01*
X174570227Y-98300831D01*
X174696310Y-98174748D01*
X174853353Y-97939716D01*
X174961526Y-97678563D01*
X175016673Y-97401324D01*
X175016673Y-97118654D01*
X174961526Y-96841415D01*
X174853353Y-96580262D01*
X174696310Y-96345230D01*
X174496432Y-96145352D01*
X174325000Y-96030805D01*
X174325000Y-96014521D01*
X174354759Y-95994637D01*
X174554637Y-95794759D01*
X174710000Y-95562241D01*
X174865363Y-95794759D01*
X175055000Y-95984396D01*
X175055001Y-100574754D01*
X175050719Y-100618233D01*
X175067805Y-100791723D01*
X175118412Y-100958546D01*
X175200590Y-101112292D01*
X175283468Y-101213279D01*
X175283471Y-101213282D01*
X175311184Y-101247050D01*
X175344951Y-101274763D01*
X178995237Y-104925049D01*
X179022950Y-104958817D01*
X179056718Y-104986530D01*
X179056720Y-104986532D01*
X179092555Y-105015941D01*
X179157708Y-105069411D01*
X179311454Y-105151589D01*
X179478277Y-105202195D01*
X179608290Y-105215000D01*
X179608300Y-105215000D01*
X179651766Y-105219281D01*
X179695232Y-105215000D01*
X179935344Y-105215000D01*
X179976525Y-105276632D01*
X180183368Y-105483475D01*
X180357760Y-105600000D01*
X180183368Y-105716525D01*
X179976525Y-105923368D01*
X179814010Y-106166589D01*
X179702068Y-106436842D01*
X179645000Y-106723740D01*
X179645000Y-107016260D01*
X179702068Y-107303158D01*
X179814010Y-107573411D01*
X179976525Y-107816632D01*
X180183368Y-108023475D01*
X180245000Y-108064656D01*
X180245001Y-110361928D01*
X180200000Y-110361928D01*
X180075518Y-110374188D01*
X179955820Y-110410498D01*
X179845506Y-110469463D01*
X179748815Y-110548815D01*
X179669463Y-110645506D01*
X179610498Y-110755820D01*
X179574188Y-110875518D01*
X179561928Y-111000000D01*
X179561928Y-112600000D01*
X179574188Y-112724482D01*
X179610498Y-112844180D01*
X179669463Y-112954494D01*
X179748815Y-113051185D01*
X179845506Y-113130537D01*
X179955820Y-113189502D01*
X180075518Y-113225812D01*
X180200000Y-113238072D01*
X180782460Y-113238072D01*
X180804951Y-113256530D01*
X180804953Y-113256532D01*
X180850680Y-113294059D01*
X180905941Y-113339411D01*
X181059687Y-113421589D01*
X181226510Y-113472195D01*
X181356523Y-113485000D01*
X181356533Y-113485000D01*
X181399999Y-113489281D01*
X181443465Y-113485000D01*
X184534345Y-113485000D01*
X184570498Y-113604180D01*
X184629463Y-113714494D01*
X184708815Y-113811185D01*
X184805506Y-113890537D01*
X184915820Y-113949502D01*
X185035518Y-113985812D01*
X185160000Y-113998072D01*
X186680000Y-113998072D01*
X186804482Y-113985812D01*
X186924180Y-113949502D01*
X187034494Y-113890537D01*
X187131185Y-113811185D01*
X187210537Y-113714494D01*
X187269502Y-113604180D01*
X187305812Y-113484482D01*
X187318072Y-113360000D01*
X187318072Y-111840000D01*
X187305812Y-111715518D01*
X187269502Y-111595820D01*
X187210537Y-111485506D01*
X187131185Y-111388815D01*
X187034494Y-111309463D01*
X186924180Y-111250498D01*
X186804482Y-111214188D01*
X186680000Y-111201928D01*
X185160000Y-111201928D01*
X185035518Y-111214188D01*
X184915820Y-111250498D01*
X184805506Y-111309463D01*
X184708815Y-111388815D01*
X184629463Y-111485506D01*
X184570498Y-111595820D01*
X184534345Y-111715000D01*
X182438072Y-111715000D01*
X182438072Y-111000000D01*
X182425812Y-110875518D01*
X182389502Y-110755820D01*
X182330537Y-110645506D01*
X182251185Y-110548815D01*
X182154494Y-110469463D01*
X182044180Y-110410498D01*
X182015000Y-110401646D01*
X182015000Y-108064656D01*
X182076632Y-108023475D01*
X182283475Y-107816632D01*
X182445990Y-107573411D01*
X182557932Y-107303158D01*
X182615000Y-107016260D01*
X182615000Y-106723740D01*
X182557932Y-106436842D01*
X182445990Y-106166589D01*
X182283475Y-105923368D01*
X182076632Y-105716525D01*
X181902240Y-105600000D01*
X182076632Y-105483475D01*
X182283475Y-105276632D01*
X182400000Y-105102240D01*
X182516525Y-105276632D01*
X182723368Y-105483475D01*
X182966589Y-105645990D01*
X183236842Y-105757932D01*
X183523740Y-105815000D01*
X183816260Y-105815000D01*
X184103158Y-105757932D01*
X184373411Y-105645990D01*
X184616632Y-105483475D01*
X184823475Y-105276632D01*
X184985990Y-105033411D01*
X185097932Y-104763158D01*
X185155000Y-104476260D01*
X185155000Y-104183740D01*
X185140539Y-104111039D01*
X187745050Y-101506529D01*
X187778817Y-101478817D01*
X187815549Y-101434060D01*
X187865276Y-101373467D01*
X187889411Y-101344059D01*
X187971589Y-101190313D01*
X188022195Y-101023490D01*
X188035000Y-100893477D01*
X188035000Y-100893467D01*
X188039281Y-100850001D01*
X188035000Y-100806535D01*
X188035000Y-98444521D01*
X188064759Y-98424637D01*
X188264637Y-98224759D01*
X188421680Y-97989727D01*
X188529853Y-97728574D01*
X188585000Y-97451335D01*
X188585000Y-97168665D01*
X188529853Y-96891426D01*
X188421680Y-96630273D01*
X188264637Y-96395241D01*
X188064759Y-96195363D01*
X187829727Y-96038320D01*
X187568574Y-95930147D01*
X187291335Y-95875000D01*
X187174396Y-95875000D01*
X187254637Y-95794759D01*
X187410000Y-95562241D01*
X187565363Y-95794759D01*
X187765241Y-95994637D01*
X188000273Y-96151680D01*
X188261426Y-96259853D01*
X188538665Y-96315000D01*
X188821335Y-96315000D01*
X189098574Y-96259853D01*
X189359727Y-96151680D01*
X189594759Y-95994637D01*
X189794637Y-95794759D01*
X189951680Y-95559727D01*
X190059853Y-95298574D01*
X190115000Y-95021335D01*
X190115000Y-94738665D01*
X190059853Y-94461426D01*
X189951680Y-94200273D01*
X189794637Y-93965241D01*
X189594759Y-93765363D01*
X189359727Y-93608320D01*
X189098574Y-93500147D01*
X188821335Y-93445000D01*
X188538665Y-93445000D01*
X188261426Y-93500147D01*
X188000273Y-93608320D01*
X187765241Y-93765363D01*
X187565363Y-93965241D01*
X187410000Y-94197759D01*
X187254637Y-93965241D01*
X187054759Y-93765363D01*
X186819727Y-93608320D01*
X186558574Y-93500147D01*
X186281335Y-93445000D01*
X185998665Y-93445000D01*
X185721426Y-93500147D01*
X185460273Y-93608320D01*
X185225241Y-93765363D01*
X185025363Y-93965241D01*
X184870000Y-94197759D01*
X184714637Y-93965241D01*
X184514759Y-93765363D01*
X184279727Y-93608320D01*
X184018574Y-93500147D01*
X183741335Y-93445000D01*
X183458665Y-93445000D01*
X183181426Y-93500147D01*
X182920273Y-93608320D01*
X182685241Y-93765363D01*
X182485363Y-93965241D01*
X182330000Y-94197759D01*
X182174637Y-93965241D01*
X181974759Y-93765363D01*
X181739727Y-93608320D01*
X181478574Y-93500147D01*
X181201335Y-93445000D01*
X180918665Y-93445000D01*
X180641426Y-93500147D01*
X180380273Y-93608320D01*
X180145241Y-93765363D01*
X179945363Y-93965241D01*
X179790000Y-94197759D01*
X179634637Y-93965241D01*
X179434759Y-93765363D01*
X179199727Y-93608320D01*
X178938574Y-93500147D01*
X178661335Y-93445000D01*
X178378665Y-93445000D01*
X178101426Y-93500147D01*
X177840273Y-93608320D01*
X177605241Y-93765363D01*
X177405363Y-93965241D01*
X177250000Y-94197759D01*
X177094637Y-93965241D01*
X176894759Y-93765363D01*
X176659727Y-93608320D01*
X176398574Y-93500147D01*
X176121335Y-93445000D01*
X175838665Y-93445000D01*
X175561426Y-93500147D01*
X175300273Y-93608320D01*
X175065241Y-93765363D01*
X174865363Y-93965241D01*
X174710000Y-94197759D01*
X174554637Y-93965241D01*
X174354759Y-93765363D01*
X174119727Y-93608320D01*
X173858574Y-93500147D01*
X173581335Y-93445000D01*
X173298665Y-93445000D01*
X173021426Y-93500147D01*
X172760273Y-93608320D01*
X172684998Y-93658617D01*
X172684998Y-93275210D01*
X173915209Y-92045000D01*
X194896531Y-92045000D01*
X194940000Y-92049281D01*
X194983469Y-92045000D01*
X194983477Y-92045000D01*
X195113490Y-92032195D01*
X195280313Y-91981589D01*
X195434059Y-91899411D01*
X195568817Y-91788817D01*
X195596534Y-91755044D01*
X198663561Y-88688017D01*
X198698665Y-88695000D01*
X198981335Y-88695000D01*
X199258574Y-88639853D01*
X199519727Y-88531680D01*
X199754759Y-88374637D01*
X199954637Y-88174759D01*
X200110000Y-87942241D01*
X200265363Y-88174759D01*
X200465241Y-88374637D01*
X200700273Y-88531680D01*
X200961426Y-88639853D01*
X201238665Y-88695000D01*
X201521335Y-88695000D01*
X201798574Y-88639853D01*
X202059727Y-88531680D01*
X202294759Y-88374637D01*
X202494637Y-88174759D01*
X202650000Y-87942241D01*
X202805363Y-88174759D01*
X203005241Y-88374637D01*
X203240273Y-88531680D01*
X203501426Y-88639853D01*
X203778665Y-88695000D01*
X204061335Y-88695000D01*
X204338574Y-88639853D01*
X204599727Y-88531680D01*
X204834759Y-88374637D01*
X205033357Y-88176039D01*
X205034188Y-88184482D01*
X205070498Y-88304180D01*
X205129463Y-88414494D01*
X205208815Y-88511185D01*
X205305506Y-88590537D01*
X205415820Y-88649502D01*
X205535518Y-88685812D01*
X205583576Y-88690545D01*
X205587805Y-88733490D01*
X205638412Y-88900313D01*
X205720590Y-89054059D01*
X205803468Y-89155046D01*
X205803471Y-89155049D01*
X205831184Y-89188817D01*
X205864951Y-89216529D01*
X208718447Y-92070025D01*
X208720147Y-92078574D01*
X208828320Y-92339727D01*
X208985363Y-92574759D01*
X209185241Y-92774637D01*
X209420273Y-92931680D01*
X209681426Y-93039853D01*
X209958665Y-93095000D01*
X210241335Y-93095000D01*
X210518574Y-93039853D01*
X210765001Y-92937780D01*
X210765002Y-97363419D01*
X210276439Y-97851983D01*
X210241335Y-97845000D01*
X209958665Y-97845000D01*
X209681426Y-97900147D01*
X209420273Y-98008320D01*
X209185241Y-98165363D01*
X208985363Y-98365241D01*
X208828320Y-98600273D01*
X208720147Y-98861426D01*
X208665000Y-99138665D01*
X208665000Y-99421335D01*
X208681937Y-99506484D01*
X206984951Y-101203471D01*
X206951184Y-101231183D01*
X206923471Y-101264951D01*
X206923468Y-101264954D01*
X206840590Y-101365941D01*
X206758412Y-101519687D01*
X206707805Y-101686510D01*
X206690719Y-101860000D01*
X206695001Y-101903479D01*
X206695000Y-105513421D01*
X205348311Y-106860111D01*
X205297932Y-106606842D01*
X205185990Y-106336589D01*
X205023475Y-106093368D01*
X204816632Y-105886525D01*
X204573411Y-105724010D01*
X204303158Y-105612068D01*
X204016260Y-105555000D01*
X203723740Y-105555000D01*
X203436842Y-105612068D01*
X203166589Y-105724010D01*
X202923368Y-105886525D01*
X202716525Y-106093368D01*
X202554010Y-106336589D01*
X202442068Y-106606842D01*
X202385000Y-106893740D01*
X202385000Y-107186260D01*
X202442068Y-107473158D01*
X202554010Y-107743411D01*
X202716525Y-107986632D01*
X202923368Y-108193475D01*
X203097760Y-108310000D01*
X202923368Y-108426525D01*
X202716525Y-108633368D01*
X202554010Y-108876589D01*
X202442068Y-109146842D01*
X202385000Y-109433740D01*
X202385000Y-109726260D01*
X202399461Y-109798960D01*
X200483422Y-111715000D01*
X198229701Y-111715000D01*
X198225812Y-111675518D01*
X198189502Y-111555820D01*
X198130537Y-111445506D01*
X198051185Y-111348815D01*
X197954494Y-111269463D01*
X197844180Y-111210498D01*
X197724482Y-111174188D01*
X197600000Y-111161928D01*
X197585000Y-111161928D01*
X197585000Y-109165550D01*
X197589281Y-109122081D01*
X197585000Y-109078612D01*
X197585000Y-109078604D01*
X197572195Y-108948591D01*
X197521589Y-108781768D01*
X197439411Y-108628022D01*
X197328817Y-108493264D01*
X197295050Y-108465552D01*
X195857801Y-107028304D01*
X195915518Y-107045812D01*
X196040000Y-107058072D01*
X197740000Y-107058072D01*
X197864482Y-107045812D01*
X197984180Y-107009502D01*
X198094494Y-106950537D01*
X198191185Y-106871185D01*
X198270537Y-106774494D01*
X198329502Y-106664180D01*
X198365812Y-106544482D01*
X198375518Y-106445935D01*
X198413490Y-106442195D01*
X198580313Y-106391589D01*
X198734059Y-106309411D01*
X198868817Y-106198817D01*
X198896534Y-106165044D01*
X200015060Y-105046519D01*
X200048828Y-105018806D01*
X200159422Y-104884048D01*
X200187996Y-104830589D01*
X200241600Y-104730303D01*
X200292206Y-104563479D01*
X200300796Y-104476260D01*
X200305011Y-104433466D01*
X200305011Y-104433458D01*
X200309292Y-104389989D01*
X200305011Y-104346520D01*
X200305011Y-95834407D01*
X200465241Y-95994637D01*
X200700273Y-96151680D01*
X200961426Y-96259853D01*
X201238665Y-96315000D01*
X201410397Y-96315000D01*
X201397804Y-96356511D01*
X201380718Y-96530001D01*
X201385000Y-96573480D01*
X201384999Y-101518611D01*
X201380718Y-101562080D01*
X201384999Y-101605549D01*
X201384999Y-101605556D01*
X201397804Y-101735569D01*
X201448410Y-101902392D01*
X201530588Y-102056138D01*
X201641182Y-102190897D01*
X201674955Y-102218614D01*
X202011385Y-102555044D01*
X202039102Y-102588817D01*
X202173860Y-102699411D01*
X202327606Y-102781589D01*
X202494429Y-102832195D01*
X202624442Y-102845000D01*
X202624450Y-102845000D01*
X202667919Y-102849281D01*
X202677569Y-102848331D01*
X202716525Y-102906632D01*
X202923368Y-103113475D01*
X203166589Y-103275990D01*
X203436842Y-103387932D01*
X203723740Y-103445000D01*
X204016260Y-103445000D01*
X204303158Y-103387932D01*
X204573411Y-103275990D01*
X204816632Y-103113475D01*
X205023475Y-102906632D01*
X205185990Y-102663411D01*
X205297932Y-102393158D01*
X205355000Y-102106260D01*
X205355000Y-101813740D01*
X205297932Y-101526842D01*
X205185990Y-101256589D01*
X205023475Y-101013368D01*
X204891620Y-100881513D01*
X204964180Y-100859502D01*
X205074494Y-100800537D01*
X205171185Y-100721185D01*
X205250537Y-100624494D01*
X205309502Y-100514180D01*
X205345812Y-100394482D01*
X205358072Y-100270000D01*
X205358072Y-98570000D01*
X205345812Y-98445518D01*
X205309502Y-98325820D01*
X205250537Y-98215506D01*
X205171185Y-98118815D01*
X205074494Y-98039463D01*
X204964180Y-97980498D01*
X204844482Y-97944188D01*
X204755000Y-97935375D01*
X204755000Y-97836578D01*
X206283561Y-96308017D01*
X206318665Y-96315000D01*
X206601335Y-96315000D01*
X206878574Y-96259853D01*
X207139727Y-96151680D01*
X207374759Y-95994637D01*
X207574637Y-95794759D01*
X207731680Y-95559727D01*
X207839853Y-95298574D01*
X207895000Y-95021335D01*
X207895000Y-94738665D01*
X207839853Y-94461426D01*
X207731680Y-94200273D01*
X207574637Y-93965241D01*
X207374759Y-93765363D01*
X207139727Y-93608320D01*
X206878574Y-93500147D01*
X206601335Y-93445000D01*
X206318665Y-93445000D01*
X206041426Y-93500147D01*
X205780273Y-93608320D01*
X205545241Y-93765363D01*
X205345363Y-93965241D01*
X205190000Y-94197759D01*
X205034637Y-93965241D01*
X204834759Y-93765363D01*
X204599727Y-93608320D01*
X204338574Y-93500147D01*
X204061335Y-93445000D01*
X203778665Y-93445000D01*
X203501426Y-93500147D01*
X203240273Y-93608320D01*
X203005241Y-93765363D01*
X202805363Y-93965241D01*
X202650000Y-94197759D01*
X202494637Y-93965241D01*
X202294759Y-93765363D01*
X202059727Y-93608320D01*
X201798574Y-93500147D01*
X201521335Y-93445000D01*
X201238665Y-93445000D01*
X200961426Y-93500147D01*
X200700273Y-93608320D01*
X200465241Y-93765363D01*
X200265363Y-93965241D01*
X200110000Y-94197759D01*
X199954637Y-93965241D01*
X199754759Y-93765363D01*
X199519727Y-93608320D01*
X199258574Y-93500147D01*
X198981335Y-93445000D01*
X198698665Y-93445000D01*
X198421426Y-93500147D01*
X198160273Y-93608320D01*
X197925241Y-93765363D01*
X197725363Y-93965241D01*
X197570000Y-94197759D01*
X197414637Y-93965241D01*
X197214759Y-93765363D01*
X196979727Y-93608320D01*
X196718574Y-93500147D01*
X196441335Y-93445000D01*
X196158665Y-93445000D01*
X195881426Y-93500147D01*
X195620273Y-93608320D01*
X195385241Y-93765363D01*
X195185363Y-93965241D01*
X195030000Y-94197759D01*
X194874637Y-93965241D01*
X194674759Y-93765363D01*
X194439727Y-93608320D01*
X194178574Y-93500147D01*
X193901335Y-93445000D01*
X193618665Y-93445000D01*
X193341426Y-93500147D01*
X193080273Y-93608320D01*
X192845241Y-93765363D01*
X192645363Y-93965241D01*
X192488320Y-94200273D01*
X192380147Y-94461426D01*
X192325000Y-94738665D01*
X192325000Y-95021335D01*
X192380147Y-95298574D01*
X192488320Y-95559727D01*
X192645363Y-95794759D01*
X192845241Y-95994637D01*
X193080273Y-96151680D01*
X193341426Y-96259853D01*
X193618665Y-96315000D01*
X193901335Y-96315000D01*
X193936439Y-96308017D01*
X195454998Y-97826577D01*
X195439463Y-97845506D01*
X195380498Y-97955820D01*
X195358487Y-98028380D01*
X195226632Y-97896525D01*
X194983411Y-97734010D01*
X194713158Y-97622068D01*
X194426260Y-97565000D01*
X194133740Y-97565000D01*
X193846842Y-97622068D01*
X193576589Y-97734010D01*
X193333368Y-97896525D01*
X193126525Y-98103368D01*
X192964010Y-98346589D01*
X192852068Y-98616842D01*
X192795000Y-98903740D01*
X192795000Y-99196260D01*
X192852068Y-99483158D01*
X192964010Y-99753411D01*
X193126525Y-99996632D01*
X193333368Y-100203475D01*
X193395000Y-100244656D01*
X193395001Y-101082025D01*
X193343368Y-101116525D01*
X193136525Y-101323368D01*
X192974010Y-101566589D01*
X192862068Y-101836842D01*
X192805000Y-102123740D01*
X192805000Y-102416260D01*
X192862068Y-102703158D01*
X192974010Y-102973411D01*
X193136525Y-103216632D01*
X193343368Y-103423475D01*
X193405000Y-103464656D01*
X193405001Y-104415434D01*
X193403368Y-104416525D01*
X193196525Y-104623368D01*
X193034010Y-104866589D01*
X192922068Y-105136842D01*
X192865000Y-105423740D01*
X192865000Y-105716260D01*
X192922068Y-106003158D01*
X193034010Y-106273411D01*
X193196525Y-106516632D01*
X193403368Y-106723475D01*
X193461669Y-106762431D01*
X193460719Y-106772081D01*
X193477805Y-106945571D01*
X193528412Y-107112394D01*
X193610590Y-107266140D01*
X193693468Y-107367127D01*
X193693471Y-107367130D01*
X193721184Y-107400898D01*
X193754951Y-107428610D01*
X195815000Y-109488660D01*
X195815001Y-111192546D01*
X195755820Y-111210498D01*
X195645506Y-111269463D01*
X195548815Y-111348815D01*
X195469463Y-111445506D01*
X195410498Y-111555820D01*
X195374188Y-111675518D01*
X195361928Y-111800000D01*
X195361928Y-112786494D01*
X194883421Y-113265001D01*
X192916580Y-113265001D01*
X192606073Y-112954494D01*
X192394000Y-112742422D01*
X192395000Y-112737396D01*
X192395000Y-112462604D01*
X192341391Y-112193093D01*
X192236233Y-111939220D01*
X192083567Y-111710739D01*
X191889261Y-111516433D01*
X191781597Y-111444494D01*
X191793836Y-111444494D01*
X192223604Y-111359008D01*
X192628436Y-111191321D01*
X192992775Y-110947877D01*
X193302620Y-110638032D01*
X193546064Y-110273693D01*
X193713751Y-109868861D01*
X193799237Y-109439093D01*
X193799237Y-109000907D01*
X193713751Y-108571139D01*
X193546064Y-108166307D01*
X193302620Y-107801968D01*
X192992775Y-107492123D01*
X192628436Y-107248679D01*
X192223604Y-107080992D01*
X191793836Y-106995506D01*
X191355650Y-106995506D01*
X190925882Y-107080992D01*
X190521050Y-107248679D01*
X190156711Y-107492123D01*
X189846866Y-107801968D01*
X189603422Y-108166307D01*
X189435735Y-108571139D01*
X189350249Y-109000907D01*
X189350249Y-109439093D01*
X189435735Y-109868861D01*
X189603422Y-110273693D01*
X189846866Y-110638032D01*
X190156711Y-110947877D01*
X190521050Y-111191321D01*
X190654168Y-111246460D01*
X190593093Y-111258609D01*
X190339220Y-111363767D01*
X190110739Y-111516433D01*
X189916433Y-111710739D01*
X189763767Y-111939220D01*
X189658609Y-112193093D01*
X189605000Y-112462604D01*
X189605000Y-112737396D01*
X189658609Y-113006907D01*
X189763767Y-113260780D01*
X189916433Y-113489261D01*
X190110739Y-113683567D01*
X190339220Y-113836233D01*
X190593093Y-113941391D01*
X190862604Y-113995000D01*
X191137396Y-113995000D01*
X191142422Y-113994000D01*
X191471911Y-114323490D01*
X191893471Y-114745050D01*
X191921184Y-114778818D01*
X191954952Y-114806531D01*
X191954954Y-114806533D01*
X192026453Y-114865211D01*
X192055942Y-114889412D01*
X192209688Y-114971590D01*
X192376511Y-115022196D01*
X192506524Y-115035001D01*
X192506534Y-115035001D01*
X192550000Y-115039282D01*
X192593467Y-115035001D01*
X195206530Y-115035001D01*
X195249999Y-115039282D01*
X195293468Y-115035001D01*
X195302648Y-115035001D01*
X195346117Y-115039282D01*
X195389586Y-115035001D01*
X195389594Y-115035001D01*
X195519607Y-115022196D01*
X195686430Y-114971590D01*
X195840176Y-114889412D01*
X195974934Y-114778818D01*
X196002651Y-114745045D01*
X196709625Y-114038072D01*
X197600000Y-114038072D01*
X197724482Y-114025812D01*
X197844180Y-113989502D01*
X197954494Y-113930537D01*
X198051185Y-113851185D01*
X198130537Y-113754494D01*
X198189502Y-113644180D01*
X198225812Y-113524482D01*
X198229701Y-113485000D01*
X200806531Y-113485000D01*
X200850000Y-113489281D01*
X200893469Y-113485000D01*
X200893477Y-113485000D01*
X201023490Y-113472195D01*
X201190313Y-113421589D01*
X201344059Y-113339411D01*
X201478817Y-113228817D01*
X201506534Y-113195044D01*
X203651040Y-111050539D01*
X203723740Y-111065000D01*
X204016260Y-111065000D01*
X204303158Y-111007932D01*
X204573411Y-110895990D01*
X204816632Y-110733475D01*
X205023475Y-110526632D01*
X205185990Y-110283411D01*
X205297932Y-110013158D01*
X205355000Y-109726260D01*
X205355000Y-109433740D01*
X205342755Y-109372178D01*
X205357817Y-109359817D01*
X205385532Y-109326047D01*
X208175050Y-106536529D01*
X208208817Y-106508817D01*
X208319411Y-106374059D01*
X208401589Y-106220313D01*
X208452195Y-106053490D01*
X208465000Y-105923477D01*
X208465000Y-105923469D01*
X208469281Y-105880000D01*
X208465000Y-105836531D01*
X208465000Y-102226578D01*
X209976579Y-100715000D01*
X210241335Y-100715000D01*
X210518574Y-100659853D01*
X210779727Y-100551680D01*
X211014759Y-100394637D01*
X211214637Y-100194759D01*
X211371680Y-99959727D01*
X211479853Y-99698574D01*
X211535000Y-99421335D01*
X211535000Y-99138665D01*
X211528017Y-99103561D01*
X212245050Y-98386529D01*
X212278818Y-98358816D01*
X212318398Y-98310589D01*
X212371927Y-98245363D01*
X212389412Y-98224058D01*
X212471590Y-98070312D01*
X212522196Y-97903489D01*
X212535001Y-97773476D01*
X212535001Y-97773466D01*
X212539282Y-97730000D01*
X212535001Y-97686534D01*
X212535001Y-90933466D01*
X212539282Y-90890000D01*
X212535001Y-90846534D01*
X212535001Y-90846524D01*
X212522196Y-90716511D01*
X212471590Y-90549688D01*
X212389412Y-90395942D01*
X212278818Y-90261184D01*
X212245051Y-90233472D01*
X208895001Y-86883423D01*
X208895001Y-85903464D01*
X208899282Y-85859998D01*
X208895001Y-85816532D01*
X208895001Y-85816522D01*
X208882196Y-85686509D01*
X208831590Y-85519686D01*
X208749412Y-85365940D01*
X208703254Y-85309697D01*
X208666533Y-85264952D01*
X208666531Y-85264950D01*
X208638818Y-85231182D01*
X208605051Y-85203470D01*
X207945000Y-84543420D01*
X207945000Y-82923469D01*
X207949281Y-82880000D01*
X207945000Y-82836531D01*
X207945000Y-82836523D01*
X207932195Y-82706510D01*
X207881589Y-82539687D01*
X207799411Y-82385941D01*
X207786737Y-82370498D01*
X207716532Y-82284953D01*
X207716530Y-82284951D01*
X207688817Y-82251183D01*
X207655050Y-82223471D01*
X206116534Y-80684956D01*
X206088817Y-80651183D01*
X205954059Y-80540589D01*
X205800313Y-80458411D01*
X205633490Y-80407805D01*
X205503477Y-80395000D01*
X205503469Y-80395000D01*
X205460000Y-80390719D01*
X205416531Y-80395000D01*
X204341805Y-80395000D01*
X202394999Y-78408625D01*
X202394999Y-78363464D01*
X202399280Y-78319998D01*
X202394999Y-78276532D01*
X202394999Y-78276522D01*
X202382194Y-78146509D01*
X202331588Y-77979686D01*
X202249410Y-77825940D01*
X202174777Y-77735000D01*
X202166531Y-77724952D01*
X202166529Y-77724950D01*
X202138816Y-77691182D01*
X202131321Y-77685031D01*
X202145000Y-77616260D01*
X202145000Y-77323740D01*
X202087932Y-77036842D01*
X201975990Y-76766589D01*
X201813475Y-76523368D01*
X201606632Y-76316525D01*
X201363411Y-76154010D01*
X201093158Y-76042068D01*
X200806260Y-75985000D01*
X200513740Y-75985000D01*
X200226842Y-76042068D01*
X199956589Y-76154010D01*
X199713368Y-76316525D01*
X199506525Y-76523368D01*
X199344010Y-76766589D01*
X199232068Y-77036842D01*
X199175000Y-77323740D01*
X199175000Y-77616260D01*
X199189461Y-77688960D01*
X195924956Y-80953466D01*
X195891183Y-80981183D01*
X195780589Y-81115942D01*
X195698411Y-81269688D01*
X195667981Y-81370000D01*
X195654404Y-81414759D01*
X195647805Y-81436511D01*
X195635000Y-81566524D01*
X195635000Y-81566531D01*
X195630719Y-81610000D01*
X195635000Y-81653470D01*
X195635000Y-81835479D01*
X195605241Y-81855363D01*
X195405363Y-82055241D01*
X195248320Y-82290273D01*
X195140147Y-82551426D01*
X195085000Y-82828665D01*
X195085000Y-83111335D01*
X195140147Y-83388574D01*
X195248320Y-83649727D01*
X195405363Y-83884759D01*
X195605241Y-84084637D01*
X195840273Y-84241680D01*
X196101426Y-84349853D01*
X196378665Y-84405000D01*
X196661335Y-84405000D01*
X196938574Y-84349853D01*
X197199727Y-84241680D01*
X197434759Y-84084637D01*
X197634637Y-83884759D01*
X197791680Y-83649727D01*
X197899853Y-83388574D01*
X197955000Y-83111335D01*
X197955000Y-82828665D01*
X197899853Y-82551426D01*
X197791680Y-82290273D01*
X197634637Y-82055241D01*
X197480487Y-81901091D01*
X200441040Y-78940539D01*
X200513740Y-78955000D01*
X200641296Y-78955000D01*
X200661830Y-79022692D01*
X200685029Y-79102030D01*
X200687105Y-79106009D01*
X200688410Y-79110312D01*
X200727437Y-79183328D01*
X200765656Y-79256594D01*
X200768468Y-79260091D01*
X200770588Y-79264058D01*
X200823075Y-79328012D01*
X200847514Y-79358410D01*
X200850638Y-79361598D01*
X200881183Y-79398816D01*
X200911501Y-79423697D01*
X202738504Y-81287836D01*
X202074951Y-81951390D01*
X202041184Y-81979102D01*
X202013471Y-82012870D01*
X202013468Y-82012873D01*
X201930590Y-82113860D01*
X201848412Y-82267606D01*
X201797805Y-82434429D01*
X201780719Y-82607919D01*
X201781669Y-82617569D01*
X201723368Y-82656525D01*
X201516525Y-82863368D01*
X201354010Y-83106589D01*
X201242068Y-83376842D01*
X201185000Y-83663740D01*
X201185000Y-83956260D01*
X201199461Y-84028960D01*
X200403423Y-84824999D01*
X192813466Y-84824999D01*
X192770000Y-84820718D01*
X192726534Y-84824999D01*
X192726524Y-84824999D01*
X192596511Y-84837804D01*
X192429688Y-84888410D01*
X192275942Y-84970588D01*
X192275940Y-84970589D01*
X192275941Y-84970589D01*
X192174954Y-85053467D01*
X192174952Y-85053469D01*
X192141184Y-85081182D01*
X192113471Y-85114950D01*
X191396439Y-85831983D01*
X191361335Y-85825000D01*
X191078665Y-85825000D01*
X190801426Y-85880147D01*
X190540273Y-85988320D01*
X190305241Y-86145363D01*
X190105363Y-86345241D01*
X189948320Y-86580273D01*
X189840147Y-86841426D01*
X189785000Y-87118665D01*
X189785000Y-87401335D01*
X189840147Y-87678574D01*
X189948320Y-87939727D01*
X190105363Y-88174759D01*
X190305241Y-88374637D01*
X190540273Y-88531680D01*
X190801426Y-88639853D01*
X191078665Y-88695000D01*
X191361335Y-88695000D01*
X191638574Y-88639853D01*
X191899727Y-88531680D01*
X192134759Y-88374637D01*
X192334637Y-88174759D01*
X192490000Y-87942241D01*
X192645363Y-88174759D01*
X192845241Y-88374637D01*
X193080273Y-88531680D01*
X193341426Y-88639853D01*
X193618665Y-88695000D01*
X193901335Y-88695000D01*
X194178574Y-88639853D01*
X194439727Y-88531680D01*
X194674759Y-88374637D01*
X194874637Y-88174759D01*
X195030000Y-87942241D01*
X195185363Y-88174759D01*
X195385241Y-88374637D01*
X195620273Y-88531680D01*
X195881426Y-88639853D01*
X196154291Y-88694130D01*
X194573422Y-90275000D01*
X173592095Y-90275000D01*
X173548629Y-90270719D01*
X173505163Y-90275000D01*
X173505153Y-90275000D01*
X173375140Y-90287805D01*
X173208317Y-90338411D01*
X173054571Y-90420589D01*
X173054569Y-90420590D01*
X173054570Y-90420590D01*
X172953583Y-90503468D01*
X172953581Y-90503470D01*
X172919813Y-90531183D01*
X172892100Y-90564951D01*
X171204954Y-92252098D01*
X171171181Y-92279815D01*
X171060587Y-92414574D01*
X170978409Y-92568320D01*
X170927803Y-92735143D01*
X170914998Y-92865156D01*
X170914998Y-92865163D01*
X170910717Y-92908632D01*
X168614257Y-92908632D01*
X172030179Y-86992083D01*
X172005000Y-87118665D01*
X172005000Y-87401335D01*
X172060147Y-87678574D01*
X172168320Y-87939727D01*
X172325363Y-88174759D01*
X172525241Y-88374637D01*
X172760273Y-88531680D01*
X173021426Y-88639853D01*
X173298665Y-88695000D01*
X173581335Y-88695000D01*
X173858574Y-88639853D01*
X174119727Y-88531680D01*
X174354759Y-88374637D01*
X174554637Y-88174759D01*
X174710000Y-87942241D01*
X174865363Y-88174759D01*
X175065241Y-88374637D01*
X175300273Y-88531680D01*
X175561426Y-88639853D01*
X175838665Y-88695000D01*
X176121335Y-88695000D01*
X176398574Y-88639853D01*
X176659727Y-88531680D01*
X176894759Y-88374637D01*
X177094637Y-88174759D01*
X177250000Y-87942241D01*
X177405363Y-88174759D01*
X177605241Y-88374637D01*
X177840273Y-88531680D01*
X178101426Y-88639853D01*
X178378665Y-88695000D01*
X178661335Y-88695000D01*
X178938574Y-88639853D01*
X179199727Y-88531680D01*
X179434759Y-88374637D01*
X179634637Y-88174759D01*
X179790000Y-87942241D01*
X179945363Y-88174759D01*
X180145241Y-88374637D01*
X180380273Y-88531680D01*
X180641426Y-88639853D01*
X180918665Y-88695000D01*
X181201335Y-88695000D01*
X181478574Y-88639853D01*
X181739727Y-88531680D01*
X181974759Y-88374637D01*
X182174637Y-88174759D01*
X182330000Y-87942241D01*
X182485363Y-88174759D01*
X182685241Y-88374637D01*
X182920273Y-88531680D01*
X183181426Y-88639853D01*
X183458665Y-88695000D01*
X183741335Y-88695000D01*
X184018574Y-88639853D01*
X184279727Y-88531680D01*
X184514759Y-88374637D01*
X184714637Y-88174759D01*
X184870000Y-87942241D01*
X185025363Y-88174759D01*
X185225241Y-88374637D01*
X185460273Y-88531680D01*
X185721426Y-88639853D01*
X185998665Y-88695000D01*
X186281335Y-88695000D01*
X186558574Y-88639853D01*
X186819727Y-88531680D01*
X187054759Y-88374637D01*
X187254637Y-88174759D01*
X187411680Y-87939727D01*
X187519853Y-87678574D01*
X187575000Y-87401335D01*
X187575000Y-87118665D01*
X187519853Y-86841426D01*
X187411680Y-86580273D01*
X187254637Y-86345241D01*
X187054759Y-86145363D01*
X186955000Y-86078706D01*
X186955000Y-85006578D01*
X188516579Y-83445000D01*
X188601335Y-83445000D01*
X188878574Y-83389853D01*
X189139727Y-83281680D01*
X189374759Y-83124637D01*
X189574637Y-82924759D01*
X189731680Y-82689727D01*
X189839853Y-82428574D01*
X189895000Y-82151335D01*
X189895000Y-81868665D01*
X189839853Y-81591426D01*
X189731680Y-81330273D01*
X189574637Y-81095241D01*
X189374759Y-80895363D01*
X189139727Y-80738320D01*
X188878574Y-80630147D01*
X188601335Y-80575000D01*
X188318665Y-80575000D01*
X188041426Y-80630147D01*
X187780273Y-80738320D01*
X187545241Y-80895363D01*
X187345363Y-81095241D01*
X187188320Y-81330273D01*
X187080147Y-81591426D01*
X187025000Y-81868665D01*
X187025000Y-82151335D01*
X187071802Y-82386620D01*
X185693422Y-83765000D01*
X180996579Y-83765000D01*
X180423882Y-83192304D01*
X180435000Y-83136411D01*
X180435000Y-82863589D01*
X180381775Y-82596011D01*
X180277371Y-82343957D01*
X180125799Y-82117114D01*
X179932886Y-81924201D01*
X179706043Y-81772629D01*
X179453989Y-81668225D01*
X179186411Y-81615000D01*
X178913589Y-81615000D01*
X178646011Y-81668225D01*
X178434999Y-81755629D01*
X178434999Y-81066579D01*
X178916579Y-80585000D01*
X179186411Y-80585000D01*
X179453989Y-80531775D01*
X179706043Y-80427371D01*
X179932886Y-80275799D01*
X180123685Y-80085000D01*
X181253422Y-80085000D01*
X181491983Y-80323561D01*
X181485000Y-80358665D01*
X181485000Y-80641335D01*
X181540147Y-80918574D01*
X181648320Y-81179727D01*
X181805363Y-81414759D01*
X182005241Y-81614637D01*
X182240273Y-81771680D01*
X182501426Y-81879853D01*
X182778665Y-81935000D01*
X183061335Y-81935000D01*
X183338574Y-81879853D01*
X183599727Y-81771680D01*
X183834759Y-81614637D01*
X184034637Y-81414759D01*
X184191680Y-81179727D01*
X184299853Y-80918574D01*
X184355000Y-80641335D01*
X184355000Y-80358665D01*
X184299853Y-80081426D01*
X184191680Y-79820273D01*
X184034637Y-79585241D01*
X183841238Y-79391842D01*
X189440273Y-79391842D01*
X189440273Y-79829090D01*
X189525576Y-80257936D01*
X189692904Y-80661901D01*
X189935826Y-81025459D01*
X190245007Y-81334640D01*
X190608565Y-81577562D01*
X191012530Y-81744890D01*
X191441376Y-81830193D01*
X191878624Y-81830193D01*
X192307470Y-81744890D01*
X192711435Y-81577562D01*
X193074993Y-81334640D01*
X193384174Y-81025459D01*
X193627096Y-80661901D01*
X193794424Y-80257936D01*
X193879727Y-79829090D01*
X193879727Y-79391842D01*
X193794424Y-78962996D01*
X193627096Y-78559031D01*
X193384174Y-78195473D01*
X193074993Y-77886292D01*
X192711435Y-77643370D01*
X192307470Y-77476042D01*
X191878624Y-77390739D01*
X191441376Y-77390739D01*
X191012530Y-77476042D01*
X190608565Y-77643370D01*
X190245007Y-77886292D01*
X189935826Y-78195473D01*
X189692904Y-78559031D01*
X189525576Y-78962996D01*
X189440273Y-79391842D01*
X183841238Y-79391842D01*
X183834759Y-79385363D01*
X183599727Y-79228320D01*
X183338574Y-79120147D01*
X183061335Y-79065000D01*
X182778665Y-79065000D01*
X182743561Y-79071983D01*
X182276534Y-78604956D01*
X182248817Y-78571183D01*
X182114059Y-78460589D01*
X181960313Y-78378411D01*
X181793490Y-78327805D01*
X181663477Y-78315000D01*
X181663469Y-78315000D01*
X181620000Y-78310719D01*
X181576531Y-78315000D01*
X180123685Y-78315000D01*
X179932886Y-78124201D01*
X179706043Y-77972629D01*
X179453989Y-77868225D01*
X179420094Y-77861483D01*
X180216577Y-77065000D01*
X181611846Y-77065000D01*
X181687688Y-77178505D01*
X181901495Y-77392312D01*
X182152905Y-77560299D01*
X182432257Y-77676011D01*
X182728816Y-77735000D01*
X183031184Y-77735000D01*
X183327743Y-77676011D01*
X183607095Y-77560299D01*
X183858505Y-77392312D01*
X183924944Y-77325873D01*
X183930498Y-77344180D01*
X183989463Y-77454494D01*
X184068815Y-77551185D01*
X184165506Y-77630537D01*
X184275820Y-77689502D01*
X184395518Y-77725812D01*
X184520000Y-77738072D01*
X186320000Y-77738072D01*
X186444482Y-77725812D01*
X186564180Y-77689502D01*
X186674494Y-77630537D01*
X186771185Y-77551185D01*
X186850537Y-77454494D01*
X186909502Y-77344180D01*
X186945812Y-77224482D01*
X186958072Y-77100000D01*
X186958072Y-77085000D01*
X188095479Y-77085000D01*
X188115363Y-77114759D01*
X188315241Y-77314637D01*
X188550273Y-77471680D01*
X188811426Y-77579853D01*
X189088665Y-77635000D01*
X189371335Y-77635000D01*
X189648574Y-77579853D01*
X189909727Y-77471680D01*
X190144759Y-77314637D01*
X190344637Y-77114759D01*
X190501680Y-76879727D01*
X190609853Y-76618574D01*
X190665000Y-76341335D01*
X190665000Y-76058665D01*
X190609853Y-75781426D01*
X190501680Y-75520273D01*
X190344637Y-75285241D01*
X190144759Y-75085363D01*
X189909727Y-74928320D01*
X189648574Y-74820147D01*
X189371335Y-74765000D01*
X189088665Y-74765000D01*
X188811426Y-74820147D01*
X188550273Y-74928320D01*
X188315241Y-75085363D01*
X188115363Y-75285241D01*
X188095479Y-75315000D01*
X186958072Y-75315000D01*
X186958072Y-75300000D01*
X186945812Y-75175518D01*
X186909502Y-75055820D01*
X186850537Y-74945506D01*
X186771185Y-74848815D01*
X186674494Y-74769463D01*
X186564180Y-74710498D01*
X186444482Y-74674188D01*
X186320000Y-74661928D01*
X184520000Y-74661928D01*
X184395518Y-74674188D01*
X184275820Y-74710498D01*
X184165506Y-74769463D01*
X184068815Y-74848815D01*
X183989463Y-74945506D01*
X183930498Y-75055820D01*
X183924944Y-75074127D01*
X183858505Y-75007688D01*
X183607095Y-74839701D01*
X183327743Y-74723989D01*
X183031184Y-74665000D01*
X182728816Y-74665000D01*
X182432257Y-74723989D01*
X182152905Y-74839701D01*
X181901495Y-75007688D01*
X181687688Y-75221495D01*
X181638573Y-75295000D01*
X179893463Y-75295000D01*
X179849997Y-75290719D01*
X179806531Y-75295000D01*
X179806521Y-75295000D01*
X179676508Y-75307805D01*
X179509685Y-75358411D01*
X179355939Y-75440589D01*
X179355937Y-75440590D01*
X179355938Y-75440590D01*
X179254951Y-75523468D01*
X179254949Y-75523470D01*
X179221181Y-75551183D01*
X179193468Y-75584951D01*
X177827376Y-76951043D01*
X179409918Y-74210000D01*
X203590082Y-74210000D01*
X215680162Y-95150635D01*
G37*
X215680162Y-95150635D02*
X203590082Y-116091270D01*
X179409918Y-116091270D01*
X167319837Y-95150635D01*
X168614257Y-92908632D01*
X170910717Y-92908632D01*
X170914998Y-92952101D01*
X170914999Y-98647889D01*
X170910717Y-98691368D01*
X170927803Y-98864858D01*
X170978410Y-99031681D01*
X171060588Y-99185427D01*
X171143466Y-99286414D01*
X171143469Y-99286417D01*
X171171182Y-99320185D01*
X171204949Y-99347897D01*
X171812100Y-99955049D01*
X171839813Y-99988817D01*
X171873581Y-100016530D01*
X171873583Y-100016532D01*
X171915241Y-100050720D01*
X171974571Y-100099411D01*
X172128317Y-100181589D01*
X172295140Y-100232195D01*
X172425153Y-100245000D01*
X172425163Y-100245000D01*
X172468319Y-100249250D01*
X172485363Y-100274759D01*
X172685241Y-100474637D01*
X172920273Y-100631680D01*
X173181426Y-100739853D01*
X173458665Y-100795000D01*
X173741335Y-100795000D01*
X174018574Y-100739853D01*
X174279727Y-100631680D01*
X174514759Y-100474637D01*
X174714637Y-100274759D01*
X174871680Y-100039727D01*
X174979853Y-99778574D01*
X175035000Y-99501335D01*
X175035000Y-99218665D01*
X174979853Y-98941426D01*
X174871680Y-98680273D01*
X174714637Y-98445241D01*
X174570227Y-98300831D01*
X174696310Y-98174748D01*
X174853353Y-97939716D01*
X174961526Y-97678563D01*
X175016673Y-97401324D01*
X175016673Y-97118654D01*
X174961526Y-96841415D01*
X174853353Y-96580262D01*
X174696310Y-96345230D01*
X174496432Y-96145352D01*
X174325000Y-96030805D01*
X174325000Y-96014521D01*
X174354759Y-95994637D01*
X174554637Y-95794759D01*
X174710000Y-95562241D01*
X174865363Y-95794759D01*
X175055000Y-95984396D01*
X175055001Y-100574754D01*
X175050719Y-100618233D01*
X175067805Y-100791723D01*
X175118412Y-100958546D01*
X175200590Y-101112292D01*
X175283468Y-101213279D01*
X175283471Y-101213282D01*
X175311184Y-101247050D01*
X175344951Y-101274763D01*
X178995237Y-104925049D01*
X179022950Y-104958817D01*
X179056718Y-104986530D01*
X179056720Y-104986532D01*
X179092555Y-105015941D01*
X179157708Y-105069411D01*
X179311454Y-105151589D01*
X179478277Y-105202195D01*
X179608290Y-105215000D01*
X179608300Y-105215000D01*
X179651766Y-105219281D01*
X179695232Y-105215000D01*
X179935344Y-105215000D01*
X179976525Y-105276632D01*
X180183368Y-105483475D01*
X180357760Y-105600000D01*
X180183368Y-105716525D01*
X179976525Y-105923368D01*
X179814010Y-106166589D01*
X179702068Y-106436842D01*
X179645000Y-106723740D01*
X179645000Y-107016260D01*
X179702068Y-107303158D01*
X179814010Y-107573411D01*
X179976525Y-107816632D01*
X180183368Y-108023475D01*
X180245000Y-108064656D01*
X180245001Y-110361928D01*
X180200000Y-110361928D01*
X180075518Y-110374188D01*
X179955820Y-110410498D01*
X179845506Y-110469463D01*
X179748815Y-110548815D01*
X179669463Y-110645506D01*
X179610498Y-110755820D01*
X179574188Y-110875518D01*
X179561928Y-111000000D01*
X179561928Y-112600000D01*
X179574188Y-112724482D01*
X179610498Y-112844180D01*
X179669463Y-112954494D01*
X179748815Y-113051185D01*
X179845506Y-113130537D01*
X179955820Y-113189502D01*
X180075518Y-113225812D01*
X180200000Y-113238072D01*
X180782460Y-113238072D01*
X180804951Y-113256530D01*
X180804953Y-113256532D01*
X180850680Y-113294059D01*
X180905941Y-113339411D01*
X181059687Y-113421589D01*
X181226510Y-113472195D01*
X181356523Y-113485000D01*
X181356533Y-113485000D01*
X181399999Y-113489281D01*
X181443465Y-113485000D01*
X184534345Y-113485000D01*
X184570498Y-113604180D01*
X184629463Y-113714494D01*
X184708815Y-113811185D01*
X184805506Y-113890537D01*
X184915820Y-113949502D01*
X185035518Y-113985812D01*
X185160000Y-113998072D01*
X186680000Y-113998072D01*
X186804482Y-113985812D01*
X186924180Y-113949502D01*
X187034494Y-113890537D01*
X187131185Y-113811185D01*
X187210537Y-113714494D01*
X187269502Y-113604180D01*
X187305812Y-113484482D01*
X187318072Y-113360000D01*
X187318072Y-111840000D01*
X187305812Y-111715518D01*
X187269502Y-111595820D01*
X187210537Y-111485506D01*
X187131185Y-111388815D01*
X187034494Y-111309463D01*
X186924180Y-111250498D01*
X186804482Y-111214188D01*
X186680000Y-111201928D01*
X185160000Y-111201928D01*
X185035518Y-111214188D01*
X184915820Y-111250498D01*
X184805506Y-111309463D01*
X184708815Y-111388815D01*
X184629463Y-111485506D01*
X184570498Y-111595820D01*
X184534345Y-111715000D01*
X182438072Y-111715000D01*
X182438072Y-111000000D01*
X182425812Y-110875518D01*
X182389502Y-110755820D01*
X182330537Y-110645506D01*
X182251185Y-110548815D01*
X182154494Y-110469463D01*
X182044180Y-110410498D01*
X182015000Y-110401646D01*
X182015000Y-108064656D01*
X182076632Y-108023475D01*
X182283475Y-107816632D01*
X182445990Y-107573411D01*
X182557932Y-107303158D01*
X182615000Y-107016260D01*
X182615000Y-106723740D01*
X182557932Y-106436842D01*
X182445990Y-106166589D01*
X182283475Y-105923368D01*
X182076632Y-105716525D01*
X181902240Y-105600000D01*
X182076632Y-105483475D01*
X182283475Y-105276632D01*
X182400000Y-105102240D01*
X182516525Y-105276632D01*
X182723368Y-105483475D01*
X182966589Y-105645990D01*
X183236842Y-105757932D01*
X183523740Y-105815000D01*
X183816260Y-105815000D01*
X184103158Y-105757932D01*
X184373411Y-105645990D01*
X184616632Y-105483475D01*
X184823475Y-105276632D01*
X184985990Y-105033411D01*
X185097932Y-104763158D01*
X185155000Y-104476260D01*
X185155000Y-104183740D01*
X185140539Y-104111039D01*
X187745050Y-101506529D01*
X187778817Y-101478817D01*
X187815549Y-101434060D01*
X187865276Y-101373467D01*
X187889411Y-101344059D01*
X187971589Y-101190313D01*
X188022195Y-101023490D01*
X188035000Y-100893477D01*
X188035000Y-100893467D01*
X188039281Y-100850001D01*
X188035000Y-100806535D01*
X188035000Y-98444521D01*
X188064759Y-98424637D01*
X188264637Y-98224759D01*
X188421680Y-97989727D01*
X188529853Y-97728574D01*
X188585000Y-97451335D01*
X188585000Y-97168665D01*
X188529853Y-96891426D01*
X188421680Y-96630273D01*
X188264637Y-96395241D01*
X188064759Y-96195363D01*
X187829727Y-96038320D01*
X187568574Y-95930147D01*
X187291335Y-95875000D01*
X187174396Y-95875000D01*
X187254637Y-95794759D01*
X187410000Y-95562241D01*
X187565363Y-95794759D01*
X187765241Y-95994637D01*
X188000273Y-96151680D01*
X188261426Y-96259853D01*
X188538665Y-96315000D01*
X188821335Y-96315000D01*
X189098574Y-96259853D01*
X189359727Y-96151680D01*
X189594759Y-95994637D01*
X189794637Y-95794759D01*
X189951680Y-95559727D01*
X190059853Y-95298574D01*
X190115000Y-95021335D01*
X190115000Y-94738665D01*
X190059853Y-94461426D01*
X189951680Y-94200273D01*
X189794637Y-93965241D01*
X189594759Y-93765363D01*
X189359727Y-93608320D01*
X189098574Y-93500147D01*
X188821335Y-93445000D01*
X188538665Y-93445000D01*
X188261426Y-93500147D01*
X188000273Y-93608320D01*
X187765241Y-93765363D01*
X187565363Y-93965241D01*
X187410000Y-94197759D01*
X187254637Y-93965241D01*
X187054759Y-93765363D01*
X186819727Y-93608320D01*
X186558574Y-93500147D01*
X186281335Y-93445000D01*
X185998665Y-93445000D01*
X185721426Y-93500147D01*
X185460273Y-93608320D01*
X185225241Y-93765363D01*
X185025363Y-93965241D01*
X184870000Y-94197759D01*
X184714637Y-93965241D01*
X184514759Y-93765363D01*
X184279727Y-93608320D01*
X184018574Y-93500147D01*
X183741335Y-93445000D01*
X183458665Y-93445000D01*
X183181426Y-93500147D01*
X182920273Y-93608320D01*
X182685241Y-93765363D01*
X182485363Y-93965241D01*
X182330000Y-94197759D01*
X182174637Y-93965241D01*
X181974759Y-93765363D01*
X181739727Y-93608320D01*
X181478574Y-93500147D01*
X181201335Y-93445000D01*
X180918665Y-93445000D01*
X180641426Y-93500147D01*
X180380273Y-93608320D01*
X180145241Y-93765363D01*
X179945363Y-93965241D01*
X179790000Y-94197759D01*
X179634637Y-93965241D01*
X179434759Y-93765363D01*
X179199727Y-93608320D01*
X178938574Y-93500147D01*
X178661335Y-93445000D01*
X178378665Y-93445000D01*
X178101426Y-93500147D01*
X177840273Y-93608320D01*
X177605241Y-93765363D01*
X177405363Y-93965241D01*
X177250000Y-94197759D01*
X177094637Y-93965241D01*
X176894759Y-93765363D01*
X176659727Y-93608320D01*
X176398574Y-93500147D01*
X176121335Y-93445000D01*
X175838665Y-93445000D01*
X175561426Y-93500147D01*
X175300273Y-93608320D01*
X175065241Y-93765363D01*
X174865363Y-93965241D01*
X174710000Y-94197759D01*
X174554637Y-93965241D01*
X174354759Y-93765363D01*
X174119727Y-93608320D01*
X173858574Y-93500147D01*
X173581335Y-93445000D01*
X173298665Y-93445000D01*
X173021426Y-93500147D01*
X172760273Y-93608320D01*
X172684998Y-93658617D01*
X172684998Y-93275210D01*
X173915209Y-92045000D01*
X194896531Y-92045000D01*
X194940000Y-92049281D01*
X194983469Y-92045000D01*
X194983477Y-92045000D01*
X195113490Y-92032195D01*
X195280313Y-91981589D01*
X195434059Y-91899411D01*
X195568817Y-91788817D01*
X195596534Y-91755044D01*
X198663561Y-88688017D01*
X198698665Y-88695000D01*
X198981335Y-88695000D01*
X199258574Y-88639853D01*
X199519727Y-88531680D01*
X199754759Y-88374637D01*
X199954637Y-88174759D01*
X200110000Y-87942241D01*
X200265363Y-88174759D01*
X200465241Y-88374637D01*
X200700273Y-88531680D01*
X200961426Y-88639853D01*
X201238665Y-88695000D01*
X201521335Y-88695000D01*
X201798574Y-88639853D01*
X202059727Y-88531680D01*
X202294759Y-88374637D01*
X202494637Y-88174759D01*
X202650000Y-87942241D01*
X202805363Y-88174759D01*
X203005241Y-88374637D01*
X203240273Y-88531680D01*
X203501426Y-88639853D01*
X203778665Y-88695000D01*
X204061335Y-88695000D01*
X204338574Y-88639853D01*
X204599727Y-88531680D01*
X204834759Y-88374637D01*
X205033357Y-88176039D01*
X205034188Y-88184482D01*
X205070498Y-88304180D01*
X205129463Y-88414494D01*
X205208815Y-88511185D01*
X205305506Y-88590537D01*
X205415820Y-88649502D01*
X205535518Y-88685812D01*
X205583576Y-88690545D01*
X205587805Y-88733490D01*
X205638412Y-88900313D01*
X205720590Y-89054059D01*
X205803468Y-89155046D01*
X205803471Y-89155049D01*
X205831184Y-89188817D01*
X205864951Y-89216529D01*
X208718447Y-92070025D01*
X208720147Y-92078574D01*
X208828320Y-92339727D01*
X208985363Y-92574759D01*
X209185241Y-92774637D01*
X209420273Y-92931680D01*
X209681426Y-93039853D01*
X209958665Y-93095000D01*
X210241335Y-93095000D01*
X210518574Y-93039853D01*
X210765001Y-92937780D01*
X210765002Y-97363419D01*
X210276439Y-97851983D01*
X210241335Y-97845000D01*
X209958665Y-97845000D01*
X209681426Y-97900147D01*
X209420273Y-98008320D01*
X209185241Y-98165363D01*
X208985363Y-98365241D01*
X208828320Y-98600273D01*
X208720147Y-98861426D01*
X208665000Y-99138665D01*
X208665000Y-99421335D01*
X208681937Y-99506484D01*
X206984951Y-101203471D01*
X206951184Y-101231183D01*
X206923471Y-101264951D01*
X206923468Y-101264954D01*
X206840590Y-101365941D01*
X206758412Y-101519687D01*
X206707805Y-101686510D01*
X206690719Y-101860000D01*
X206695001Y-101903479D01*
X206695000Y-105513421D01*
X205348311Y-106860111D01*
X205297932Y-106606842D01*
X205185990Y-106336589D01*
X205023475Y-106093368D01*
X204816632Y-105886525D01*
X204573411Y-105724010D01*
X204303158Y-105612068D01*
X204016260Y-105555000D01*
X203723740Y-105555000D01*
X203436842Y-105612068D01*
X203166589Y-105724010D01*
X202923368Y-105886525D01*
X202716525Y-106093368D01*
X202554010Y-106336589D01*
X202442068Y-106606842D01*
X202385000Y-106893740D01*
X202385000Y-107186260D01*
X202442068Y-107473158D01*
X202554010Y-107743411D01*
X202716525Y-107986632D01*
X202923368Y-108193475D01*
X203097760Y-108310000D01*
X202923368Y-108426525D01*
X202716525Y-108633368D01*
X202554010Y-108876589D01*
X202442068Y-109146842D01*
X202385000Y-109433740D01*
X202385000Y-109726260D01*
X202399461Y-109798960D01*
X200483422Y-111715000D01*
X198229701Y-111715000D01*
X198225812Y-111675518D01*
X198189502Y-111555820D01*
X198130537Y-111445506D01*
X198051185Y-111348815D01*
X197954494Y-111269463D01*
X197844180Y-111210498D01*
X197724482Y-111174188D01*
X197600000Y-111161928D01*
X197585000Y-111161928D01*
X197585000Y-109165550D01*
X197589281Y-109122081D01*
X197585000Y-109078612D01*
X197585000Y-109078604D01*
X197572195Y-108948591D01*
X197521589Y-108781768D01*
X197439411Y-108628022D01*
X197328817Y-108493264D01*
X197295050Y-108465552D01*
X195857801Y-107028304D01*
X195915518Y-107045812D01*
X196040000Y-107058072D01*
X197740000Y-107058072D01*
X197864482Y-107045812D01*
X197984180Y-107009502D01*
X198094494Y-106950537D01*
X198191185Y-106871185D01*
X198270537Y-106774494D01*
X198329502Y-106664180D01*
X198365812Y-106544482D01*
X198375518Y-106445935D01*
X198413490Y-106442195D01*
X198580313Y-106391589D01*
X198734059Y-106309411D01*
X198868817Y-106198817D01*
X198896534Y-106165044D01*
X200015060Y-105046519D01*
X200048828Y-105018806D01*
X200159422Y-104884048D01*
X200187996Y-104830589D01*
X200241600Y-104730303D01*
X200292206Y-104563479D01*
X200300796Y-104476260D01*
X200305011Y-104433466D01*
X200305011Y-104433458D01*
X200309292Y-104389989D01*
X200305011Y-104346520D01*
X200305011Y-95834407D01*
X200465241Y-95994637D01*
X200700273Y-96151680D01*
X200961426Y-96259853D01*
X201238665Y-96315000D01*
X201410397Y-96315000D01*
X201397804Y-96356511D01*
X201380718Y-96530001D01*
X201385000Y-96573480D01*
X201384999Y-101518611D01*
X201380718Y-101562080D01*
X201384999Y-101605549D01*
X201384999Y-101605556D01*
X201397804Y-101735569D01*
X201448410Y-101902392D01*
X201530588Y-102056138D01*
X201641182Y-102190897D01*
X201674955Y-102218614D01*
X202011385Y-102555044D01*
X202039102Y-102588817D01*
X202173860Y-102699411D01*
X202327606Y-102781589D01*
X202494429Y-102832195D01*
X202624442Y-102845000D01*
X202624450Y-102845000D01*
X202667919Y-102849281D01*
X202677569Y-102848331D01*
X202716525Y-102906632D01*
X202923368Y-103113475D01*
X203166589Y-103275990D01*
X203436842Y-103387932D01*
X203723740Y-103445000D01*
X204016260Y-103445000D01*
X204303158Y-103387932D01*
X204573411Y-103275990D01*
X204816632Y-103113475D01*
X205023475Y-102906632D01*
X205185990Y-102663411D01*
X205297932Y-102393158D01*
X205355000Y-102106260D01*
X205355000Y-101813740D01*
X205297932Y-101526842D01*
X205185990Y-101256589D01*
X205023475Y-101013368D01*
X204891620Y-100881513D01*
X204964180Y-100859502D01*
X205074494Y-100800537D01*
X205171185Y-100721185D01*
X205250537Y-100624494D01*
X205309502Y-100514180D01*
X205345812Y-100394482D01*
X205358072Y-100270000D01*
X205358072Y-98570000D01*
X205345812Y-98445518D01*
X205309502Y-98325820D01*
X205250537Y-98215506D01*
X205171185Y-98118815D01*
X205074494Y-98039463D01*
X204964180Y-97980498D01*
X204844482Y-97944188D01*
X204755000Y-97935375D01*
X204755000Y-97836578D01*
X206283561Y-96308017D01*
X206318665Y-96315000D01*
X206601335Y-96315000D01*
X206878574Y-96259853D01*
X207139727Y-96151680D01*
X207374759Y-95994637D01*
X207574637Y-95794759D01*
X207731680Y-95559727D01*
X207839853Y-95298574D01*
X207895000Y-95021335D01*
X207895000Y-94738665D01*
X207839853Y-94461426D01*
X207731680Y-94200273D01*
X207574637Y-93965241D01*
X207374759Y-93765363D01*
X207139727Y-93608320D01*
X206878574Y-93500147D01*
X206601335Y-93445000D01*
X206318665Y-93445000D01*
X206041426Y-93500147D01*
X205780273Y-93608320D01*
X205545241Y-93765363D01*
X205345363Y-93965241D01*
X205190000Y-94197759D01*
X205034637Y-93965241D01*
X204834759Y-93765363D01*
X204599727Y-93608320D01*
X204338574Y-93500147D01*
X204061335Y-93445000D01*
X203778665Y-93445000D01*
X203501426Y-93500147D01*
X203240273Y-93608320D01*
X203005241Y-93765363D01*
X202805363Y-93965241D01*
X202650000Y-94197759D01*
X202494637Y-93965241D01*
X202294759Y-93765363D01*
X202059727Y-93608320D01*
X201798574Y-93500147D01*
X201521335Y-93445000D01*
X201238665Y-93445000D01*
X200961426Y-93500147D01*
X200700273Y-93608320D01*
X200465241Y-93765363D01*
X200265363Y-93965241D01*
X200110000Y-94197759D01*
X199954637Y-93965241D01*
X199754759Y-93765363D01*
X199519727Y-93608320D01*
X199258574Y-93500147D01*
X198981335Y-93445000D01*
X198698665Y-93445000D01*
X198421426Y-93500147D01*
X198160273Y-93608320D01*
X197925241Y-93765363D01*
X197725363Y-93965241D01*
X197570000Y-94197759D01*
X197414637Y-93965241D01*
X197214759Y-93765363D01*
X196979727Y-93608320D01*
X196718574Y-93500147D01*
X196441335Y-93445000D01*
X196158665Y-93445000D01*
X195881426Y-93500147D01*
X195620273Y-93608320D01*
X195385241Y-93765363D01*
X195185363Y-93965241D01*
X195030000Y-94197759D01*
X194874637Y-93965241D01*
X194674759Y-93765363D01*
X194439727Y-93608320D01*
X194178574Y-93500147D01*
X193901335Y-93445000D01*
X193618665Y-93445000D01*
X193341426Y-93500147D01*
X193080273Y-93608320D01*
X192845241Y-93765363D01*
X192645363Y-93965241D01*
X192488320Y-94200273D01*
X192380147Y-94461426D01*
X192325000Y-94738665D01*
X192325000Y-95021335D01*
X192380147Y-95298574D01*
X192488320Y-95559727D01*
X192645363Y-95794759D01*
X192845241Y-95994637D01*
X193080273Y-96151680D01*
X193341426Y-96259853D01*
X193618665Y-96315000D01*
X193901335Y-96315000D01*
X193936439Y-96308017D01*
X195454998Y-97826577D01*
X195439463Y-97845506D01*
X195380498Y-97955820D01*
X195358487Y-98028380D01*
X195226632Y-97896525D01*
X194983411Y-97734010D01*
X194713158Y-97622068D01*
X194426260Y-97565000D01*
X194133740Y-97565000D01*
X193846842Y-97622068D01*
X193576589Y-97734010D01*
X193333368Y-97896525D01*
X193126525Y-98103368D01*
X192964010Y-98346589D01*
X192852068Y-98616842D01*
X192795000Y-98903740D01*
X192795000Y-99196260D01*
X192852068Y-99483158D01*
X192964010Y-99753411D01*
X193126525Y-99996632D01*
X193333368Y-100203475D01*
X193395000Y-100244656D01*
X193395001Y-101082025D01*
X193343368Y-101116525D01*
X193136525Y-101323368D01*
X192974010Y-101566589D01*
X192862068Y-101836842D01*
X192805000Y-102123740D01*
X192805000Y-102416260D01*
X192862068Y-102703158D01*
X192974010Y-102973411D01*
X193136525Y-103216632D01*
X193343368Y-103423475D01*
X193405000Y-103464656D01*
X193405001Y-104415434D01*
X193403368Y-104416525D01*
X193196525Y-104623368D01*
X193034010Y-104866589D01*
X192922068Y-105136842D01*
X192865000Y-105423740D01*
X192865000Y-105716260D01*
X192922068Y-106003158D01*
X193034010Y-106273411D01*
X193196525Y-106516632D01*
X193403368Y-106723475D01*
X193461669Y-106762431D01*
X193460719Y-106772081D01*
X193477805Y-106945571D01*
X193528412Y-107112394D01*
X193610590Y-107266140D01*
X193693468Y-107367127D01*
X193693471Y-107367130D01*
X193721184Y-107400898D01*
X193754951Y-107428610D01*
X195815000Y-109488660D01*
X195815001Y-111192546D01*
X195755820Y-111210498D01*
X195645506Y-111269463D01*
X195548815Y-111348815D01*
X195469463Y-111445506D01*
X195410498Y-111555820D01*
X195374188Y-111675518D01*
X195361928Y-111800000D01*
X195361928Y-112786494D01*
X194883421Y-113265001D01*
X192916580Y-113265001D01*
X192606073Y-112954494D01*
X192394000Y-112742422D01*
X192395000Y-112737396D01*
X192395000Y-112462604D01*
X192341391Y-112193093D01*
X192236233Y-111939220D01*
X192083567Y-111710739D01*
X191889261Y-111516433D01*
X191781597Y-111444494D01*
X191793836Y-111444494D01*
X192223604Y-111359008D01*
X192628436Y-111191321D01*
X192992775Y-110947877D01*
X193302620Y-110638032D01*
X193546064Y-110273693D01*
X193713751Y-109868861D01*
X193799237Y-109439093D01*
X193799237Y-109000907D01*
X193713751Y-108571139D01*
X193546064Y-108166307D01*
X193302620Y-107801968D01*
X192992775Y-107492123D01*
X192628436Y-107248679D01*
X192223604Y-107080992D01*
X191793836Y-106995506D01*
X191355650Y-106995506D01*
X190925882Y-107080992D01*
X190521050Y-107248679D01*
X190156711Y-107492123D01*
X189846866Y-107801968D01*
X189603422Y-108166307D01*
X189435735Y-108571139D01*
X189350249Y-109000907D01*
X189350249Y-109439093D01*
X189435735Y-109868861D01*
X189603422Y-110273693D01*
X189846866Y-110638032D01*
X190156711Y-110947877D01*
X190521050Y-111191321D01*
X190654168Y-111246460D01*
X190593093Y-111258609D01*
X190339220Y-111363767D01*
X190110739Y-111516433D01*
X189916433Y-111710739D01*
X189763767Y-111939220D01*
X189658609Y-112193093D01*
X189605000Y-112462604D01*
X189605000Y-112737396D01*
X189658609Y-113006907D01*
X189763767Y-113260780D01*
X189916433Y-113489261D01*
X190110739Y-113683567D01*
X190339220Y-113836233D01*
X190593093Y-113941391D01*
X190862604Y-113995000D01*
X191137396Y-113995000D01*
X191142422Y-113994000D01*
X191471911Y-114323490D01*
X191893471Y-114745050D01*
X191921184Y-114778818D01*
X191954952Y-114806531D01*
X191954954Y-114806533D01*
X192026453Y-114865211D01*
X192055942Y-114889412D01*
X192209688Y-114971590D01*
X192376511Y-115022196D01*
X192506524Y-115035001D01*
X192506534Y-115035001D01*
X192550000Y-115039282D01*
X192593467Y-115035001D01*
X195206530Y-115035001D01*
X195249999Y-115039282D01*
X195293468Y-115035001D01*
X195302648Y-115035001D01*
X195346117Y-115039282D01*
X195389586Y-115035001D01*
X195389594Y-115035001D01*
X195519607Y-115022196D01*
X195686430Y-114971590D01*
X195840176Y-114889412D01*
X195974934Y-114778818D01*
X196002651Y-114745045D01*
X196709625Y-114038072D01*
X197600000Y-114038072D01*
X197724482Y-114025812D01*
X197844180Y-113989502D01*
X197954494Y-113930537D01*
X198051185Y-113851185D01*
X198130537Y-113754494D01*
X198189502Y-113644180D01*
X198225812Y-113524482D01*
X198229701Y-113485000D01*
X200806531Y-113485000D01*
X200850000Y-113489281D01*
X200893469Y-113485000D01*
X200893477Y-113485000D01*
X201023490Y-113472195D01*
X201190313Y-113421589D01*
X201344059Y-113339411D01*
X201478817Y-113228817D01*
X201506534Y-113195044D01*
X203651040Y-111050539D01*
X203723740Y-111065000D01*
X204016260Y-111065000D01*
X204303158Y-111007932D01*
X204573411Y-110895990D01*
X204816632Y-110733475D01*
X205023475Y-110526632D01*
X205185990Y-110283411D01*
X205297932Y-110013158D01*
X205355000Y-109726260D01*
X205355000Y-109433740D01*
X205342755Y-109372178D01*
X205357817Y-109359817D01*
X205385532Y-109326047D01*
X208175050Y-106536529D01*
X208208817Y-106508817D01*
X208319411Y-106374059D01*
X208401589Y-106220313D01*
X208452195Y-106053490D01*
X208465000Y-105923477D01*
X208465000Y-105923469D01*
X208469281Y-105880000D01*
X208465000Y-105836531D01*
X208465000Y-102226578D01*
X209976579Y-100715000D01*
X210241335Y-100715000D01*
X210518574Y-100659853D01*
X210779727Y-100551680D01*
X211014759Y-100394637D01*
X211214637Y-100194759D01*
X211371680Y-99959727D01*
X211479853Y-99698574D01*
X211535000Y-99421335D01*
X211535000Y-99138665D01*
X211528017Y-99103561D01*
X212245050Y-98386529D01*
X212278818Y-98358816D01*
X212318398Y-98310589D01*
X212371927Y-98245363D01*
X212389412Y-98224058D01*
X212471590Y-98070312D01*
X212522196Y-97903489D01*
X212535001Y-97773476D01*
X212535001Y-97773466D01*
X212539282Y-97730000D01*
X212535001Y-97686534D01*
X212535001Y-90933466D01*
X212539282Y-90890000D01*
X212535001Y-90846534D01*
X212535001Y-90846524D01*
X212522196Y-90716511D01*
X212471590Y-90549688D01*
X212389412Y-90395942D01*
X212278818Y-90261184D01*
X212245051Y-90233472D01*
X208895001Y-86883423D01*
X208895001Y-85903464D01*
X208899282Y-85859998D01*
X208895001Y-85816532D01*
X208895001Y-85816522D01*
X208882196Y-85686509D01*
X208831590Y-85519686D01*
X208749412Y-85365940D01*
X208703254Y-85309697D01*
X208666533Y-85264952D01*
X208666531Y-85264950D01*
X208638818Y-85231182D01*
X208605051Y-85203470D01*
X207945000Y-84543420D01*
X207945000Y-82923469D01*
X207949281Y-82880000D01*
X207945000Y-82836531D01*
X207945000Y-82836523D01*
X207932195Y-82706510D01*
X207881589Y-82539687D01*
X207799411Y-82385941D01*
X207786737Y-82370498D01*
X207716532Y-82284953D01*
X207716530Y-82284951D01*
X207688817Y-82251183D01*
X207655050Y-82223471D01*
X206116534Y-80684956D01*
X206088817Y-80651183D01*
X205954059Y-80540589D01*
X205800313Y-80458411D01*
X205633490Y-80407805D01*
X205503477Y-80395000D01*
X205503469Y-80395000D01*
X205460000Y-80390719D01*
X205416531Y-80395000D01*
X204341805Y-80395000D01*
X202394999Y-78408625D01*
X202394999Y-78363464D01*
X202399280Y-78319998D01*
X202394999Y-78276532D01*
X202394999Y-78276522D01*
X202382194Y-78146509D01*
X202331588Y-77979686D01*
X202249410Y-77825940D01*
X202174777Y-77735000D01*
X202166531Y-77724952D01*
X202166529Y-77724950D01*
X202138816Y-77691182D01*
X202131321Y-77685031D01*
X202145000Y-77616260D01*
X202145000Y-77323740D01*
X202087932Y-77036842D01*
X201975990Y-76766589D01*
X201813475Y-76523368D01*
X201606632Y-76316525D01*
X201363411Y-76154010D01*
X201093158Y-76042068D01*
X200806260Y-75985000D01*
X200513740Y-75985000D01*
X200226842Y-76042068D01*
X199956589Y-76154010D01*
X199713368Y-76316525D01*
X199506525Y-76523368D01*
X199344010Y-76766589D01*
X199232068Y-77036842D01*
X199175000Y-77323740D01*
X199175000Y-77616260D01*
X199189461Y-77688960D01*
X195924956Y-80953466D01*
X195891183Y-80981183D01*
X195780589Y-81115942D01*
X195698411Y-81269688D01*
X195667981Y-81370000D01*
X195654404Y-81414759D01*
X195647805Y-81436511D01*
X195635000Y-81566524D01*
X195635000Y-81566531D01*
X195630719Y-81610000D01*
X195635000Y-81653470D01*
X195635000Y-81835479D01*
X195605241Y-81855363D01*
X195405363Y-82055241D01*
X195248320Y-82290273D01*
X195140147Y-82551426D01*
X195085000Y-82828665D01*
X195085000Y-83111335D01*
X195140147Y-83388574D01*
X195248320Y-83649727D01*
X195405363Y-83884759D01*
X195605241Y-84084637D01*
X195840273Y-84241680D01*
X196101426Y-84349853D01*
X196378665Y-84405000D01*
X196661335Y-84405000D01*
X196938574Y-84349853D01*
X197199727Y-84241680D01*
X197434759Y-84084637D01*
X197634637Y-83884759D01*
X197791680Y-83649727D01*
X197899853Y-83388574D01*
X197955000Y-83111335D01*
X197955000Y-82828665D01*
X197899853Y-82551426D01*
X197791680Y-82290273D01*
X197634637Y-82055241D01*
X197480487Y-81901091D01*
X200441040Y-78940539D01*
X200513740Y-78955000D01*
X200641296Y-78955000D01*
X200661830Y-79022692D01*
X200685029Y-79102030D01*
X200687105Y-79106009D01*
X200688410Y-79110312D01*
X200727437Y-79183328D01*
X200765656Y-79256594D01*
X200768468Y-79260091D01*
X200770588Y-79264058D01*
X200823075Y-79328012D01*
X200847514Y-79358410D01*
X200850638Y-79361598D01*
X200881183Y-79398816D01*
X200911501Y-79423697D01*
X202738504Y-81287836D01*
X202074951Y-81951390D01*
X202041184Y-81979102D01*
X202013471Y-82012870D01*
X202013468Y-82012873D01*
X201930590Y-82113860D01*
X201848412Y-82267606D01*
X201797805Y-82434429D01*
X201780719Y-82607919D01*
X201781669Y-82617569D01*
X201723368Y-82656525D01*
X201516525Y-82863368D01*
X201354010Y-83106589D01*
X201242068Y-83376842D01*
X201185000Y-83663740D01*
X201185000Y-83956260D01*
X201199461Y-84028960D01*
X200403423Y-84824999D01*
X192813466Y-84824999D01*
X192770000Y-84820718D01*
X192726534Y-84824999D01*
X192726524Y-84824999D01*
X192596511Y-84837804D01*
X192429688Y-84888410D01*
X192275942Y-84970588D01*
X192275940Y-84970589D01*
X192275941Y-84970589D01*
X192174954Y-85053467D01*
X192174952Y-85053469D01*
X192141184Y-85081182D01*
X192113471Y-85114950D01*
X191396439Y-85831983D01*
X191361335Y-85825000D01*
X191078665Y-85825000D01*
X190801426Y-85880147D01*
X190540273Y-85988320D01*
X190305241Y-86145363D01*
X190105363Y-86345241D01*
X189948320Y-86580273D01*
X189840147Y-86841426D01*
X189785000Y-87118665D01*
X189785000Y-87401335D01*
X189840147Y-87678574D01*
X189948320Y-87939727D01*
X190105363Y-88174759D01*
X190305241Y-88374637D01*
X190540273Y-88531680D01*
X190801426Y-88639853D01*
X191078665Y-88695000D01*
X191361335Y-88695000D01*
X191638574Y-88639853D01*
X191899727Y-88531680D01*
X192134759Y-88374637D01*
X192334637Y-88174759D01*
X192490000Y-87942241D01*
X192645363Y-88174759D01*
X192845241Y-88374637D01*
X193080273Y-88531680D01*
X193341426Y-88639853D01*
X193618665Y-88695000D01*
X193901335Y-88695000D01*
X194178574Y-88639853D01*
X194439727Y-88531680D01*
X194674759Y-88374637D01*
X194874637Y-88174759D01*
X195030000Y-87942241D01*
X195185363Y-88174759D01*
X195385241Y-88374637D01*
X195620273Y-88531680D01*
X195881426Y-88639853D01*
X196154291Y-88694130D01*
X194573422Y-90275000D01*
X173592095Y-90275000D01*
X173548629Y-90270719D01*
X173505163Y-90275000D01*
X173505153Y-90275000D01*
X173375140Y-90287805D01*
X173208317Y-90338411D01*
X173054571Y-90420589D01*
X173054569Y-90420590D01*
X173054570Y-90420590D01*
X172953583Y-90503468D01*
X172953581Y-90503470D01*
X172919813Y-90531183D01*
X172892100Y-90564951D01*
X171204954Y-92252098D01*
X171171181Y-92279815D01*
X171060587Y-92414574D01*
X170978409Y-92568320D01*
X170927803Y-92735143D01*
X170914998Y-92865156D01*
X170914998Y-92865163D01*
X170910717Y-92908632D01*
X168614257Y-92908632D01*
X172030179Y-86992083D01*
X172005000Y-87118665D01*
X172005000Y-87401335D01*
X172060147Y-87678574D01*
X172168320Y-87939727D01*
X172325363Y-88174759D01*
X172525241Y-88374637D01*
X172760273Y-88531680D01*
X173021426Y-88639853D01*
X173298665Y-88695000D01*
X173581335Y-88695000D01*
X173858574Y-88639853D01*
X174119727Y-88531680D01*
X174354759Y-88374637D01*
X174554637Y-88174759D01*
X174710000Y-87942241D01*
X174865363Y-88174759D01*
X175065241Y-88374637D01*
X175300273Y-88531680D01*
X175561426Y-88639853D01*
X175838665Y-88695000D01*
X176121335Y-88695000D01*
X176398574Y-88639853D01*
X176659727Y-88531680D01*
X176894759Y-88374637D01*
X177094637Y-88174759D01*
X177250000Y-87942241D01*
X177405363Y-88174759D01*
X177605241Y-88374637D01*
X177840273Y-88531680D01*
X178101426Y-88639853D01*
X178378665Y-88695000D01*
X178661335Y-88695000D01*
X178938574Y-88639853D01*
X179199727Y-88531680D01*
X179434759Y-88374637D01*
X179634637Y-88174759D01*
X179790000Y-87942241D01*
X179945363Y-88174759D01*
X180145241Y-88374637D01*
X180380273Y-88531680D01*
X180641426Y-88639853D01*
X180918665Y-88695000D01*
X181201335Y-88695000D01*
X181478574Y-88639853D01*
X181739727Y-88531680D01*
X181974759Y-88374637D01*
X182174637Y-88174759D01*
X182330000Y-87942241D01*
X182485363Y-88174759D01*
X182685241Y-88374637D01*
X182920273Y-88531680D01*
X183181426Y-88639853D01*
X183458665Y-88695000D01*
X183741335Y-88695000D01*
X184018574Y-88639853D01*
X184279727Y-88531680D01*
X184514759Y-88374637D01*
X184714637Y-88174759D01*
X184870000Y-87942241D01*
X185025363Y-88174759D01*
X185225241Y-88374637D01*
X185460273Y-88531680D01*
X185721426Y-88639853D01*
X185998665Y-88695000D01*
X186281335Y-88695000D01*
X186558574Y-88639853D01*
X186819727Y-88531680D01*
X187054759Y-88374637D01*
X187254637Y-88174759D01*
X187411680Y-87939727D01*
X187519853Y-87678574D01*
X187575000Y-87401335D01*
X187575000Y-87118665D01*
X187519853Y-86841426D01*
X187411680Y-86580273D01*
X187254637Y-86345241D01*
X187054759Y-86145363D01*
X186955000Y-86078706D01*
X186955000Y-85006578D01*
X188516579Y-83445000D01*
X188601335Y-83445000D01*
X188878574Y-83389853D01*
X189139727Y-83281680D01*
X189374759Y-83124637D01*
X189574637Y-82924759D01*
X189731680Y-82689727D01*
X189839853Y-82428574D01*
X189895000Y-82151335D01*
X189895000Y-81868665D01*
X189839853Y-81591426D01*
X189731680Y-81330273D01*
X189574637Y-81095241D01*
X189374759Y-80895363D01*
X189139727Y-80738320D01*
X188878574Y-80630147D01*
X188601335Y-80575000D01*
X188318665Y-80575000D01*
X188041426Y-80630147D01*
X187780273Y-80738320D01*
X187545241Y-80895363D01*
X187345363Y-81095241D01*
X187188320Y-81330273D01*
X187080147Y-81591426D01*
X187025000Y-81868665D01*
X187025000Y-82151335D01*
X187071802Y-82386620D01*
X185693422Y-83765000D01*
X180996579Y-83765000D01*
X180423882Y-83192304D01*
X180435000Y-83136411D01*
X180435000Y-82863589D01*
X180381775Y-82596011D01*
X180277371Y-82343957D01*
X180125799Y-82117114D01*
X179932886Y-81924201D01*
X179706043Y-81772629D01*
X179453989Y-81668225D01*
X179186411Y-81615000D01*
X178913589Y-81615000D01*
X178646011Y-81668225D01*
X178434999Y-81755629D01*
X178434999Y-81066579D01*
X178916579Y-80585000D01*
X179186411Y-80585000D01*
X179453989Y-80531775D01*
X179706043Y-80427371D01*
X179932886Y-80275799D01*
X180123685Y-80085000D01*
X181253422Y-80085000D01*
X181491983Y-80323561D01*
X181485000Y-80358665D01*
X181485000Y-80641335D01*
X181540147Y-80918574D01*
X181648320Y-81179727D01*
X181805363Y-81414759D01*
X182005241Y-81614637D01*
X182240273Y-81771680D01*
X182501426Y-81879853D01*
X182778665Y-81935000D01*
X183061335Y-81935000D01*
X183338574Y-81879853D01*
X183599727Y-81771680D01*
X183834759Y-81614637D01*
X184034637Y-81414759D01*
X184191680Y-81179727D01*
X184299853Y-80918574D01*
X184355000Y-80641335D01*
X184355000Y-80358665D01*
X184299853Y-80081426D01*
X184191680Y-79820273D01*
X184034637Y-79585241D01*
X183841238Y-79391842D01*
X189440273Y-79391842D01*
X189440273Y-79829090D01*
X189525576Y-80257936D01*
X189692904Y-80661901D01*
X189935826Y-81025459D01*
X190245007Y-81334640D01*
X190608565Y-81577562D01*
X191012530Y-81744890D01*
X191441376Y-81830193D01*
X191878624Y-81830193D01*
X192307470Y-81744890D01*
X192711435Y-81577562D01*
X193074993Y-81334640D01*
X193384174Y-81025459D01*
X193627096Y-80661901D01*
X193794424Y-80257936D01*
X193879727Y-79829090D01*
X193879727Y-79391842D01*
X193794424Y-78962996D01*
X193627096Y-78559031D01*
X193384174Y-78195473D01*
X193074993Y-77886292D01*
X192711435Y-77643370D01*
X192307470Y-77476042D01*
X191878624Y-77390739D01*
X191441376Y-77390739D01*
X191012530Y-77476042D01*
X190608565Y-77643370D01*
X190245007Y-77886292D01*
X189935826Y-78195473D01*
X189692904Y-78559031D01*
X189525576Y-78962996D01*
X189440273Y-79391842D01*
X183841238Y-79391842D01*
X183834759Y-79385363D01*
X183599727Y-79228320D01*
X183338574Y-79120147D01*
X183061335Y-79065000D01*
X182778665Y-79065000D01*
X182743561Y-79071983D01*
X182276534Y-78604956D01*
X182248817Y-78571183D01*
X182114059Y-78460589D01*
X181960313Y-78378411D01*
X181793490Y-78327805D01*
X181663477Y-78315000D01*
X181663469Y-78315000D01*
X181620000Y-78310719D01*
X181576531Y-78315000D01*
X180123685Y-78315000D01*
X179932886Y-78124201D01*
X179706043Y-77972629D01*
X179453989Y-77868225D01*
X179420094Y-77861483D01*
X180216577Y-77065000D01*
X181611846Y-77065000D01*
X181687688Y-77178505D01*
X181901495Y-77392312D01*
X182152905Y-77560299D01*
X182432257Y-77676011D01*
X182728816Y-77735000D01*
X183031184Y-77735000D01*
X183327743Y-77676011D01*
X183607095Y-77560299D01*
X183858505Y-77392312D01*
X183924944Y-77325873D01*
X183930498Y-77344180D01*
X183989463Y-77454494D01*
X184068815Y-77551185D01*
X184165506Y-77630537D01*
X184275820Y-77689502D01*
X184395518Y-77725812D01*
X184520000Y-77738072D01*
X186320000Y-77738072D01*
X186444482Y-77725812D01*
X186564180Y-77689502D01*
X186674494Y-77630537D01*
X186771185Y-77551185D01*
X186850537Y-77454494D01*
X186909502Y-77344180D01*
X186945812Y-77224482D01*
X186958072Y-77100000D01*
X186958072Y-77085000D01*
X188095479Y-77085000D01*
X188115363Y-77114759D01*
X188315241Y-77314637D01*
X188550273Y-77471680D01*
X188811426Y-77579853D01*
X189088665Y-77635000D01*
X189371335Y-77635000D01*
X189648574Y-77579853D01*
X189909727Y-77471680D01*
X190144759Y-77314637D01*
X190344637Y-77114759D01*
X190501680Y-76879727D01*
X190609853Y-76618574D01*
X190665000Y-76341335D01*
X190665000Y-76058665D01*
X190609853Y-75781426D01*
X190501680Y-75520273D01*
X190344637Y-75285241D01*
X190144759Y-75085363D01*
X189909727Y-74928320D01*
X189648574Y-74820147D01*
X189371335Y-74765000D01*
X189088665Y-74765000D01*
X188811426Y-74820147D01*
X188550273Y-74928320D01*
X188315241Y-75085363D01*
X188115363Y-75285241D01*
X188095479Y-75315000D01*
X186958072Y-75315000D01*
X186958072Y-75300000D01*
X186945812Y-75175518D01*
X186909502Y-75055820D01*
X186850537Y-74945506D01*
X186771185Y-74848815D01*
X186674494Y-74769463D01*
X186564180Y-74710498D01*
X186444482Y-74674188D01*
X186320000Y-74661928D01*
X184520000Y-74661928D01*
X184395518Y-74674188D01*
X184275820Y-74710498D01*
X184165506Y-74769463D01*
X184068815Y-74848815D01*
X183989463Y-74945506D01*
X183930498Y-75055820D01*
X183924944Y-75074127D01*
X183858505Y-75007688D01*
X183607095Y-74839701D01*
X183327743Y-74723989D01*
X183031184Y-74665000D01*
X182728816Y-74665000D01*
X182432257Y-74723989D01*
X182152905Y-74839701D01*
X181901495Y-75007688D01*
X181687688Y-75221495D01*
X181638573Y-75295000D01*
X179893463Y-75295000D01*
X179849997Y-75290719D01*
X179806531Y-75295000D01*
X179806521Y-75295000D01*
X179676508Y-75307805D01*
X179509685Y-75358411D01*
X179355939Y-75440589D01*
X179355937Y-75440590D01*
X179355938Y-75440590D01*
X179254951Y-75523468D01*
X179254949Y-75523470D01*
X179221181Y-75551183D01*
X179193468Y-75584951D01*
X177827376Y-76951043D01*
X179409918Y-74210000D01*
X203590082Y-74210000D01*
X215680162Y-95150635D01*
G04 #@! TD*
M02*
