( pcb2gcode 2.4.0 )
( Software-independent Gcode )

G94 ( Millimeters per minute feed rate. )
G21 ( Units == Millimeters. )

G90 ( Absolute coordinates. )
G00 S15000 ( RPM spindle speed. )
G01 F20.00000 ( Feedrate. )


G00 Z10.00000 (Retract to tool change height)
T0
M5      (Spindle stop.)
G04 P1.00000 (Wait for spindle to stop)
(MSG, Change tool bit to cutter diameter 0.80000mm)
M6      (Tool change.)
M0      (Temporary machine stop.)
M3 ( Spindle on clockwise. )
G04 P1.00000 (Wait for spindle to get up to speed)
G04 P0 ( dwell for no time -- G64 should not smooth over this point )
G00 Z2.00000 ( retract )

G00 X-0.47497 Y22.52569 ( rapid move to begin. )
G01 Z-2.50000 F10.00000 ( plunge. )
G04 P0 ( dwell for no time -- G64 should not smooth over this point )
G01 F20.00000
G01 X-0.48107 Y22.45622
G01 X-0.49910 Y22.38886
G01 X-0.52857 Y22.32566
G01 X-13.02857 Y0.67501
G01 X-13.06857 Y0.61791
G01 X-13.11787 Y0.56860
G01 X-13.17497 Y0.52860
G01 X-13.23817 Y0.49914
G01 X-13.30553 Y0.48110
G01 X-13.37500 Y0.47501
G01 X-25.22500 Y0.47501
G00 Z-0.60000
G01 X-26.52500 Y0.47501
G01 Z-2.50000 F10.00000
G01 F20.00000
G01 X-38.37500 Y0.47501
G01 X-38.44444 Y0.48110
G01 X-38.51180 Y0.49914
G01 X-38.57500 Y0.52860
G01 X-38.63210 Y0.56860
G01 X-38.68140 Y0.61791
G01 X-38.72138 Y0.67501
G01 X-51.22140 Y22.32566
G01 X-51.25087 Y22.38886
G01 X-51.26890 Y22.45622
G01 X-51.27500 Y22.52569
G01 X-51.26890 Y22.59513
G01 X-51.25087 Y22.66249
G01 X-51.22140 Y22.72569
G01 X-38.72138 Y44.37631
G01 X-38.68140 Y44.43341
G01 X-38.63210 Y44.48272
G01 X-38.57500 Y44.52272
G01 X-38.51180 Y44.55218
G01 X-38.44444 Y44.57022
G01 X-38.37500 Y44.57631
G01 X-26.52500 Y44.57631
G00 Z-0.60000
G01 X-25.22500 Y44.57631
G01 Z-2.50000 F10.00000
G01 F20.00000
G01 X-13.37500 Y44.57631
G01 X-13.30553 Y44.57022
G01 X-13.23817 Y44.55218
G01 X-13.17497 Y44.52272
G01 X-13.11787 Y44.48272
G01 X-13.06857 Y44.43341
G01 X-13.02857 Y44.37631
G01 X-0.52857 Y22.72569
G01 X-0.49910 Y22.66249
G01 X-0.48107 Y22.59513
G01 X-0.47497 Y22.52569

G04 P0 ( dwell for no time -- G64 should not smooth over this point )
G00 Z10.000000 ( retract )

M5 ( Spindle off. )
G04 P1.000000
M9 ( Coolant off. )
M2 ( Program end. )

