<?xml version="1.0" standalone="no"?>
<!DOCTYPE svg PUBLIC "-//W3C//DTD SVG 1.1//EN"
"http://www.w3.org/Graphics/SVG/1.1/DTD/svg11.dtd">
<svg width="195.591" height="170.273" viewBox="0 0 4074.8 3547.34" version="1.1"
xmlns="http://www.w3.org/2000/svg"
xmlns:xlink="http://www.w3.org/1999/xlink">
<g fill-rule="evenodd"><path d="M 123.473,1774.32 L 123.792,1771.08 L 126.86,1763.83 L 397.38,1295.28 L 400.248,1291.56 L 509.803,1101.81 L 512.189,1099.02 L 513.723,1098 L 517.217,1096.89 L 520.879,1097.11 L 522.618,1097.71 L 525.618,1099.82 L 538.503,1118.8 L 552.849,1133.15 L 569.718,1144.42 L 588.461,1152.18 L 608.358,1156.14 L 628.646,1156.14 L 648.543,1152.18 L 667.289,1144.42 L 684.157,1133.15 L 698.502,1118.8 L 711.308,1099.92 L 714.188,1097.85 L 717.612,1096.91 L 721.149,1097.22 L 722.82,1097.85 L 725.7,1099.92 L 738.503,1118.8 L 752.85,1133.15 L 769.718,1144.42 L 788.461,1152.18 L 808.358,1156.14 L 828.646,1156.14 L 848.543,1152.18 L 867.289,1144.42 L 884.157,1133.15 L 898.502,1118.8 L 911.308,1099.92 L 914.188,1097.85 L 917.612,1096.91 L 921.149,1097.22 L 922.82,1097.85 L 925.7,1099.92 L 938.503,1118.8 L 952.85,1133.15 L 969.718,1144.42 L 988.461,1152.18 L 1008.36,1156.14 L 1028.65,1156.14 L 1048.54,1152.18 L 1067.29,1144.42 L 1084.16,1133.15 L 1098.5,1118.8 L 1111.31,1099.92 L 1114.19,1097.85 L 1117.61,1096.91 L 1121.15,1097.22 L 1122.82,1097.85 L 1125.7,1099.92 L 1138.5,1118.8 L 1152.85,1133.15 L 1169.72,1144.42 L 1188.46,1152.18 L 1208.36,1156.14 L 1228.65,1156.14 L 1248.54,1152.18 L 1267.29,1144.42 L 1284.16,1133.15 L 1298.5,1118.8 L 1311.31,1099.92 L 1314.19,1097.85 L 1317.61,1096.91 L 1321.15,1097.22 L 1322.82,1097.85 L 1325.7,1099.92 L 1338.5,1118.8 L 1352.85,1133.15 L 1369.72,1144.42 L 1388.46,1152.18 L 1408.36,1156.14 L 1428.65,1156.14 L 1448.54,1152.18 L 1467.29,1144.42 L 1484.16,1133.15 L 1498.5,1118.8 L 1511.31,1099.92 L 1514.19,1097.85 L 1517.61,1096.91 L 1521.15,1097.22 L 1522.82,1097.85 L 1525.7,1099.92 L 1538.5,1118.8 L 1552.85,1133.15 L 1569.72,1144.42 L 1588.46,1152.18 L 1608.36,1156.14 L 1628.65,1156.14 L 1648.54,1152.18 L 1667.29,1144.42 L 1684.16,1133.15 L 1698.5,1118.8 L 1709.77,1101.93 L 1717.54,1083.19 L 1721.5,1063.29 L 1721.5,1043.01 L 1718.6,1027.76 L 1719.02,1024.53 L 1720.46,1021.61 L 1880.33,861.553 L 1882.96,859.338 L 1890.42,850.248 L 1895.96,839.878 L 1899.37,828.627 L 1899.85,825.313 L 1901.39,822.149 L 1902.55,820.819 L 1906.2,818.187 L 1920.55,803.841 L 1931.82,786.973 L 1939.58,768.229 L 1942.91,751.494 L 1942.91,724.882 L 1939.58,708.147 L 1931.82,689.403 L 1920.55,672.535 L 1906.2,658.189 L 1889.33,646.918 L 1870.59,639.154 L 1850.69,635.196 L 1830.41,635.196 L 1810.51,639.154 L 1791.76,646.918 L 1774.9,658.19 L 1760.55,672.535 L 1749.28,689.403 L 1741.52,708.147 L 1737.56,728.045 L 1737.56,748.331 L 1741.52,768.229 L 1749.28,786.973 L 1760.3,803.723 L 1760.85,805.346 L 1761.11,808.756 L 1760.19,812.052 L 1759.33,813.534 L 1625.84,947.227 L 1624.33,948.471 L 1620.72,949.964 L 1608.36,950.156 L 1604.94,950.701 L 1601.71,950.276 L 1600.19,949.675 L 1597.54,947.777 L 1356.08,706.05 L 1354.59,702.445 L 1354.4,700.494 L 1355.16,696.667 L 1357.33,693.423 L 1365.02,685.732 L 1376.29,668.863 L 1384.06,650.12 L 1388.01,630.221 L 1388.01,609.933 L 1384.06,590.037 L 1376.29,571.293 L 1365.02,554.424 L 1350.67,540.077 L 1333.81,528.808 L 1315.06,521.044 L 1295.16,517.086 L 1274.88,517.086 L 1254.98,521.044 L 1236.24,528.808 L 1219.37,540.078 L 1205.02,554.426 L 1202.76,557.465 L 1201.24,558.708 L 1197.64,560.2 L 1110.24,560.392 L 1108.28,560.2 L 1104.68,558.707 L 1101.92,555.948 L 1100.43,552.343 L 1100.24,535.917 L 1096.28,516.021 L 1088.51,497.277 L 1077.24,480.41 L 1062.9,466.064 L 1046.03,454.792 L 1027.28,447.028 L 1007.39,443.07 L 998.369,443.07 L 994.653,442.354 L 991.469,440.307 L 989.273,437.224 L 988.381,433.546 L 988.471,431.647 L 989.709,428.07 L 1023.35,369.802 L 1025.58,367.142 L 1028.59,365.405 L 1032.01,364.802 L 1088.99,364.802 L 1092.82,365.563 L 1096.06,367.731 L 1101.68,375.788 L 1117.12,391.232 L 1135.28,403.366 L 1155.46,411.722 L 1176.87,415.984 L 1198.72,415.984 L 1220.13,411.723 L 1240.31,403.366 L 1258.47,391.232 L 1264.44,385.503 L 1266.08,384.599 L 1269.72,383.774 L 1273.4,384.337 L 1276.62,386.209 L 1278.93,389.13 L 1279.79,391.364 L 1283.51,398.314 L 1288.51,404.405 L 1294.6,409.403 L 1301.55,413.116 L 1309.09,415.405 L 1317.42,416.226 L 1458.17,416.226 L 1466.5,415.405 L 1474.04,413.116 L 1480.99,409.403 L 1487.08,404.405 L 1492.08,398.313 L 1495.79,391.365 L 1498.08,383.824 L 1499.09,372.851 L 1499.66,370.975 L 1500.59,369.246 L 1503.35,366.487 L 1506.95,364.994 L 1607.23,364.925 L 1608.76,365.291 L 1611.55,366.712 L 1616.14,371.127 L 1631.72,381.536 L 1649.03,388.706 L 1667.4,392.362 L 1686.14,392.362 L 1704.52,388.706 L 1721.83,381.536 L 1737.4,371.127 L 1750.65,357.877 L 1761.06,342.3 L 1768.23,324.988 L 1771.89,306.61 L 1771.89,287.876 L 1768.23,269.497 L 1761.06,252.186 L 1750.65,236.61 L 1737.41,223.36 L 1721.83,212.951 L 1704.52,205.78 L 1686.14,202.124 L 1667.4,202.124 L 1649.03,205.78 L 1631.72,212.95 L 1616.14,223.359 L 1602.89,236.608 L 1598.95,242.267 L 1596.36,244.251 L 1593.28,245.298 L 1508.9,245.432 L 1505.07,244.671 L 1503.35,243.747 L 1500.59,240.988 L 1499.09,237.383 L 1498.08,226.41 L 1495.79,218.869 L 1492.08,211.92 L 1487.08,205.829 L 1480.99,200.831 L 1474.04,197.117 L 1466.5,194.829 L 1458.17,194.01 L 1317.42,194.01 L 1309.09,194.83 L 1301.55,197.117 L 1294.6,200.831 L 1288.51,205.829 L 1283.51,211.919 L 1279.79,218.87 L 1278.93,221.104 L 1276.62,224.025 L 1273.4,225.897 L 1269.72,226.46 L 1267.86,226.218 L 1264.44,224.731 L 1258.47,219.002 L 1240.31,206.868 L 1220.13,198.512 L 1198.72,194.25 L 1176.87,194.25 L 1155.46,198.512 L 1135.28,206.868 L 1117.12,219.002 L 1101.68,234.446 L 1096.06,242.504 L 1092.82,244.671 L 1088.99,245.432 L 1021.55,245.432 L 1017.84,244.716 L 1014.65,242.669 L 1012.46,239.586 L 1011.84,237.79 L 1011.66,234.009 L 1012.89,230.432 L 1076.77,119.802 L 1079,117.142 L 1082.01,115.405 L 1085.43,114.802 L 2989.38,114.802 L 2992.8,115.405 L 2995.8,117.142 L 2998.04,119.802 L 3159.54,399.542 L 3160.78,403.119 L 3160.87,405.018 L 3159.98,408.696 L 3159.03,410.343 L 3156.29,412.955 L 3152.78,414.361 L 3150.05,414.542 L 3130.16,418.499 L 3111.42,426.264 L 3094.55,437.536 L 3080.2,451.881 L 3068.93,468.749 L 3061.17,487.494 L 3057.21,507.389 L 3057.21,527.679 L 3061.17,547.574 L 3068.93,566.319 L 3080.2,583.187 L 3094.55,597.532 L 3111.42,608.805 L 3130.16,616.568 L 3150.06,620.526 L 3170.35,620.526 L 3188.28,617.12 L 3190.05,617.244 L 3193.38,618.411 L 3196.11,620.666 L 3197.13,622.118 L 3859.09,1768.67 L 3859.82,1770.25 L 3860.43,1773.67 L 3860.28,1775.41 L 3859.09,1778.67 L 3244.01,2843.68 L 3241.18,2845.97 L 3237.71,2847.1 L 3234.07,2846.91 L 3230.74,2845.43 L 3215.01,2829.93 L 3200.71,2820.19 L 3198.63,2817.31 L 3197.7,2813.88 L 3197.7,2812.1 L 3198.63,2808.68 L 3200.71,2805.8 L 3215.01,2796.05 L 3229.91,2781.16 L 3241.61,2763.64 L 3249.67,2744.18 L 3253.78,2723.52 L 3253.78,2702.46 L 3249.67,2681.8 L 3241.61,2662.34 L 3229.91,2644.83 L 3215.01,2629.93 L 3197.5,2618.23 L 3178.04,2610.17 L 3157.38,2606.06 L 3136.32,2606.06 L 3115.66,2610.17 L 3096.2,2618.23 L 3078.69,2629.93 L 3063.79,2644.83 L 3052.09,2662.34 L 3044.03,2681.8 L 3039.92,2702.46 L 3039.92,2723.52 L 3044.03,2744.18 L 3052.09,2763.64 L 3063.79,2781.15 L 3078.69,2796.05 L 3091.6,2804.68 L 3094.15,2807.14 L 3095.06,2808.68 L 3096,2812.1 L 3095.69,2815.64 L 3095.06,2817.31 L 3094.15,2818.84 L 3091.6,2821.31 L 3078.69,2829.93 L 3063.79,2844.83 L 3052.09,2862.34 L 3044.03,2881.8 L 3039.92,2902.46 L 3039.92,2923.52 L 3041.05,2929.9 L 3040.63,2933.13 L 3039.19,2936.06 L 2888.9,3086.27 L 2885.29,3087.76 L 2883.34,3087.95 L 2567.3,3087.95 L 2565.47,3087.78 L 2562.05,3086.47 L 2560.58,3085.36 L 2558.36,3082.45 L 2557.69,3080.74 L 2557.14,3076.8 L 2554.85,3069.26 L 2551.13,3062.31 L 2546.14,3056.22 L 2540.05,3051.22 L 2533.1,3047.51 L 2525.56,3045.22 L 2518.7,3044.55 L 2515.19,3043.53 L 2512.27,3041.31 L 2511.17,3039.84 L 2509.85,3036.43 L 2509.68,2863.75 L 2510.44,2859.93 L 2512.61,2856.68 L 2518.16,2852.74 L 2529.29,2841.86 L 2532.71,2840.37 L 2534.56,2840.13 L 2538.25,2840.7 L 2539.95,2841.48 L 2542.76,2843.92 L 2544.49,2847.23 L 2545.94,2852 L 2549.65,2858.94 L 2554.65,2865.03 L 2560.74,2870.03 L 2567.69,2873.75 L 2575.23,2876.04 L 2583.56,2876.86 L 2716.44,2876.86 L 2724.77,2876.04 L 2732.31,2873.75 L 2739.26,2870.03 L 2745.35,2865.03 L 2750.35,2858.94 L 2754.06,2851.99 L 2756.35,2844.45 L 2757.17,2836.12 L 2757.17,2744.76 L 2757.36,2742.81 L 2758.85,2739.21 L 2973.25,2524.54 L 2975.87,2522.33 L 2983.33,2513.23 L 2988.87,2502.87 L 2992.28,2491.62 L 2993.44,2479.92 L 2993.15,2476.5 L 2993.15,2362.89 L 2993.85,2359.21 L 2994.7,2357.54 L 2997.26,2354.81 L 2998.87,2353.85 L 3002.49,2352.91 L 3006.21,2353.37 L 3009.49,2355.15 L 3018.88,2362.86 L 3029.25,2368.4 L 3040.49,2371.81 L 3053.76,2372.97 L 3057.23,2373.9 L 3060.14,2375.98 L 3063.79,2381.15 L 3078.69,2396.05 L 3096.2,2407.75 L 3115.66,2415.81 L 3136.32,2419.92 L 3157.38,2419.92 L 3178.04,2415.81 L 3197.5,2407.75 L 3215.01,2396.05 L 3229.91,2381.15 L 3241.61,2363.64 L 3249.67,2344.18 L 3253.78,2323.52 L 3253.78,2302.46 L 3249.67,2281.8 L 3241.61,2262.34 L 3229.91,2244.83 L 3219.03,2233.7 L 3217.54,2230.28 L 3217.41,2226.56 L 3218.65,2223.04 L 3221.09,2220.23 L 3224.39,2218.5 L 3229.16,2217.05 L 3236.11,2213.34 L 3242.2,2208.34 L 3247.2,2202.25 L 3250.91,2195.3 L 3253.2,2187.76 L 3254.02,2179.43 L 3254.02,2046.56 L 3253.2,2038.22 L 3250.91,2030.68 L 3247.2,2023.73 L 3242.2,2017.64 L 3236.11,2012.64 L 3229.16,2008.93 L 3221.62,2006.64 L 3213.15,2005.66 L 3210.06,2004.2 L 3207.64,2001.78 L 3206.18,1998.69 L 3205.67,1994.99 L 3203.49,1987.81 L 3203.12,1985.97 L 3203.42,1982.24 L 3205.08,1978.89 L 3207.85,1976.38 L 3209.54,1975.55 L 3213.22,1974.91 L 3216.89,1975.67 L 3228.62,1980.53 L 3248.52,1984.49 L 3268.81,1984.49 L 3288.7,1980.53 L 3307.45,1972.77 L 3324.31,1961.49 L 3338.66,1947.15 L 3349.93,1930.28 L 3357.7,1911.54 L 3361.65,1891.64 L 3361.65,1871.36 L 3361.11,1867.94 L 3361.19,1866.3 L 3362.13,1863.18 L 3364.03,1860.53 L 3398.44,1826.12 L 3401.07,1823.91 L 3408.53,1814.81 L 3414.07,1804.45 L 3417.48,1793.2 L 3418.63,1781.5 L 3418.35,1778.07 L 3418.35,1616.1 L 3418.63,1612.68 L 3417.48,1600.98 L 3414.07,1589.72 L 3408.53,1579.36 L 3401.06,1570.27 L 3398.44,1568.05 L 3281.12,1450.73 L 3279.28,1448.19 L 3278.68,1446.74 L 3278.19,1443.65 L 3278.19,1165.72 L 3278.36,1163.89 L 3279.67,1160.48 L 3282.13,1157.77 L 3285.4,1156.12 L 3289.34,1155.56 L 3296.88,1153.27 L 3303.83,1149.56 L 3309.92,1144.56 L 3314.91,1138.47 L 3318.63,1131.52 L 3320.92,1123.98 L 3321.74,1115.65 L 3321.74,990.648 L 3320.92,982.314 L 3318.63,974.776 L 3314.92,967.828 L 3309.92,961.735 L 3303.82,956.737 L 3296.88,953.021 L 3289.34,950.736 L 3281,949.914 L 3207.87,949.914 L 3205.92,949.722 L 3202.32,948.229 L 3199.56,945.47 L 3198.63,943.741 L 3197.87,939.914 L 3198.07,860.578 L 3199.56,856.974 L 3206.73,846.236 L 3213.9,828.923 L 3217.56,810.55 L 3217.56,791.81 L 3213.9,773.437 L 3206.73,756.125 L 3196.32,740.547 L 3183.07,727.298 L 3167.5,716.889 L 3150.18,709.718 L 3131.81,706.062 L 3113.07,706.062 L 3094.69,709.718 L 3077.38,716.888 L 3061.81,727.297 L 3048.56,740.548 L 3038.15,756.125 L 3030.98,773.435 L 3027.32,791.812 L 3027.32,810.548 L 3030.98,828.926 L 3038.15,846.235 L 3048.56,861.812 L 3061.81,875.063 L 3075.34,884.265 L 3076.44,885.476 L 3077.97,888.35 L 3078.5,891.564 L 3078.5,951.558 L 3077.87,955.053 L 3076.06,958.107 L 3074.78,959.345 L 3071.66,961.046 L 3068.15,961.552 L 3064.68,960.797 L 3048.54,954.113 L 3028.65,950.156 L 3008.36,950.156 L 2990.4,953.728 L 2987.15,953.835 L 2985.55,953.49 L 2984.03,952.889 L 2981.38,950.991 L 2902.02,871.633 L 2899.81,869.009 L 2890.72,861.548 L 2880.35,856.007 L 2869.1,852.595 L 2857.4,851.443 L 2853.98,851.732 L 2819.42,851.732 L 2815.59,850.971 L 2812.35,848.803 L 2810.18,845.559 L 2809.42,841.732 L 2810.18,837.906 L 2813.9,828.925 L 2817.56,810.55 L 2817.56,791.81 L 2813.9,773.437 L 2806.73,756.125 L 2795.95,739.991 L 2794.46,736.387 L 2794.27,734.436 L 2795.03,730.609 L 2797.2,727.365 L 2838.94,685.809 L 2841.87,684.369 L 2845.1,683.943 L 2848.52,684.488 L 2868.8,684.488 L 2888.7,680.528 L 2907.44,672.766 L 2924.31,661.495 L 2938.66,647.149 L 2949.93,630.28 L 2957.69,611.537 L 2961.65,591.639 L 2961.65,571.351 L 2957.69,551.453 L 2949.93,532.711 L 2938.66,515.84 L 2924.31,501.495 L 2907.44,490.224 L 2888.7,482.462 L 2868.8,478.502 L 2848.52,478.502 L 2828.62,482.462 L 2809.87,490.225 L 2793.01,501.496 L 2778.66,515.84 L 2767.39,532.71 L 2759.63,551.453 L 2755.67,571.351 L 2755.67,591.639 L 2756.21,595.06 L 2755.79,598.291 L 2755.19,599.811 L 2753.29,602.459 L 2706.68,649.071 L 2703.43,651.239 L 2699.61,652 L 2697.65,651.808 L 2694.05,650.315 L 2674.94,631.475 L 2672.72,628.853 L 2663.63,621.393 L 2653.26,615.85 L 2642.01,612.437 L 2630.31,611.285 L 2626.89,611.574 L 2590.56,611.413 L 2587.21,610.151 L 2584.52,607.791 L 2583.53,606.288 L 2582.44,602.879 L 2582.61,599.303 L 2583.18,597.596 L 2593.24,582.249 L 2601,563.506 L 2604.96,543.609 L 2604.96,523.319 L 2604.41,519.898 L 2604.49,518.265 L 2605.44,515.147 L 2607.34,512.499 L 2656.71,463.127 L 2659.34,460.91 L 2666.8,451.823 L 2672.34,441.454 L 2675.75,430.203 L 2676.9,418.5 L 2676.61,415.08 L 2676.61,407.058 L 2676.75,405.429 L 2677.79,402.344 L 2679.78,399.759 L 2685.09,396.048 L 2699.99,381.155 L 2711.69,363.64 L 2719.75,344.182 L 2723.86,323.522 L 2723.86,302.46 L 2719.75,281.8 L 2711.69,262.341 L 2699.99,244.829 L 2685.09,229.934 L 2667.58,218.232 L 2648.12,210.172 L 2630.62,206.691 L 2603.23,206.691 L 2585.74,210.172 L 2566.28,218.232 L 2548.76,229.933 L 2533.87,244.83 L 2522.17,262.341 L 2514.11,281.8 L 2510,302.46 L 2510,323.522 L 2514.11,344.182 L 2522.17,363.64 L 2533.87,381.156 L 2546.04,393.598 L 2547.54,397.203 L 2547.73,399.154 L 2546.97,402.981 L 2544.8,406.225 L 2522.93,428.093 L 2520.28,429.991 L 2517.16,430.937 L 2515.53,431.017 L 2512.11,430.472 L 2491.82,430.472 L 2471.93,434.43 L 2453.18,442.194 L 2436.31,453.464 L 2421.97,467.812 L 2410.7,484.679 L 2402.93,503.421 L 2398.98,523.319 L 2398.98,543.607 L 2402.93,563.506 L 2410.7,582.249 L 2419.9,596.018 L 2421.32,599.303 L 2421.57,601.083 L 2421.1,604.633 L 2420.4,606.288 L 2418.18,609.092 L 2416.72,610.151 L 2413.37,611.413 L 2405.39,611.574 L 2401.97,611.285 L 2390.27,612.437 L 2379.02,615.85 L 2368.65,621.394 L 2359.56,628.853 L 2357.34,631.475 L 2297.37,691.177 L 2293.77,692.67 L 2284.95,694.424 L 2265.49,702.484 L 2247.98,714.186 L 2233.08,729.081 L 2221.38,746.593 L 2213.32,766.052 L 2209.21,786.712 L 2209.21,807.774 L 2213.32,828.434 L 2221.38,847.891 L 2226.71,855.859 L 2228.13,859.144 L 2228.38,860.925 L 2227.91,864.474 L 2226.22,867.632 L 2223.53,869.993 L 2221.91,870.775 L 2218.39,871.416 L 2143.19,871.416 L 2139.77,871.128 L 2128.06,872.28 L 2116.81,875.693 L 2106.44,881.235 L 2097.35,888.695 L 2095.14,891.317 L 2038.81,947.647 L 2036.16,949.545 L 2033.04,950.491 L 2031.41,950.571 L 2028.64,950.156 L 2008.36,950.156 L 1988.46,954.114 L 1969.72,961.878 L 1952.85,973.15 L 1938.5,987.494 L 1927.23,1004.36 L 1919.47,1023.11 L 1915.51,1043.01 L 1915.51,1063.29 L 1919.47,1083.19 L 1927.23,1101.93 L 1938.5,1118.8 L 1952.85,1133.15 L 1969.72,1144.42 L 1988.46,1152.18 L 2008.36,1156.14 L 2028.65,1156.14 L 2048.54,1152.18 L 2067.29,1144.42 L 2084.16,1133.15 L 2098.5,1118.8 L 2111.31,1099.92 L 2114.19,1097.85 L 2115.86,1097.22 L 2119.4,1096.91 L 2122.82,1097.85 L 2125.7,1099.92 L 2138.5,1118.8 L 2152.85,1133.15 L 2169.72,1144.42 L 2188.46,1152.18 L 2208.36,1156.14 L 2228.65,1156.14 L 2248.54,1152.18 L 2267.29,1144.42 L 2284.16,1133.15 L 2298.5,1118.8 L 2311.31,1099.92 L 2314.19,1097.85 L 2315.86,1097.22 L 2319.4,1096.91 L 2322.82,1097.85 L 2325.7,1099.92 L 2338.5,1118.8 L 2352.85,1133.15 L 2369.72,1144.42 L 2388.46,1152.18 L 2408.36,1156.14 L 2418.36,1156.33 L 2420.24,1156.9 L 2423.48,1159.07 L 2425.65,1162.31 L 2426.41,1166.14 L 2425.65,1169.97 L 2423.48,1173.21 L 2258.51,1338.01 L 2255.72,1339.43 L 2252.63,1339.92 L 668.537,1339.92 L 665.115,1339.63 L 653.414,1340.78 L 642.163,1344.2 L 631.794,1349.74 L 622.706,1357.2 L 620.49,1359.82 L 275.014,1705.3 L 272.388,1707.51 L 264.931,1716.6 L 259.389,1726.97 L 255.977,1738.22 L 254.99,1746.65 L 253.455,1749.82 L 252.295,1751.15 L 249.143,1753.44 L 234.799,1767.79 L 223.528,1784.65 L 215.763,1803.4 L 211.805,1823.3 L 211.805,1843.58 L 214.33,1856.28 L 244.858,1909.15 L 249.144,1913.44 L 266.012,1924.71 L 284.757,1932.47 L 304.654,1936.43 L 324.94,1936.43 L 344.839,1932.47 L 363.582,1924.71 L 380.45,1913.44 L 394.795,1899.09 L 406.067,1882.22 L 409.893,1873.38 L 410.954,1872 L 413.71,1869.88 L 417.022,1868.84 L 420.492,1868.99 L 430.577,1873 L 434.141,1873.89 L 437.251,1875.87 L 438.48,1877.25 L 439.432,1878.84 L 440.386,1882.41 L 439.985,1886.07 L 437.789,1893.31 L 436.638,1905.01 L 436.925,1908.43 L 436.925,2146.89 L 436.638,2150.32 L 437.789,2162.02 L 441.202,2173.27 L 446.745,2183.64 L 454.203,2192.73 L 456.828,2194.94 L 792.612,2530.73 L 794.829,2533.35 L 803.917,2540.81 L 814.287,2546.35 L 825.537,2549.77 L 838.824,2550.93 L 840.593,2551.23 L 843.826,2552.77 L 846.313,2555.34 L 848.831,2559.11 L 863.725,2574 L 876.639,2582.63 L 879.398,2585.39 L 880.322,2587.12 L 881.083,2590.94 L 880.322,2594.77 L 879.398,2596.5 L 876.639,2599.26 L 863.726,2607.89 L 848.831,2622.78 L 837.129,2640.3 L 829.069,2659.75 L 824.959,2680.41 L 824.959,2701.48 L 829.069,2722.13 L 837.13,2741.59 L 848.831,2759.11 L 864.565,2774.8 L 866.722,2778.04 L 867.479,2781.85 L 867.19,2785.43 L 868.343,2797.13 L 871.755,2808.38 L 877.298,2818.75 L 884.758,2827.84 L 887.38,2830.06 L 1105.49,3048.33 L 1106.91,3051.12 L 1107.4,3054.21 L 1107.4,3147.14 L 1108.21,3155.48 L 1110.5,3163.02 L 1114.22,3169.97 L 1119.22,3176.06 L 1125.31,3181.06 L 1132.26,3184.77 L 1139.8,3187.06 L 1148.13,3187.88 L 1195.21,3188.03 L 1196.87,3188.46 L 1199.84,3190.15 L 1208.81,3197.5 L 1219.17,3203.04 L 1230.43,3206.46 L 1242.13,3207.61 L 1245.55,3207.32 L 1490.74,3207.49 L 1494.12,3208.78 L 1496.83,3211.2 L 1498.49,3214.42 L 1501.05,3222.86 L 1504.77,3229.81 L 1509.77,3235.9 L 1515.86,3240.9 L 1522.81,3244.61 L 1530.35,3246.9 L 1538.68,3247.72 L 1657.38,3247.72 L 1665.72,3246.9 L 1673.25,3244.61 L 1680.2,3240.9 L 1686.29,3235.9 L 1691.29,3229.81 L 1695.01,3222.86 L 1697.29,3215.32 L 1698.12,3206.99 L 1698.12,3088.29 L 1697.29,3079.95 L 1695.01,3072.41 L 1691.29,3065.46 L 1686.29,3059.37 L 1680.2,3054.37 L 1673.25,3050.66 L 1665.71,3048.37 L 1657.38,3047.55 L 1538.68,3047.55 L 1530.35,3048.37 L 1522.81,3050.66 L 1515.86,3054.37 L 1509.77,3059.37 L 1504.77,3065.46 L 1501.05,3072.41 L 1498.49,3080.86 L 1496.83,3084.08 L 1494.12,3086.49 L 1490.74,3087.79 L 1323.86,3087.95 L 1321.91,3087.76 L 1318.31,3086.27 L 1315.55,3083.51 L 1314.06,3079.9 L 1313.86,3077.95 L 1313.86,3022.14 L 1313.04,3013.81 L 1310.76,3006.27 L 1307.04,2999.32 L 1302.04,2993.23 L 1295.95,2988.23 L 1289,2984.52 L 1281.63,2982.28 L 1264.96,2982.28 L 1261.12,2981.9 L 1259.48,2981.41 L 1211.69,2981.41 L 1209.74,2981.22 L 1206.14,2979.72 L 1005.92,2779.51 L 1004.43,2775.91 L 1004.24,2773.96 L 1005,2770.13 L 1007.17,2766.88 L 1014.95,2759.11 L 1026.65,2741.59 L 1034.71,2722.13 L 1038.82,2701.48 L 1038.82,2680.41 L 1034.71,2659.75 L 1026.65,2640.3 L 1014.95,2622.78 L 1000.05,2607.89 L 985.624,2598.01 L 983.457,2594.77 L 982.888,2592.89 L 982.888,2588.99 L 983.457,2587.12 L 985.624,2583.87 L 1000.05,2574 L 1014.95,2559.11 L 1024.69,2544.81 L 1027.57,2542.73 L 1029.24,2542.11 L 1032.78,2541.79 L 1036.21,2542.73 L 1039.09,2544.81 L 1048.83,2559.11 L 1063.73,2574 L 1081.24,2585.7 L 1100.7,2593.76 L 1121.36,2597.87 L 1142.42,2597.87 L 1148.65,2596.8 L 1152.17,2597.38 L 1155.27,2599.15 L 1165.5,2607.74 L 1175.87,2613.28 L 1187.12,2616.69 L 1191.73,2617.3 L 1194.82,2618.76 L 1278.32,2702.04 L 1279.44,2703.38 L 1280.91,2706.53 L 1281.21,2709.99 L 1280.31,2713.34 L 1267.39,2732.71 L 1259.63,2751.46 L 1255.67,2771.35 L 1255.67,2791.64 L 1259.63,2811.54 L 1267.39,2830.28 L 1278.66,2847.15 L 1293.01,2861.5 L 1309.88,2872.77 L 1328.62,2880.53 L 1348.52,2884.49 L 1368.8,2884.49 L 1388.7,2880.53 L 1407.44,2872.77 L 1424.31,2861.5 L 1438.66,2847.15 L 1449.93,2830.28 L 1457.69,2811.54 L 1462.3,2788.53 L 1463.1,2786.91 L 1465.49,2784.21 L 1467.01,2783.23 L 1470.45,2782.15 L 1474.05,2782.37 L 1477.33,2783.85 L 1487.44,2793.72 L 1489.65,2796.34 L 1498.74,2803.8 L 1509.11,2809.34 L 1520.36,2812.76 L 1532.06,2813.91 L 1535.48,2813.62 L 1865,2813.62 L 1868.42,2813.91 L 1880.12,2812.76 L 1891.37,2809.34 L 1901.74,2803.8 L 1910.83,2796.35 L 1913.05,2793.72 L 1998.44,2708.32 L 2001.07,2706.11 L 2008.53,2697.02 L 2014.07,2686.65 L 2017.48,2675.4 L 2018.63,2663.7 L 2018.35,2660.28 L 2018.35,2371.53 L 2018.63,2368.11 L 2017.48,2356.41 L 2014.07,2345.16 L 2008.53,2334.79 L 2001.07,2325.7 L 1998.44,2323.48 L 1979.66,2304.71 L 1977.44,2302.08 L 1968.36,2294.62 L 1957.99,2289.08 L 1946.74,2285.67 L 1935.04,2284.51 L 1931.62,2284.8 L 1915.71,2284.8 L 1911.9,2284.04 L 1908.66,2281.89 L 1892.97,2266.15 L 1878.54,2256.28 L 1877.29,2254.77 L 1875.8,2251.16 L 1875.8,2247.26 L 1876.37,2245.39 L 1878.54,2242.14 L 1892.96,2232.27 L 1907.86,2217.37 L 1919.56,2199.86 L 1927.62,2180.4 L 1931.73,2159.74 L 1931.73,2138.68 L 1931.51,2136.56 L 1931.7,2134.61 L 1933.19,2131.01 L 1977.07,2086.87 L 1979.71,2084.97 L 1982.83,2084.02 L 1984.47,2083.94 L 1987.89,2084.49 L 2008.17,2084.49 L 2028.07,2080.53 L 2046.81,2072.77 L 2063.68,2061.49 L 2078.03,2047.15 L 2089.3,2030.28 L 2097.06,2011.54 L 2101.02,1991.64 L 2101.02,1971.35 L 2097.06,1951.45 L 2089.3,1932.71 L 2078.03,1915.84 L 2063.68,1901.5 L 2046.81,1890.22 L 2028.07,1882.46 L 2008.17,1878.5 L 1987.89,1878.5 L 1967.99,1882.46 L 1949.24,1890.22 L 1932.38,1901.5 L 1918.03,1915.84 L 1906.76,1932.71 L 1898.99,1951.45 L 1895.04,1971.35 L 1895.04,1991.64 L 1895.58,1995.06 L 1895.16,1998.29 L 1894.56,1999.81 L 1892.66,2002.46 L 1853.71,2041.41 L 1852.46,2042.46 L 1849.54,2043.91 L 1846.31,2044.33 L 1835.33,2042.28 L 1814.27,2042.28 L 1793.61,2046.39 L 1774.15,2054.45 L 1756.64,2066.15 L 1741.75,2081.05 L 1730.04,2098.56 L 1721.98,2118.02 L 1717.87,2138.68 L 1717.87,2159.74 L 1721.98,2180.4 L 1730.04,2199.86 L 1741.74,2217.37 L 1756.64,2232.27 L 1770.94,2242.02 L 1773.02,2244.9 L 1773.64,2246.57 L 1773.96,2250.1 L 1773.02,2253.53 L 1770.94,2256.41 L 1756.64,2266.15 L 1741.74,2281.05 L 1731.87,2295.48 L 1728.63,2297.64 L 1726.75,2298.21 L 1722.85,2298.21 L 1720.97,2297.64 L 1717.73,2295.48 L 1707.86,2281.05 L 1692.96,2266.15 L 1675.45,2254.45 L 1655.99,2246.39 L 1635.34,2242.28 L 1614.27,2242.28 L 1607.89,2243.42 L 1604.66,2242.99 L 1601.74,2241.55 L 1560.19,2199.92 L 1559.26,2198.19 L 1558.5,2194.36 L 1558.5,2155.2 L 1557.87,2149.21 L 1558.5,2143.22 L 1558.5,1978.77 L 1558.79,1975.34 L 1557.64,1963.64 L 1554.23,1952.39 L 1548.68,1942.02 L 1541.23,1932.94 L 1538.6,1930.72 L 1496.05,1888.17 L 1493.83,1885.54 L 1484.74,1878.08 L 1474.38,1872.54 L 1459.28,1868.06 L 1456.34,1865.79 L 1455.24,1864.29 L 1453.95,1860.81 L 1453.82,1858.95 L 1454.58,1855.32 L 1460.97,1839.88 L 1464.93,1819.98 L 1464.93,1799.69 L 1464.24,1795.41 L 1464.36,1793.65 L 1465.51,1790.32 L 1468.37,1786.59 L 1473.91,1776.22 L 1477.32,1764.97 L 1478.48,1753.27 L 1478.19,1742.48 L 1478.72,1739.26 L 1480.26,1736.39 L 1481.36,1735.18 L 1484.16,1733.15 L 1498.5,1718.8 L 1510.19,1701.31 L 1511.31,1699.92 L 1514.19,1697.85 L 1515.86,1697.22 L 1519.4,1696.91 L 1522.82,1697.85 L 1524.35,1698.76 L 1526.82,1701.31 L 1538.5,1718.8 L 1552.85,1733.15 L 1569.72,1744.42 L 1588.46,1752.18 L 1608.36,1756.14 L 1628.65,1756.14 L 1648.54,1752.18 L 1667.29,1744.42 L 1684.16,1733.15 L 1698.5,1718.8 L 1711.31,1699.92 L 1714.19,1697.85 L 1717.61,1696.91 L 1721.15,1697.22 L 1722.82,1697.85 L 1725.7,1699.92 L 1738.5,1718.8 L 1752.85,1733.15 L 1769.72,1744.42 L 1788.46,1752.18 L 1808.36,1756.14 L 1828.65,1756.14 L 1848.54,1752.18 L 1867.29,1744.42 L 1884.16,1733.15 L 1898.5,1718.8 L 1909.77,1701.93 L 1917.54,1683.19 L 1921.5,1663.29 L 1921.5,1643.01 L 1917.54,1623.11 L 1909.77,1604.36 L 1898.5,1587.49 L 1884.16,1573.15 L 1867.29,1561.88 L 1848.54,1554.11 L 1828.65,1550.16 L 1808.36,1550.16 L 1788.46,1554.11 L 1769.72,1561.88 L 1752.85,1573.15 L 1738.5,1587.49 L 1725.7,1606.37 L 1722.82,1608.45 L 1721.15,1609.07 L 1717.61,1609.39 L 1714.19,1608.45 L 1711.31,1606.37 L 1698.5,1587.49 L 1684.16,1573.15 L 1667.29,1561.88 L 1648.54,1554.11 L 1628.65,1550.16 L 1608.36,1550.16 L 1588.46,1554.11 L 1569.72,1561.88 L 1552.85,1573.15 L 1538.5,1587.49 L 1525.7,1606.37 L 1522.82,1608.45 L 1521.15,1609.07 L 1517.61,1609.39 L 1514.19,1608.45 L 1511.31,1606.37 L 1498.5,1587.49 L 1484.16,1573.15 L 1467.29,1561.88 L 1448.54,1554.11 L 1428.65,1550.16 L 1408.36,1550.16 L 1388.46,1554.11 L 1369.72,1561.88 L 1352.85,1573.15 L 1338.5,1587.49 L 1325.7,1606.37 L 1322.82,1608.45 L 1321.15,1609.07 L 1317.61,1609.39 L 1314.19,1608.45 L 1311.31,1606.37 L 1298.5,1587.49 L 1284.16,1573.15 L 1267.29,1561.88 L 1248.54,1554.11 L 1228.65,1550.16 L 1208.36,1550.16 L 1188.46,1554.11 L 1169.72,1561.88 L 1152.85,1573.15 L 1138.5,1587.49 L 1125.7,1606.37 L 1122.82,1608.45 L 1121.15,1609.07 L 1117.61,1609.39 L 1114.19,1608.45 L 1111.31,1606.37 L 1098.5,1587.49 L 1084.16,1573.15 L 1067.29,1561.88 L 1048.54,1554.11 L 1028.65,1550.16 L 1008.36,1550.16 L 988.459,1554.11 L 969.718,1561.88 L 952.85,1573.15 L 938.503,1587.5 L 925.7,1606.37 L 922.82,1608.45 L 921.149,1609.07 L 917.612,1609.39 L 914.188,1608.45 L 911.308,1606.37 L 898.502,1587.49 L 884.156,1573.15 L 867.29,1561.88 L 848.544,1554.11 L 828.646,1550.16 L 808.358,1550.16 L 788.459,1554.11 L 769.718,1561.88 L 752.85,1573.15 L 738.503,1587.5 L 725.7,1606.37 L 722.82,1608.45 L 721.149,1609.07 L 717.612,1609.39 L 714.188,1608.45 L 711.308,1606.37 L 698.502,1587.49 L 684.156,1573.15 L 667.29,1561.88 L 648.544,1554.11 L 628.646,1550.16 L 621.161,1549.96 L 617.556,1548.47 L 614.797,1545.71 L 613.304,1542.11 L 613.304,1538.21 L 614.797,1534.6 L 686.906,1462.22 L 688.1,1461.2 L 690.887,1459.78 L 693.977,1459.29 L 2278.07,1459.29 L 2281.5,1459.58 L 2293.19,1458.43 L 2304.45,1455.01 L 2314.81,1449.47 L 2323.9,1442.01 L 2326.12,1439.39 L 2606.44,1159.07 L 2608.97,1157.23 L 2611.95,1156.26 L 2628.65,1156.14 L 2648.54,1152.18 L 2667.29,1144.42 L 2684.16,1133.15 L 2698.5,1118.8 L 2710.19,1101.31 L 2711.31,1099.92 L 2714.19,1097.85 L 2715.86,1097.22 L 2719.4,1096.91 L 2721.15,1097.22 L 2724.35,1098.76 L 2726.82,1101.31 L 2738.5,1118.8 L 2752.85,1133.15 L 2769.72,1144.42 L 2788.46,1152.18 L 2808.36,1156.14 L 2828.65,1156.14 L 2848.54,1152.18 L 2867.29,1144.42 L 2884.16,1133.15 L 2898.5,1118.8 L 2911.31,1099.92 L 2914.19,1097.85 L 2917.61,1096.91 L 2921.15,1097.22 L 2922.82,1097.85 L 2925.7,1099.92 L 2938.5,1118.8 L 2952.85,1133.15 L 2969.72,1144.42 L 2988.46,1152.18 L 3008.36,1156.14 L 3028.65,1156.14 L 3048.54,1152.18 L 3067.29,1144.42 L 3084.16,1133.15 L 3100.54,1117.01 L 3103.97,1115.52 L 3105.84,1115.28 L 3107.71,1115.4 L 3111.23,1116.66 L 3112.76,1117.76 L 3115.06,1120.7 L 3118.38,1131.52 L 3122.09,1138.47 L 3127.09,1144.56 L 3133.18,1149.56 L 3140.13,1153.27 L 3147.67,1155.56 L 3151.6,1156.12 L 3153.31,1156.79 L 3154.87,1157.77 L 3157.33,1160.48 L 3158.65,1163.89 L 3158.82,1469.09 L 3158.53,1472.52 L 3159.68,1484.22 L 3163.09,1495.47 L 3168.64,1505.84 L 3176.09,1514.93 L 3178.72,1517.14 L 3197.94,1536.37 L 3199.98,1539.31 L 3200.85,1542.78 L 3200.81,1544.58 L 3199.77,1548.01 L 3198.81,1549.53 L 3196.15,1551.93 L 3192.82,1553.25 L 3188.46,1554.11 L 3169.72,1561.88 L 3152.85,1573.15 L 3138.5,1587.49 L 3126.82,1604.98 L 3125.7,1606.37 L 3122.82,1608.45 L 3121.15,1609.07 L 3117.61,1609.39 L 3115.86,1609.07 L 3112.65,1607.54 L 3110.19,1604.98 L 3098.5,1587.49 L 3084.16,1573.15 L 3067.29,1561.88 L 3048.54,1554.11 L 3028.65,1550.16 L 3008.36,1550.16 L 2988.46,1554.11 L 2969.72,1561.88 L 2952.85,1573.15 L 2938.5,1587.5 L 2925.7,1606.37 L 2922.82,1608.45 L 2919.4,1609.39 L 2915.86,1609.07 L 2914.19,1608.45 L 2911.31,1606.37 L 2898.5,1587.49 L 2884.16,1573.15 L 2867.29,1561.88 L 2848.54,1554.11 L 2828.65,1550.16 L 2808.36,1550.16 L 2788.46,1554.11 L 2769.72,1561.88 L 2752.85,1573.15 L 2738.5,1587.5 L 2725.7,1606.37 L 2722.82,1608.45 L 2719.4,1609.39 L 2715.86,1609.07 L 2714.19,1608.45 L 2711.31,1606.37 L 2698.5,1587.49 L 2684.16,1573.15 L 2667.29,1561.88 L 2648.54,1554.11 L 2628.65,1550.16 L 2608.36,1550.16 L 2588.46,1554.11 L 2569.72,1561.88 L 2552.85,1573.15 L 2538.5,1587.5 L 2525.7,1606.37 L 2522.82,1608.45 L 2519.4,1609.39 L 2515.86,1609.07 L 2514.19,1608.45 L 2511.31,1606.37 L 2498.5,1587.49 L 2484.16,1573.15 L 2467.29,1561.88 L 2448.54,1554.11 L 2428.65,1550.16 L 2408.36,1550.16 L 2388.46,1554.11 L 2369.72,1561.88 L 2352.85,1573.15 L 2338.5,1587.49 L 2325.7,1606.37 L 2322.82,1608.45 L 2321.15,1609.07 L 2317.61,1609.39 L 2314.19,1608.45 L 2311.31,1606.37 L 2298.5,1587.49 L 2284.16,1573.15 L 2267.29,1561.88 L 2248.54,1554.11 L 2228.65,1550.16 L 2208.36,1550.16 L 2188.46,1554.11 L 2169.72,1561.88 L 2152.85,1573.15 L 2138.5,1587.49 L 2127.23,1604.36 L 2119.47,1623.11 L 2115.51,1643.01 L 2115.51,1663.29 L 2119.47,1683.19 L 2127.23,1701.93 L 2138.5,1718.8 L 2152.85,1733.15 L 2169.72,1744.42 L 2188.46,1752.18 L 2208.36,1756.14 L 2220.34,1756.26 L 2221.86,1756.63 L 2224.65,1758.05 L 2362.85,1896.08 L 2365.07,1898.71 L 2367.35,1900.8 L 2368.41,1902.33 L 2369.59,1905.82 L 2369.68,1907.67 L 2368.84,1911.27 L 2355.24,1931.63 L 2347.18,1951.09 L 2343.07,1971.75 L 2343.07,1992.81 L 2347.18,2013.47 L 2355.24,2032.93 L 2366.94,2050.45 L 2381.84,2065.34 L 2387.15,2069.05 L 2388.25,2070.26 L 2389.78,2073.14 L 2390.31,2076.35 L 2390.31,2146.8 L 2389.78,2150.01 L 2388.25,2152.89 L 2385.87,2155.11 L 2381.84,2157.81 L 2366.94,2172.7 L 2355.24,2190.22 L 2347.18,2209.67 L 2343.07,2230.33 L 2343.07,2251.4 L 2347.18,2272.06 L 2355.24,2291.52 L 2366.94,2309.03 L 2381.84,2323.92 L 2387.39,2327.86 L 2388.63,2329.38 L 2390.12,2332.98 L 2390.31,2407.9 L 2389.78,2411.12 L 2388.25,2413.99 L 2385.87,2416.22 L 2381.84,2418.91 L 2366.94,2433.81 L 2355.24,2451.32 L 2347.18,2470.77 L 2343.07,2491.44 L 2343.07,2512.5 L 2347.18,2533.16 L 2355.24,2552.62 L 2366.94,2570.13 L 2381.84,2585.02 L 2387.15,2588.74 L 2388.25,2589.95 L 2389.78,2592.82 L 2390.31,2596.03 L 2390.31,2675.62 L 2390.12,2677.57 L 2388.63,2681.17 L 2385.87,2683.93 L 2381.84,2686.63 L 2366.94,2701.52 L 2355.24,2719.03 L 2347.18,2738.49 L 2343.07,2759.15 L 2343.07,2780.21 L 2347.18,2800.87 L 2355.24,2820.33 L 2366.94,2837.85 L 2381.84,2852.74 L 2385.87,2855.44 L 2388.63,2858.2 L 2390.12,2861.8 L 2390.16,2872.35 L 2388.94,2875.65 L 2387.92,2877.09 L 2385.2,2879.32 L 2381.88,2880.47 L 2378.36,2880.4 L 2368.8,2878.5 L 2348.52,2878.5 L 2328.62,2882.46 L 2309.88,2890.22 L 2293,2901.5 L 2278.66,2915.84 L 2267.39,2932.71 L 2259.63,2951.45 L 2255.67,2971.35 L 2255.67,2991.64 L 2259.63,3011.54 L 2267.39,3030.28 L 2278.66,3047.15 L 2293,3061.49 L 2309.88,3072.77 L 2328.62,3080.53 L 2345.32,3084.05 L 2348.56,3086.22 L 2350.73,3089.46 L 2351.49,3093.29 L 2351.3,3164.27 L 2349.8,3167.88 L 2348.56,3169.39 L 2310.88,3207.07 L 2309.37,3208.31 L 2305.76,3209.81 L 2265.8,3210 L 2264.46,3210.28 L 2251.29,3210.28 L 2249.95,3210 L 2148.94,3210 L 2145.11,3209.24 L 2141.87,3207.07 L 2100.72,3165.92 L 2098.82,3163.27 L 2098.22,3161.74 L 2097.8,3158.5 L 2097.87,3137.8 L 2094.04,3118.51 L 2086.51,3100.34 L 2075.58,3083.99 L 2061.68,3070.08 L 2045.33,3059.16 L 2027.15,3051.63 L 2007.86,3047.79 L 1988.2,3047.79 L 1968.91,3051.63 L 1950.74,3059.16 L 1934.38,3070.08 L 1920.48,3083.99 L 1909.55,3100.34 L 1902.03,3118.51 L 1898.19,3137.8 L 1898.19,3157.47 L 1902.03,3176.76 L 1909.55,3194.93 L 1920.48,3211.28 L 1934.38,3225.19 L 1950.74,3236.12 L 1968.91,3243.64 L 1988.2,3247.48 L 2010.53,3247.48 L 2012.13,3247.83 L 2015.07,3249.27 L 2075.45,3309.47 L 2077.67,3312.09 L 2086.76,3319.55 L 2097.12,3325.09 L 2108.38,3328.5 L 2120.08,3329.66 L 2123.5,3329.37 L 2329.25,3329.37 L 2332.68,3329.66 L 2336.82,3329.37 L 2340.24,3329.66 L 2351.95,3328.5 L 2363.2,3325.09 L 2373.57,3319.55 L 2382.65,3312.09 L 2384.87,3309.47 L 2442.05,3252.56 L 2445.66,3251.06 L 2447.61,3250.87 L 2517.23,3250.87 L 2525.56,3250.05 L 2533.1,3247.76 L 2540.05,3244.05 L 2546.14,3239.05 L 2551.13,3232.96 L 2554.85,3226.01 L 2557.14,3218.47 L 2557.69,3214.54 L 2558.37,3212.83 L 2560.58,3209.91 L 2562.05,3208.81 L 2565.47,3207.49 L 2908.78,3207.32 L 2912.2,3207.61 L 2923.9,3206.46 L 2935.15,3203.04 L 2945.52,3197.5 L 2954.61,3190.05 L 2956.83,3187.42 L 3124.05,3020.47 L 3127.66,3018.97 L 3129.61,3018.78 L 3136.32,3019.92 L 3157.38,3019.92 L 3178.04,3015.81 L 3197.5,3007.75 L 3215.01,2996.05 L 3229.91,2981.15 L 3232.6,2977.12 L 3235.36,2974.36 L 3237.09,2973.44 L 3240.92,2972.68 L 3245.22,2972.86 L 3248.74,2974.26 L 3251.48,2976.88 L 3253.05,2980.32 L 3253.23,2984.1 L 3251.99,2987.68 L 2998.04,3427.54 L 2997.04,3428.97 L 2994.38,3431.2 L 2992.8,3431.94 L 2989.38,3432.54 L 1085.43,3432.54 L 1083.69,3432.39 L 1080.43,3431.2 L 1079,3430.2 L 1076.77,3427.54 L 780.811,2914.93 L 777.82,2911.01 L 126.86,1783.51 L 123.982,1776.88 L 123.473,1774.32 z " style="fill-opacity:1.000000;fill:rgb(103,198,105);stroke:rgb(0,0,0);stroke-width:2"/></g>
<g fill-rule="evenodd"><path d="M 251.806,1833.44 L 253.183,1820.34 L 257.252,1807.82 L 263.837,1796.41 L 272.648,1786.63 L 283.302,1778.89 L 295.113,1773.63 L 295.112,1749.92 L 295.355,1746.84 L 296.076,1743.84 L 297.258,1740.99 L 298.872,1738.35 L 300.878,1736 L 651.194,1385.69 L 654.177,1383.24 L 657.58,1381.42 L 661.273,1380.3 L 665.113,1379.92 L 2273.34,1379.92 L 2565.91,1087.35 L 2560.96,1078.77 L 2556.89,1066.25 L 2555.51,1053.15 L 2556.89,1040.05 L 2560.96,1027.53 L 2567.54,1016.12 L 2576.35,1006.34 L 2587.01,998.597 L 2599.04,993.241 L 2611.92,990.503 L 2625.09,990.503 L 2637.97,993.241 L 2650,998.597 L 2660.65,1006.34 L 2669.47,1016.12 L 2676.05,1027.53 L 2680.12,1040.05 L 2681.5,1053.15 L 2680.12,1066.25 L 2676.05,1078.77 L 2669.47,1090.18 L 2660.65,1099.96 L 2650,1107.7 L 2637.97,1113.06 L 2625.09,1115.8 L 2611.92,1115.8 L 2599.04,1113.06 L 2596.85,1112.09 L 2295.41,1413.53 L 2293.07,1415.53 L 2290.43,1417.15 L 2287.58,1418.33 L 2284.57,1419.05 L 2281.5,1419.29 L 673.267,1419.29 L 334.482,1758.08 L 334.482,1773.63 L 346.294,1778.89 L 356.948,1786.63 L 365.76,1796.41 L 372.344,1807.82 L 376.414,1820.34 L 377.79,1833.44 L 376.414,1846.54 L 372.344,1859.06 L 365.76,1870.47 L 356.948,1880.25 L 346.294,1887.99 L 334.264,1893.35 L 321.383,1896.09 L 308.214,1896.09 L 295.333,1893.35 L 283.302,1887.99 L 272.648,1880.25 L 263.837,1870.47 L 257.252,1859.06 L 253.183,1846.54 L 251.806,1833.44 z " style="fill-opacity:1.000000;fill:rgb(115,81,255);stroke:rgb(0,0,0);stroke-width:2"/></g>
<g fill-rule="evenodd"><path d="M 397.626,1773.97 L 399.003,1760.87 L 403.072,1748.35 L 409.657,1736.94 L 418.468,1727.16 L 429.122,1719.42 L 441.153,1714.06 L 454.034,1711.32 L 467.203,1711.32 L 480.084,1714.06 L 488.804,1717.94 L 555.736,1651.01 L 556.888,1640.05 L 560.958,1627.53 L 567.542,1616.12 L 576.354,1606.34 L 587.008,1598.6 L 599.038,1593.24 L 611.919,1590.5 L 625.088,1590.5 L 637.97,1593.24 L 650,1598.6 L 660.654,1606.34 L 669.466,1616.12 L 676.05,1627.53 L 680.12,1640.05 L 681.496,1653.15 L 680.12,1666.25 L 676.05,1678.77 L 669.466,1690.18 L 660.654,1699.96 L 650,1707.7 L 637.97,1713.06 L 625.088,1715.8 L 611.919,1715.8 L 599.038,1713.06 L 587.008,1707.7 L 576.354,1699.96 L 569.773,1692.65 L 516.668,1745.76 L 518.165,1748.35 L 522.234,1760.87 L 523.611,1773.97 L 522.234,1787.07 L 518.165,1799.59 L 511.58,1811 L 502.768,1820.78 L 492.114,1828.52 L 480.084,1833.88 L 467.203,1836.62 L 454.034,1836.62 L 441.153,1833.88 L 429.122,1828.52 L 418.468,1820.78 L 409.657,1811 L 403.072,1799.59 L 399.003,1787.07 L 397.626,1773.97 z " style="fill-opacity:1.000000;fill:rgb(74,236,41);stroke:rgb(0,0,0);stroke-width:2"/></g>
<g fill-rule="evenodd"><path d="M 476.926,2150.32 L 476.926,1905.01 L 477.305,1901.17 L 478.425,1897.48 L 480.244,1894.07 L 482.692,1891.09 L 612.506,1761.28 L 614.855,1759.27 L 617.489,1757.66 L 620.342,1756.47 L 623.346,1755.75 L 626.425,1755.51 L 688.302,1755.51 L 762.453,1681.36 L 760.958,1678.77 L 756.888,1666.25 L 755.512,1653.15 L 756.888,1640.05 L 760.958,1627.53 L 767.542,1616.12 L 776.354,1606.34 L 787.008,1598.6 L 799.038,1593.24 L 811.919,1590.5 L 825.088,1590.5 L 837.97,1593.24 L 850,1598.6 L 860.654,1606.34 L 869.466,1616.12 L 876.05,1627.53 L 880.12,1640.05 L 881.496,1653.15 L 880.12,1666.25 L 876.05,1678.77 L 869.466,1690.18 L 860.654,1699.96 L 850,1707.7 L 837.97,1713.06 L 825.088,1715.8 L 811.919,1715.8 L 799.038,1713.06 L 790.315,1709.17 L 710.375,1789.12 L 707.392,1791.56 L 703.989,1793.38 L 700.296,1794.5 L 696.455,1794.88 L 634.579,1794.88 L 516.296,1913.16 L 516.296,2142.16 L 845.391,2471.26 L 868.298,2471.26 L 870.747,2463.72 L 877.743,2451.6 L 887.105,2441.21 L 898.425,2432.98 L 911.208,2427.29 L 924.894,2424.38 L 938.886,2424.38 L 952.572,2427.29 L 965.354,2432.98 L 976.674,2441.21 L 986.037,2451.6 L 993.033,2463.72 L 997.356,2477.03 L 998.819,2490.94 L 997.356,2504.86 L 993.033,2518.17 L 986.037,2530.28 L 976.674,2540.68 L 965.354,2548.91 L 952.572,2554.6 L 938.886,2557.51 L 924.894,2557.51 L 911.208,2554.6 L 898.425,2548.91 L 887.105,2540.68 L 877.743,2530.28 L 870.747,2518.17 L 868.298,2510.63 L 837.237,2510.63 L 833.397,2510.25 L 829.704,2509.13 L 826.301,2507.31 L 823.318,2504.86 L 482.692,2164.24 L 480.686,2161.89 L 479.072,2159.25 L 477.89,2156.4 L 477.169,2153.4 L 476.926,2150.32 z " style="fill-opacity:1.000000;fill:rgb(205,186,171);stroke:rgb(0,0,0);stroke-width:2"/></g>
<g fill-rule="evenodd"><path d="M 555.512,1053.15 L 556.888,1040.05 L 560.958,1027.53 L 567.542,1016.12 L 576.354,1006.34 L 587.008,998.597 L 598.819,993.338 L 598.818,951.648 L 599.117,948.23 L 600.006,944.915 L 601.456,941.806 L 974.73,295.276 L 976.698,292.465 L 979.124,290.038 L 981.935,288.07 L 985.045,286.62 L 988.359,285.732 L 991.777,285.433 L 1120.09,285.433 L 1123.06,276.294 L 1130.46,263.464 L 1140.38,252.454 L 1152.36,243.746 L 1165.9,237.72 L 1180.39,234.64 L 1195.2,234.64 L 1209.69,237.72 L 1223.23,243.746 L 1235.21,252.454 L 1245.13,263.464 L 1252.53,276.294 L 1257.11,290.384 L 1258.66,305.118 L 1257.11,319.852 L 1252.53,333.942 L 1245.13,346.772 L 1235.21,357.782 L 1223.23,366.49 L 1209.69,372.516 L 1195.2,375.596 L 1180.39,375.596 L 1165.9,372.516 L 1152.36,366.49 L 1140.38,357.782 L 1130.46,346.772 L 1123.06,333.942 L 1120.09,324.803 L 1003.14,324.803 L 638.188,956.923 L 638.188,993.338 L 650,998.597 L 660.654,1006.34 L 669.466,1016.12 L 676.05,1027.53 L 680.12,1040.05 L 681.496,1053.15 L 680.12,1066.25 L 676.05,1078.77 L 669.466,1090.18 L 660.654,1099.96 L 650,1107.7 L 637.97,1113.06 L 625.088,1115.8 L 611.919,1115.8 L 599.038,1113.06 L 587.008,1107.7 L 576.354,1099.96 L 567.542,1090.18 L 560.958,1078.77 L 556.888,1066.25 L 555.512,1053.15 z " style="fill-opacity:1.000000;fill:rgb(242,251,227);stroke:rgb(0,0,0);stroke-width:2"/></g>
<g fill-rule="evenodd"><path d="M 555.666,2051.02 L 555.666,1937.63 L 555.909,1934.55 L 556.63,1931.54 L 557.812,1928.69 L 559.426,1926.06 L 561.432,1923.71 L 622.85,1862.29 L 625.833,1859.84 L 629.236,1858.02 L 632.929,1856.9 L 636.769,1856.52 L 759.967,1856.52 L 914.27,1702.22 L 917.253,1699.77 L 920.656,1697.95 L 924.349,1696.83 L 928.189,1696.46 L 947.358,1696.46 L 962.453,1681.36 L 960.958,1678.77 L 956.888,1666.25 L 955.512,1653.15 L 956.888,1640.05 L 960.958,1627.53 L 967.542,1616.12 L 976.354,1606.34 L 987.008,1598.6 L 999.038,1593.24 L 1011.92,1590.5 L 1025.09,1590.5 L 1037.97,1593.24 L 1050,1598.6 L 1060.65,1606.34 L 1069.47,1616.12 L 1076.05,1627.53 L 1080.12,1640.05 L 1081.5,1653.15 L 1080.12,1666.25 L 1076.05,1678.77 L 1074.55,1681.36 L 1100.27,1707.08 L 1102.28,1709.43 L 1103.89,1712.06 L 1105.08,1714.92 L 1105.8,1717.92 L 1106.04,1721 L 1106.04,1861.16 L 1153.15,1908.26 L 1451.42,1908.27 L 1455.26,1908.64 L 1458.96,1909.76 L 1462.36,1911.58 L 1465.34,1914.03 L 1512.74,1961.42 L 1514.74,1963.77 L 1516.36,1966.41 L 1517.54,1969.26 L 1518.26,1972.26 L 1518.5,1975.34 L 1518.5,2215.07 L 1593.65,2290.22 L 1604.12,2285.56 L 1617.81,2282.65 L 1631.8,2282.65 L 1645.49,2285.56 L 1658.27,2291.25 L 1669.59,2299.47 L 1678.95,2309.87 L 1685.95,2321.99 L 1690.27,2335.3 L 1691.73,2349.21 L 1690.27,2363.13 L 1685.95,2376.44 L 1678.95,2388.55 L 1669.59,2398.95 L 1658.27,2407.17 L 1645.49,2412.87 L 1631.8,2415.78 L 1617.81,2415.78 L 1604.12,2412.87 L 1591.34,2407.17 L 1580.02,2398.95 L 1570.66,2388.55 L 1563.66,2376.44 L 1559.34,2363.13 L 1557.87,2349.21 L 1559.34,2335.3 L 1563.66,2321.99 L 1565.89,2318.13 L 1484.9,2237.15 L 1482.89,2234.8 L 1481.28,2232.16 L 1480.1,2229.31 L 1479.37,2226.31 L 1479.13,2223.23 L 1479.13,1983.5 L 1443.27,1947.64 L 1144.99,1947.64 L 1141.91,1947.39 L 1138.91,1946.67 L 1136.06,1945.49 L 1133.42,1943.88 L 1131.07,1941.87 L 1072.44,1883.23 L 1069.99,1880.25 L 1068.17,1876.84 L 1067.05,1873.15 L 1066.67,1869.31 L 1066.67,1729.15 L 1046.69,1709.18 L 1037.97,1713.06 L 1025.09,1715.8 L 1011.92,1715.8 L 999.038,1713.06 L 990.315,1709.17 L 969.431,1730.06 L 966.448,1732.51 L 963.045,1734.33 L 959.352,1735.45 L 955.511,1735.83 L 936.343,1735.83 L 782.041,1890.13 L 779.058,1892.58 L 775.655,1894.39 L 771.962,1895.51 L 768.121,1895.89 L 644.923,1895.89 L 595.036,1945.78 L 595.036,2042.87 L 829.725,2277.56 L 866.368,2277.56 L 870.747,2263.72 L 877.743,2251.6 L 887.105,2241.21 L 898.425,2232.98 L 911.208,2227.29 L 924.894,2224.38 L 938.886,2224.38 L 952.572,2227.29 L 965.354,2232.98 L 976.674,2241.21 L 986.037,2251.6 L 993.033,2263.72 L 997.356,2277.03 L 998.819,2290.94 L 997.356,2304.86 L 993.033,2318.17 L 986.037,2330.28 L 976.674,2340.68 L 965.354,2348.91 L 952.572,2354.6 L 938.886,2357.51 L 924.894,2357.51 L 911.208,2354.6 L 898.425,2348.91 L 887.105,2340.68 L 877.743,2330.28 L 870.747,2318.17 L 870.345,2316.93 L 821.571,2316.93 L 817.731,2316.55 L 814.038,2315.43 L 810.635,2313.61 L 807.652,2311.16 L 561.432,2064.94 L 559.426,2062.59 L 557.812,2059.96 L 556.63,2057.11 L 555.909,2054.1 L 555.666,2051.02 z " style="fill-opacity:1.000000;fill:rgb(70,124,194);stroke:rgb(0,0,0);stroke-width:2"/></g>
<g fill-rule="evenodd"><path d="M 630.471,1994.32 L 631.847,1981.22 L 635.917,1968.7 L 642.501,1957.29 L 651.313,1947.51 L 661.967,1939.77 L 673.997,1934.41 L 686.879,1931.67 L 700.048,1931.67 L 712.929,1934.41 L 724.959,1939.77 L 735.613,1947.51 L 744.425,1957.29 L 751.009,1968.7 L 755.079,1981.22 L 756.455,1994.32 L 755.079,2007.42 L 751.009,2019.94 L 749.514,2022.53 L 798.241,2071.26 L 868.298,2071.26 L 870.747,2063.72 L 877.743,2051.6 L 887.105,2041.21 L 898.425,2032.98 L 911.208,2027.29 L 924.894,2024.38 L 938.886,2024.38 L 952.572,2027.29 L 965.354,2032.98 L 976.674,2041.21 L 986.037,2051.6 L 993.033,2063.72 L 997.356,2077.03 L 998.819,2090.94 L 997.356,2104.86 L 993.033,2118.17 L 986.037,2130.28 L 976.674,2140.68 L 965.354,2148.91 L 952.572,2154.6 L 938.886,2157.51 L 924.894,2157.51 L 911.208,2154.6 L 898.425,2148.91 L 887.105,2140.68 L 877.743,2130.28 L 870.747,2118.17 L 868.298,2110.63 L 790.087,2110.63 L 786.247,2110.25 L 782.554,2109.13 L 779.151,2107.31 L 776.168,2104.86 L 721.65,2050.35 L 712.929,2054.23 L 700.048,2056.97 L 686.879,2056.97 L 673.997,2054.23 L 661.967,2048.87 L 651.313,2041.13 L 642.501,2031.35 L 635.917,2019.94 L 631.847,2007.42 L 630.471,1994.32 z " style="fill-opacity:1.000000;fill:rgb(84,248,27);stroke:rgb(0,0,0);stroke-width:2"/></g>
<g fill-rule="evenodd"><path d="M 755.512,1053.15 L 756.888,1040.05 L 760.958,1027.53 L 767.542,1016.12 L 776.354,1006.34 L 787.008,998.597 L 799.038,993.241 L 811.919,990.503 L 825.088,990.503 L 837.97,993.241 L 850,998.597 L 860.654,1006.34 L 869.466,1016.12 L 876.05,1027.53 L 880.12,1040.05 L 881.496,1053.15 L 880.12,1066.25 L 876.05,1078.77 L 869.466,1090.18 L 860.654,1099.96 L 850,1107.7 L 837.97,1113.06 L 825.088,1115.8 L 811.919,1115.8 L 799.038,1113.06 L 787.008,1107.7 L 776.354,1099.96 L 767.542,1090.18 L 760.958,1078.77 L 756.888,1066.25 L 755.512,1053.15 z " style="fill-opacity:1.000000;fill:rgb(232,231,141);stroke:rgb(0,0,0);stroke-width:2"/></g>
<g fill-rule="evenodd"><path d="M 856.298,788.582 L 856.298,663.16 L 856.597,659.742 L 857.486,656.427 L 858.936,653.318 L 892.328,595.816 L 934.974,552.934 L 934.252,546.063 L 935.628,532.966 L 939.698,520.442 L 946.282,509.037 L 955.094,499.251 L 965.748,491.51 L 977.778,486.154 L 990.66,483.416 L 1003.83,483.416 L 1016.71,486.154 L 1028.74,491.51 L 1039.39,499.251 L 1048.21,509.037 L 1054.79,520.442 L 1058.86,532.966 L 1060.24,546.063 L 1058.86,559.16 L 1054.79,571.684 L 1048.21,583.089 L 1039.39,592.875 L 1029.05,600.393 L 1225.55,600.393 L 1227.48,594.458 L 1234.06,583.053 L 1242.87,573.266 L 1253.53,565.526 L 1265.56,560.17 L 1278.44,557.432 L 1291.61,557.432 L 1304.49,560.17 L 1316.52,565.526 L 1327.17,573.266 L 1335.98,583.053 L 1342.57,594.458 L 1346.64,606.982 L 1348.01,620.079 L 1346.64,633.176 L 1342.57,645.7 L 1335.98,657.105 L 1327.17,666.891 L 1316.52,674.632 L 1304.49,679.988 L 1291.61,682.726 L 1278.44,682.726 L 1265.56,679.988 L 1253.53,674.632 L 1242.87,666.891 L 1234.06,657.105 L 1227.48,645.7 L 1225.55,639.763 L 1013.78,639.763 L 1009.94,639.385 L 1006.25,638.265 L 1002.84,636.446 L 999.86,633.997 L 967.064,601.202 L 965.748,600.616 L 955.094,592.875 L 953.017,590.568 L 923.697,619.887 L 895.668,668.435 L 895.668,780.428 L 1026.66,911.417 L 1285.43,911.417 L 1289.27,911.795 L 1292.96,912.915 L 1296.37,914.734 L 1299.35,917.183 L 1383.39,1001.22 L 1387.01,998.597 L 1399.04,993.241 L 1411.92,990.503 L 1425.09,990.503 L 1437.97,993.241 L 1450,998.597 L 1460.65,1006.34 L 1469.47,1016.12 L 1476.05,1027.53 L 1480.12,1040.05 L 1481.5,1053.15 L 1480.12,1066.25 L 1476.05,1078.77 L 1469.47,1090.18 L 1460.65,1099.96 L 1450,1107.7 L 1437.97,1113.06 L 1425.09,1115.8 L 1411.92,1115.8 L 1399.04,1113.06 L 1387.01,1107.7 L 1376.35,1099.96 L 1367.54,1090.18 L 1360.96,1078.77 L 1356.89,1066.25 L 1355.51,1053.15 L 1356.89,1040.05 L 1359.26,1032.76 L 1277.28,950.787 L 1018.5,950.787 L 1015.42,950.545 L 1012.42,949.824 L 1009.57,948.642 L 1006.93,947.028 L 1004.58,945.021 L 862.064,802.501 L 859.616,799.518 L 857.797,796.115 L 856.677,792.422 L 856.298,788.582 z " style="fill-opacity:1.000000;fill:rgb(118,90,46);stroke:rgb(0,0,0);stroke-width:2"/></g>
<g fill-rule="evenodd"><path d="M 864.961,2690.94 L 866.423,2677.03 L 870.747,2663.72 L 877.743,2651.6 L 887.105,2641.21 L 898.425,2632.98 L 911.208,2627.29 L 924.894,2624.38 L 938.886,2624.38 L 952.572,2627.29 L 965.354,2632.98 L 976.674,2641.21 L 986.037,2651.6 L 993.033,2663.72 L 997.356,2677.03 L 998.819,2690.94 L 997.356,2704.86 L 993.033,2718.17 L 986.037,2730.28 L 976.674,2740.68 L 965.354,2748.91 L 952.572,2754.6 L 946.849,2755.81 L 946.848,2777.28 L 1191.23,3021.65 L 1273.62,3021.65 L 1273.62,3127.95 L 1538.19,3127.95 L 1538.19,3087.8 L 1657.87,3087.8 L 1657.87,3207.48 L 1538.19,3207.48 L 1538.19,3167.32 L 1242.13,3167.32 L 1238.29,3166.94 L 1234.59,3165.82 L 1231.19,3164 L 1228.21,3161.56 L 1214.29,3147.64 L 1147.64,3147.64 L 1147.64,3033.74 L 913.244,2799.35 L 911.238,2797 L 909.624,2794.37 L 908.442,2791.52 L 907.721,2788.51 L 907.478,2785.43 L 907.478,2752.94 L 898.425,2748.91 L 887.105,2740.68 L 877.743,2730.28 L 870.747,2718.17 L 866.423,2704.86 L 864.961,2690.94 z " style="fill-opacity:1.000000;fill:rgb(99,51,159);stroke:rgb(0,0,0);stroke-width:2"/></g>
<g fill-rule="evenodd"><path d="M 905.253,1851.07 L 906.63,1837.98 L 910.699,1825.45 L 917.283,1814.05 L 926.095,1804.26 L 936.749,1796.52 L 948.779,1791.16 L 961.661,1788.43 L 974.83,1788.43 L 987.711,1791.16 L 999.741,1796.52 L 1010.4,1804.26 L 1019.21,1814.05 L 1025.79,1825.45 L 1029.86,1837.98 L 1031.24,1851.07 L 1029.86,1864.17 L 1025.79,1876.69 L 1019.21,1888.1 L 1010.4,1897.89 L 999.741,1905.63 L 987.929,1910.88 L 987.928,1926.43 L 1096.14,2034.64 L 1098.43,2032.98 L 1111.21,2027.29 L 1124.89,2024.38 L 1138.89,2024.38 L 1152.57,2027.29 L 1163.04,2031.95 L 1196.8,1998.19 L 1199.78,1995.74 L 1203.19,1993.93 L 1206.88,1992.81 L 1210.72,1992.43 L 1376.07,1992.43 L 1379.91,1992.81 L 1383.6,1993.93 L 1387,1995.74 L 1389.98,1998.19 L 1434,2042.2 L 1436,2044.55 L 1437.62,2047.19 L 1438.8,2050.04 L 1439.52,2053.04 L 1439.76,2056.12 L 1439.76,2278.97 L 1439.52,2282.05 L 1438.8,2285.05 L 1437.62,2287.91 L 1436,2290.54 L 1434,2292.89 L 1370.64,2356.24 L 1370.64,2452.88 L 1573.28,2655.51 L 1706.41,2655.51 L 1757.87,2604.05 L 1757.87,2482.28 L 1891.73,2482.28 L 1891.73,2616.14 L 1801.46,2616.14 L 1728.48,2689.12 L 1725.5,2691.56 L 1722.1,2693.38 L 1718.41,2694.5 L 1714.57,2694.88 L 1565.12,2694.88 L 1561.28,2694.5 L 1557.59,2693.38 L 1554.19,2691.56 L 1551.2,2689.12 L 1337.03,2474.95 L 1335.03,2472.6 L 1333.41,2469.97 L 1332.23,2467.11 L 1331.51,2464.11 L 1331.27,2461.03 L 1331.27,2348.09 L 1331.51,2345.01 L 1332.23,2342.01 L 1333.41,2339.15 L 1335.03,2336.52 L 1337.03,2334.17 L 1400.39,2270.81 L 1400.39,2064.28 L 1367.91,2031.8 L 1218.88,2031.8 L 1190.81,2059.87 L 1193.03,2063.72 L 1197.36,2077.03 L 1198.82,2090.94 L 1197.36,2104.86 L 1193.03,2118.17 L 1186.04,2130.28 L 1176.67,2140.68 L 1165.35,2148.91 L 1152.57,2154.6 L 1138.89,2157.51 L 1124.89,2157.51 L 1111.21,2154.6 L 1098.43,2148.91 L 1087.11,2140.68 L 1077.74,2130.28 L 1070.75,2118.17 L 1066.42,2104.86 L 1064.96,2090.94 L 1066.42,2077.03 L 1070.45,2064.63 L 954.324,1948.51 L 952.318,1946.16 L 950.704,1943.52 L 949.522,1940.67 L 948.801,1937.67 L 948.558,1934.59 L 948.558,1910.88 L 936.749,1905.63 L 926.095,1897.89 L 917.283,1888.1 L 910.699,1876.69 L 906.63,1864.17 L 905.253,1851.07 z " style="fill-opacity:1.000000;fill:rgb(201,154,102);stroke:rgb(0,0,0);stroke-width:2"/></g>
<g fill-rule="evenodd"><path d="M 934.252,746.063 L 935.628,732.966 L 939.698,720.442 L 946.282,709.037 L 955.094,699.251 L 965.748,691.51 L 977.778,686.154 L 990.66,683.416 L 1003.83,683.416 L 1016.71,686.154 L 1028.74,691.51 L 1039.39,699.251 L 1048.21,709.037 L 1054.79,720.442 L 1056.72,726.377 L 1311.42,726.377 L 1315.26,726.755 L 1318.95,727.875 L 1322.35,729.695 L 1325.33,732.143 L 1590.32,997.124 L 1599.04,993.241 L 1611.92,990.503 L 1625.09,990.503 L 1636.67,992.965 L 1820.86,808.774 L 1820.86,798 L 1809.06,792.742 L 1798.4,785.001 L 1789.59,775.215 L 1783.01,763.81 L 1778.94,751.286 L 1777.56,738.189 L 1778.94,725.092 L 1783.01,712.568 L 1789.59,701.163 L 1798.4,691.377 L 1809.06,683.636 L 1821.09,678.28 L 1833.97,675.542 L 1847.14,675.542 L 1860.02,678.28 L 1872.05,683.636 L 1882.7,691.377 L 1891.51,701.163 L 1898.1,712.568 L 1902.17,725.092 L 1903.54,738.189 L 1902.17,751.286 L 1898.1,763.81 L 1891.51,775.215 L 1882.7,785.001 L 1872.05,792.742 L 1860.23,798.001 L 1860.23,816.928 L 1859.99,820.007 L 1859.27,823.011 L 1858.09,825.865 L 1856.47,828.499 L 1854.47,830.847 L 1669.34,1015.98 L 1676.05,1027.53 L 1680.12,1040.05 L 1681.5,1053.15 L 1680.12,1066.25 L 1676.05,1078.77 L 1669.47,1090.18 L 1660.65,1099.96 L 1650,1107.7 L 1637.97,1113.06 L 1625.09,1115.8 L 1611.92,1115.8 L 1599.04,1113.06 L 1587.01,1107.7 L 1576.35,1099.96 L 1567.54,1090.18 L 1560.96,1078.77 L 1556.89,1066.25 L 1555.51,1053.15 L 1556.89,1040.05 L 1560.96,1027.53 L 1562.45,1024.94 L 1303.26,765.747 L 1056.72,765.747 L 1054.79,771.684 L 1048.21,783.089 L 1039.39,792.875 L 1028.74,800.616 L 1016.71,805.972 L 1003.83,808.71 L 990.66,808.71 L 977.778,805.972 L 965.748,800.616 L 955.094,792.875 L 946.282,783.089 L 939.698,771.684 L 935.628,759.16 L 934.252,746.063 z " style="fill-opacity:1.000000;fill:rgb(50,13,183);stroke:rgb(0,0,0);stroke-width:2"/></g>
<g fill-rule="evenodd"><path d="M 955.512,1053.15 L 956.888,1040.05 L 960.958,1027.53 L 967.542,1016.12 L 976.354,1006.34 L 987.008,998.597 L 999.038,993.241 L 1011.92,990.503 L 1025.09,990.503 L 1037.97,993.241 L 1050,998.597 L 1060.65,1006.34 L 1069.47,1016.12 L 1076.05,1027.53 L 1080.12,1040.05 L 1081.5,1053.15 L 1080.12,1066.25 L 1076.05,1078.77 L 1069.47,1090.18 L 1060.65,1099.96 L 1050,1107.7 L 1037.97,1113.06 L 1025.09,1115.8 L 1011.92,1115.8 L 999.038,1113.06 L 987.008,1107.7 L 976.354,1099.96 L 967.542,1090.18 L 960.958,1078.77 L 956.888,1066.25 L 955.512,1053.15 z " style="fill-opacity:1.000000;fill:rgb(49,88,163);stroke:rgb(0,0,0);stroke-width:2"/></g>
<g fill-rule="evenodd"><path d="M 1064.96,2490.94 L 1066.42,2477.03 L 1070.75,2463.72 L 1077.74,2451.6 L 1087.11,2441.21 L 1098.43,2432.98 L 1111.21,2427.29 L 1124.89,2424.38 L 1138.89,2424.38 L 1152.57,2427.29 L 1165.35,2432.98 L 1176.67,2441.21 L 1186.04,2451.6 L 1193.03,2463.72 L 1197.36,2477.03 L 1198.82,2490.94 L 1197.36,2504.86 L 1193.03,2518.17 L 1190.81,2522.02 L 1206.97,2538.19 L 1218.55,2538.19 L 1222.39,2538.57 L 1226.08,2539.69 L 1229.49,2541.5 L 1232.47,2543.95 L 1372.58,2684.06 L 1375.03,2687.05 L 1376.85,2690.45 L 1377.97,2694.14 L 1378.35,2697.98 L 1378.35,2721.69 L 1390.16,2726.95 L 1400.81,2734.69 L 1409.62,2744.47 L 1416.21,2755.88 L 1420.28,2768.4 L 1421.65,2781.5 L 1420.28,2794.6 L 1416.21,2807.12 L 1409.62,2818.52 L 1400.81,2828.31 L 1390.16,2836.05 L 1378.13,2841.41 L 1365.25,2844.15 L 1352.08,2844.15 L 1339.2,2841.41 L 1327.17,2836.05 L 1316.51,2828.31 L 1307.7,2818.52 L 1301.12,2807.12 L 1297.05,2794.6 L 1295.67,2781.5 L 1297.05,2768.4 L 1301.12,2755.88 L 1307.7,2744.47 L 1316.51,2734.69 L 1327.17,2726.95 L 1338.98,2721.69 L 1338.98,2706.14 L 1210.4,2577.56 L 1198.82,2577.56 L 1194.98,2577.18 L 1191.28,2576.06 L 1187.88,2574.24 L 1184.9,2571.79 L 1163.04,2549.94 L 1152.57,2554.6 L 1138.89,2557.51 L 1124.89,2557.51 L 1111.21,2554.6 L 1098.43,2548.91 L 1087.11,2540.68 L 1077.74,2530.28 L 1070.75,2518.17 L 1066.42,2504.86 L 1064.96,2490.94 z " style="fill-opacity:1.000000;fill:rgb(90,37,93);stroke:rgb(0,0,0);stroke-width:2"/></g>
<g fill-rule="evenodd"><path d="M 1064.96,2290.94 L 1066.42,2277.03 L 1070.75,2263.72 L 1077.74,2251.6 L 1087.11,2241.21 L 1098.43,2232.98 L 1111.21,2227.29 L 1124.89,2224.38 L 1138.89,2224.38 L 1152.57,2227.29 L 1165.35,2232.98 L 1176.67,2241.21 L 1186.04,2251.6 L 1193.03,2263.72 L 1197.36,2277.03 L 1198.82,2290.94 L 1197.36,2304.86 L 1193.03,2318.17 L 1190.81,2322.02 L 1252.53,2383.74 L 1252.53,2315.47 L 1252.77,2312.39 L 1253.49,2309.39 L 1254.67,2306.54 L 1256.29,2303.9 L 1258.29,2301.55 L 1282.28,2277.57 L 1282.28,2216.41 L 1270.47,2211.15 L 1259.82,2203.41 L 1251,2193.63 L 1244.42,2182.22 L 1240.35,2169.7 L 1238.97,2156.6 L 1240.35,2143.5 L 1244.42,2130.98 L 1251,2119.57 L 1259.82,2109.79 L 1270.47,2102.05 L 1282.5,2096.69 L 1295.38,2093.95 L 1308.55,2093.95 L 1321.43,2096.69 L 1333.46,2102.05 L 1344.12,2109.79 L 1352.93,2119.57 L 1359.51,2130.98 L 1363.58,2143.5 L 1364.96,2156.6 L 1363.58,2169.7 L 1359.51,2182.22 L 1352.93,2193.63 L 1344.12,2203.41 L 1333.46,2211.15 L 1321.65,2216.41 L 1321.65,2285.72 L 1321.41,2288.8 L 1320.69,2291.8 L 1319.5,2294.66 L 1317.89,2297.29 L 1315.88,2299.64 L 1291.9,2323.63 L 1291.9,2485.94 L 1540.21,2734.25 L 1860.27,2734.25 L 1938.98,2655.55 L 1938.98,2376.26 L 1926.88,2364.17 L 1889.93,2364.17 L 1885.95,2376.44 L 1878.95,2388.55 L 1869.59,2398.95 L 1858.27,2407.17 L 1845.49,2412.87 L 1831.8,2415.78 L 1817.81,2415.78 L 1804.12,2412.87 L 1791.34,2407.17 L 1780.02,2398.95 L 1770.66,2388.55 L 1763.66,2376.44 L 1759.34,2363.13 L 1757.87,2349.21 L 1759.34,2335.3 L 1763.66,2321.99 L 1770.66,2309.87 L 1780.02,2299.47 L 1791.34,2291.25 L 1804.12,2285.56 L 1817.81,2282.65 L 1831.8,2282.65 L 1845.49,2285.56 L 1858.27,2291.25 L 1869.59,2299.47 L 1878.95,2309.87 L 1885.95,2321.99 L 1886.86,2324.8 L 1935.04,2324.8 L 1938.12,2325.04 L 1941.12,2325.76 L 1943.97,2326.95 L 1946.61,2328.56 L 1948.96,2330.57 L 1972.58,2354.19 L 1975.03,2357.17 L 1976.85,2360.58 L 1977.97,2364.27 L 1978.35,2368.11 L 1978.35,2663.7 L 1978.1,2666.78 L 1977.38,2669.78 L 1976.2,2672.64 L 1974.59,2675.27 L 1972.58,2677.62 L 1882.34,2767.86 L 1879.36,2770.3 L 1875.96,2772.12 L 1872.26,2773.24 L 1868.42,2773.62 L 1532.06,2773.62 L 1528.22,2773.24 L 1524.53,2772.12 L 1521.12,2770.3 L 1518.14,2767.86 L 1258.29,2508.01 L 1256.29,2505.66 L 1254.67,2503.03 L 1253.49,2500.18 L 1252.77,2497.17 L 1252.53,2494.09 L 1252.53,2439.42 L 1163.04,2349.94 L 1152.57,2354.6 L 1138.89,2357.51 L 1124.89,2357.51 L 1111.21,2354.6 L 1098.43,2348.91 L 1087.11,2340.68 L 1077.74,2330.28 L 1070.75,2318.17 L 1066.42,2304.86 L 1064.96,2290.94 z " style="fill-opacity:1.000000;fill:rgb(5,23,88);stroke:rgb(0,0,0);stroke-width:2"/></g>
<g fill-rule="evenodd"><path d="M 1141.47,1808.19 L 1142.85,1795.09 L 1146.92,1782.56 L 1153.5,1771.16 L 1162.32,1761.37 L 1172.97,1753.63 L 1185,1748.28 L 1198.82,1745.54 L 1198.82,1712.96 L 1187.01,1707.7 L 1176.35,1699.96 L 1167.54,1690.18 L 1160.96,1678.77 L 1156.89,1666.25 L 1155.51,1653.15 L 1156.89,1640.05 L 1160.96,1627.53 L 1167.54,1616.12 L 1176.35,1606.34 L 1187.01,1598.6 L 1199.04,1593.24 L 1211.92,1590.5 L 1225.09,1590.5 L 1237.97,1593.24 L 1250,1598.6 L 1260.65,1606.34 L 1269.47,1616.12 L 1276.05,1627.53 L 1280.12,1640.05 L 1281.5,1653.15 L 1280.12,1666.25 L 1276.05,1678.77 L 1269.47,1690.18 L 1260.65,1699.96 L 1250,1707.7 L 1238.19,1712.96 L 1238.19,1755.25 L 1246.62,1761.37 L 1255.43,1771.16 L 1262.01,1782.56 L 1266.08,1795.09 L 1267.46,1808.19 L 1266.08,1821.28 L 1262.01,1833.81 L 1255.43,1845.21 L 1246.62,1855 L 1235.96,1862.74 L 1223.93,1868.1 L 1211.05,1870.83 L 1197.88,1870.83 L 1185,1868.1 L 1172.97,1862.74 L 1162.32,1855 L 1153.5,1845.21 L 1146.92,1833.81 L 1142.85,1821.28 L 1141.47,1808.19 z " style="fill-opacity:1.000000;fill:rgb(233,94,212);stroke:rgb(0,0,0);stroke-width:2"/></g>
<g fill-rule="evenodd"><path d="M 1155.51,1053.15 L 1156.89,1040.05 L 1160.96,1027.53 L 1167.54,1016.12 L 1176.35,1006.34 L 1187.01,998.597 L 1199.04,993.241 L 1211.92,990.503 L 1225.09,990.503 L 1237.97,993.241 L 1250,998.597 L 1260.65,1006.34 L 1269.47,1016.12 L 1276.05,1027.53 L 1280.12,1040.05 L 1281.5,1053.15 L 1280.12,1066.25 L 1276.05,1078.77 L 1269.47,1090.18 L 1260.65,1099.96 L 1250,1107.7 L 1237.97,1113.06 L 1225.09,1115.8 L 1211.92,1115.8 L 1199.04,1113.06 L 1187.01,1107.7 L 1176.35,1099.96 L 1167.54,1090.18 L 1160.96,1078.77 L 1156.89,1066.25 L 1155.51,1053.15 z " style="fill-opacity:1.000000;fill:rgb(171,178,205);stroke:rgb(0,0,0);stroke-width:2"/></g>
<g fill-rule="evenodd"><path d="M 1298.95,1809.84 L 1300.32,1796.74 L 1304.39,1784.22 L 1310.98,1772.81 L 1319.79,1763.03 L 1330.44,1755.29 L 1342.47,1749.93 L 1355.35,1747.19 L 1368.52,1747.19 L 1381.4,1749.93 L 1390.12,1753.81 L 1398.82,1745.12 L 1398.82,1712.96 L 1387.01,1707.7 L 1376.35,1699.96 L 1367.54,1690.18 L 1360.96,1678.77 L 1356.89,1666.25 L 1355.51,1653.15 L 1356.89,1640.05 L 1360.96,1627.53 L 1367.54,1616.12 L 1376.35,1606.34 L 1387.01,1598.6 L 1399.04,1593.24 L 1411.92,1590.5 L 1425.09,1590.5 L 1437.97,1593.24 L 1450,1598.6 L 1460.65,1606.34 L 1469.47,1616.12 L 1476.05,1627.53 L 1480.12,1640.05 L 1481.5,1653.15 L 1480.12,1666.25 L 1476.05,1678.77 L 1469.47,1690.18 L 1460.65,1699.96 L 1450,1707.7 L 1438.19,1712.96 L 1438.19,1753.27 L 1437.95,1756.35 L 1437.23,1759.36 L 1436.04,1762.21 L 1434.43,1764.84 L 1432.42,1767.19 L 1417.99,1781.63 L 1419.48,1784.22 L 1423.55,1796.74 L 1424.93,1809.84 L 1423.55,1822.94 L 1419.48,1835.46 L 1412.9,1846.86 L 1404.09,1856.65 L 1393.43,1864.39 L 1381.4,1869.75 L 1368.52,1872.49 L 1355.35,1872.49 L 1342.47,1869.75 L 1330.44,1864.39 L 1319.79,1856.65 L 1310.98,1846.86 L 1304.39,1835.46 L 1300.32,1822.94 L 1298.95,1809.84 z " style="fill-opacity:1.000000;fill:rgb(198,155,180);stroke:rgb(0,0,0);stroke-width:2"/></g>
<g fill-rule="evenodd"><path d="M 1316.93,375.984 L 1316.93,234.252 L 1458.66,234.252 L 1458.66,285.433 L 1622.97,285.433 L 1626.42,274.826 L 1632.18,264.846 L 1639.89,256.283 L 1649.21,249.51 L 1659.74,244.824 L 1671.01,242.428 L 1682.53,242.428 L 1693.8,244.824 L 1704.33,249.51 L 1713.65,256.283 L 1721.36,264.846 L 1727.12,274.826 L 1730.69,285.784 L 1731.89,297.244 L 1730.69,308.704 L 1727.12,319.663 L 1721.36,329.642 L 1713.65,338.205 L 1704.33,344.978 L 1693.8,349.665 L 1682.53,352.06 L 1671.01,352.06 L 1659.74,349.665 L 1649.21,344.978 L 1639.89,338.205 L 1632.18,329.642 L 1629.39,324.803 L 1458.66,324.803 L 1458.66,375.984 L 1316.93,375.984 z " style="fill-opacity:1.000000;fill:rgb(84,17,14);stroke:rgb(0,0,0);stroke-width:2"/></g>
<g fill-rule="evenodd"><path d="M 1406.08,2404.8 L 1407.46,2391.7 L 1411.52,2379.18 L 1418.11,2367.77 L 1426.92,2357.99 L 1437.57,2350.24 L 1449.61,2344.89 L 1462.49,2342.15 L 1475.66,2342.15 L 1488.54,2344.89 L 1500.57,2350.24 L 1511.22,2357.99 L 1520.03,2367.77 L 1526.62,2379.18 L 1530.69,2391.7 L 1532.06,2404.8 L 1530.69,2417.89 L 1528.39,2424.96 L 1593.65,2490.22 L 1604.12,2485.56 L 1617.81,2482.65 L 1631.8,2482.65 L 1645.49,2485.56 L 1658.27,2491.25 L 1669.59,2499.47 L 1678.95,2509.87 L 1685.95,2521.99 L 1690.27,2535.3 L 1691.73,2549.21 L 1690.27,2563.13 L 1685.95,2576.44 L 1678.95,2588.55 L 1669.59,2598.95 L 1658.27,2607.17 L 1645.49,2612.87 L 1631.8,2615.78 L 1617.81,2615.78 L 1604.12,2612.87 L 1591.34,2607.17 L 1580.02,2598.95 L 1570.66,2588.55 L 1563.66,2576.44 L 1559.34,2563.13 L 1557.87,2549.21 L 1559.34,2535.3 L 1563.66,2521.99 L 1565.89,2518.13 L 1504.35,2456.6 L 1500.57,2459.35 L 1488.54,2464.71 L 1475.66,2467.44 L 1462.49,2467.44 L 1449.61,2464.71 L 1437.57,2459.35 L 1426.92,2451.61 L 1418.11,2441.82 L 1411.52,2430.42 L 1407.46,2417.89 L 1406.08,2404.8 z " style="fill-opacity:1.000000;fill:rgb(130,116,65);stroke:rgb(0,0,0);stroke-width:2"/></g>
<g fill-rule="evenodd"><path d="M 1555.51,1653.15 L 1556.89,1640.05 L 1560.96,1627.53 L 1567.54,1616.12 L 1576.35,1606.34 L 1587.01,1598.6 L 1599.04,1593.24 L 1611.92,1590.5 L 1625.09,1590.5 L 1637.97,1593.24 L 1650,1598.6 L 1660.65,1606.34 L 1669.47,1616.12 L 1676.05,1627.53 L 1680.12,1640.05 L 1681.5,1653.15 L 1680.12,1666.25 L 1676.05,1678.77 L 1669.47,1690.18 L 1660.65,1699.96 L 1650,1707.7 L 1637.97,1713.06 L 1625.09,1715.8 L 1611.92,1715.8 L 1599.04,1713.06 L 1587.01,1707.7 L 1576.35,1699.96 L 1567.54,1690.18 L 1560.96,1678.77 L 1556.89,1666.25 L 1555.51,1653.15 z " style="fill-opacity:1.000000;fill:rgb(33,61,220);stroke:rgb(0,0,0);stroke-width:2"/></g>
<g fill-rule="evenodd"><path d="M 1755.51,1653.15 L 1756.89,1640.05 L 1760.96,1627.53 L 1767.54,1616.12 L 1776.35,1606.34 L 1787.01,1598.6 L 1799.04,1593.24 L 1811.92,1590.5 L 1825.09,1590.5 L 1837.97,1593.24 L 1850,1598.6 L 1860.65,1606.34 L 1869.47,1616.12 L 1876.05,1627.53 L 1880.12,1640.05 L 1881.5,1653.15 L 1880.12,1666.25 L 1876.05,1678.77 L 1869.47,1690.18 L 1860.65,1699.96 L 1850,1707.7 L 1837.97,1713.06 L 1825.09,1715.8 L 1811.92,1715.8 L 1799.04,1713.06 L 1787.01,1707.7 L 1776.35,1699.96 L 1767.54,1690.18 L 1760.96,1678.77 L 1756.89,1666.25 L 1755.51,1653.15 z " style="fill-opacity:1.000000;fill:rgb(135,112,233);stroke:rgb(0,0,0);stroke-width:2"/></g>
<g fill-rule="evenodd"><path d="M 1757.87,2149.21 L 1759.34,2135.3 L 1763.66,2121.99 L 1770.66,2109.87 L 1780.02,2099.47 L 1791.34,2091.25 L 1804.12,2085.56 L 1817.81,2082.65 L 1831.8,2082.65 L 1845.49,2085.56 L 1858.27,2091.25 L 1859.52,2092.16 L 1941.98,2009.71 L 1940.48,2007.12 L 1936.41,1994.59 L 1935.04,1981.5 L 1936.41,1968.4 L 1940.48,1955.87 L 1947.07,1944.47 L 1955.88,1934.68 L 1966.53,1926.94 L 1978.56,1921.59 L 1991.45,1918.85 L 2004.61,1918.85 L 2017.5,1921.59 L 2029.53,1926.94 L 2040.18,1934.68 L 2048.99,1944.47 L 2055.58,1955.87 L 2059.65,1968.4 L 2061.02,1981.5 L 2059.65,1994.59 L 2055.58,2007.12 L 2048.99,2018.52 L 2040.18,2028.31 L 2029.53,2036.05 L 2017.5,2041.41 L 2004.61,2044.14 L 1991.45,2044.14 L 1978.56,2041.41 L 1969.84,2037.52 L 1885.74,2121.63 L 1890.27,2135.3 L 1891.73,2149.21 L 1890.27,2163.13 L 1885.95,2176.44 L 1878.95,2188.55 L 1869.59,2198.95 L 1858.27,2207.17 L 1845.49,2212.87 L 1831.8,2215.78 L 1817.81,2215.78 L 1804.12,2212.87 L 1791.34,2207.17 L 1780.02,2198.95 L 1770.66,2188.55 L 1763.66,2176.44 L 1759.34,2163.13 L 1757.87,2149.21 z " style="fill-opacity:1.000000;fill:rgb(62,161,65);stroke:rgb(0,0,0);stroke-width:2"/></g>
<g fill-rule="evenodd"><path d="M 1938.19,3147.64 L 1939.5,3135.2 L 1943.36,3123.3 L 1949.62,3112.46 L 1957.99,3103.17 L 1968.11,3095.81 L 1979.54,3090.72 L 1991.78,3088.12 L 2004.29,3088.12 L 2016.52,3090.72 L 2027.95,3095.81 L 2038.07,3103.17 L 2046.45,3112.46 L 2052.7,3123.3 L 2056.57,3135.2 L 2057.87,3147.64 L 2056.57,3160.08 L 2052.7,3171.98 L 2051.79,3173.56 L 2128.23,3250 L 2324.52,3250 L 2391.73,3182.79 L 2391.73,3084.65 L 2430.31,3084.65 L 2430.31,3001.18 L 2418.14,3001.18 L 2416.21,3007.12 L 2409.62,3018.52 L 2400.81,3028.31 L 2390.16,3036.05 L 2378.13,3041.41 L 2365.25,3044.14 L 2352.08,3044.14 L 2339.2,3041.41 L 2327.17,3036.05 L 2316.51,3028.31 L 2307.7,3018.52 L 2301.12,3007.12 L 2297.05,2994.59 L 2295.67,2981.5 L 2297.05,2968.4 L 2301.12,2955.87 L 2307.7,2944.47 L 2316.51,2934.68 L 2327.17,2926.94 L 2339.2,2921.59 L 2352.08,2918.85 L 2365.25,2918.85 L 2378.13,2921.59 L 2390.16,2926.94 L 2400.81,2934.68 L 2409.62,2944.47 L 2416.21,2955.87 L 2418.14,2961.81 L 2430.31,2961.81 L 2430.31,2833.55 L 2416.54,2827.65 L 2405.22,2819.42 L 2395.85,2809.02 L 2388.86,2796.91 L 2384.53,2783.6 L 2383.07,2769.69 L 2384.53,2755.77 L 2388.86,2742.46 L 2395.85,2730.35 L 2405.22,2719.95 L 2416.54,2711.72 L 2430.31,2705.82 L 2430.31,2565.83 L 2416.54,2559.93 L 2405.22,2551.71 L 2395.85,2541.31 L 2388.86,2529.19 L 2384.53,2515.88 L 2383.07,2501.97 L 2384.53,2488.05 L 2388.86,2474.75 L 2395.85,2462.63 L 2405.22,2452.23 L 2416.54,2444.01 L 2430.31,2438.1 L 2430.31,2304.73 L 2416.54,2298.83 L 2405.22,2290.6 L 2395.85,2280.21 L 2388.86,2268.09 L 2384.53,2254.78 L 2383.07,2240.87 L 2384.53,2226.95 L 2388.86,2213.64 L 2395.85,2201.53 L 2405.22,2191.13 L 2416.54,2182.9 L 2430.31,2177 L 2430.31,2046.15 L 2416.54,2040.25 L 2405.22,2032.02 L 2395.85,2021.62 L 2388.86,2009.51 L 2384.53,1996.2 L 2383.07,1982.28 L 2384.53,1968.37 L 2388.86,1955.06 L 2395.85,1942.94 L 2405.22,1932.55 L 2416.54,1924.32 L 2429.32,1918.63 L 2443,1915.72 L 2457,1915.72 L 2470.68,1918.63 L 2483.46,1924.32 L 2494.78,1932.55 L 2504.15,1942.94 L 2511.14,1955.06 L 2515.47,1968.37 L 2516.93,1982.28 L 2515.47,1996.2 L 2511.14,2009.51 L 2504.15,2021.62 L 2494.78,2032.02 L 2483.46,2040.25 L 2469.68,2046.15 L 2469.68,2177 L 2483.46,2182.9 L 2494.78,2191.13 L 2504.15,2201.53 L 2511.14,2213.64 L 2515.47,2226.95 L 2516.93,2240.87 L 2515.47,2254.78 L 2511.14,2268.09 L 2504.15,2280.21 L 2494.78,2290.6 L 2483.46,2298.83 L 2469.68,2304.73 L 2469.68,2438.1 L 2483.46,2444.01 L 2494.78,2452.23 L 2504.15,2462.63 L 2511.14,2474.75 L 2515.47,2488.05 L 2516.93,2501.97 L 2515.47,2515.88 L 2511.14,2529.19 L 2504.15,2541.31 L 2494.78,2551.71 L 2483.46,2559.93 L 2469.68,2565.83 L 2469.68,2705.82 L 2483.46,2711.72 L 2494.78,2719.95 L 2504.15,2730.35 L 2511.14,2742.46 L 2515.47,2755.77 L 2516.93,2769.69 L 2515.47,2783.6 L 2511.14,2796.91 L 2504.15,2809.02 L 2494.78,2819.42 L 2483.46,2827.65 L 2469.68,2833.55 L 2469.68,3084.65 L 2517.72,3084.65 L 2517.72,3127.95 L 2904.05,3127.95 L 3087.93,2944.07 L 3085.71,2940.21 L 3081.38,2926.91 L 3079.92,2912.99 L 3081.38,2899.08 L 3085.71,2885.77 L 3092.7,2873.65 L 3102.07,2863.25 L 3113.39,2855.03 L 3126.17,2849.34 L 3139.85,2846.43 L 3153.85,2846.43 L 3167.53,2849.34 L 3180.31,2855.03 L 3191.63,2863.25 L 3201,2873.65 L 3207.99,2885.77 L 3210.44,2893.31 L 3261.74,2893.31 L 3908.16,1773.67 L 3206.99,559.201 L 3202.35,564.347 L 3191.7,572.088 L 3179.67,577.444 L 3166.79,580.182 L 3153.62,580.182 L 3140.74,577.444 L 3128.71,572.088 L 3118.05,564.347 L 3109.24,554.561 L 3102.66,543.156 L 3098.59,530.632 L 3097.21,517.535 L 3098.59,504.438 L 3102.66,491.914 L 3109.24,480.509 L 3118.05,470.723 L 3128.71,462.982 L 3140.74,457.626 L 3153.62,454.888 L 3166.79,454.888 L 3179.67,457.626 L 3191.7,462.982 L 3202.35,470.723 L 3211.16,480.509 L 3217.75,491.914 L 3221.82,504.438 L 3222.06,506.769 L 3947.94,1763.83 L 3949.39,1766.94 L 3950.28,1770.25 L 3950.58,1773.67 L 3950.28,1777.09 L 3949.39,1780.4 L 3947.94,1783.51 L 3290.16,2922.83 L 3288.19,2925.65 L 3285.76,2928.07 L 3282.95,2930.04 L 3279.84,2931.49 L 3276.53,2932.38 L 3273.11,2932.68 L 3210.44,2932.68 L 3207.99,2940.21 L 3201,2952.33 L 3191.63,2962.73 L 3180.31,2970.95 L 3167.53,2976.65 L 3153.85,2979.55 L 3139.85,2979.55 L 3126.17,2976.65 L 3115.7,2971.98 L 2926.12,3161.56 L 2923.14,3164 L 2919.74,3165.82 L 2916.04,3166.94 L 2912.2,3167.32 L 2517.72,3167.32 L 2517.72,3210.63 L 2427.14,3210.63 L 2354.16,3283.6 L 2351.18,3286.05 L 2347.78,3287.87 L 2344.09,3288.99 L 2340.25,3289.37 L 2120.08,3289.37 L 2116.24,3288.99 L 2112.54,3287.87 L 2109.14,3286.05 L 2106.16,3283.6 L 2023.85,3201.29 L 2016.52,3204.55 L 2004.29,3207.15 L 1991.78,3207.15 L 1979.54,3204.55 L 1968.11,3199.46 L 1957.99,3192.11 L 1949.62,3182.81 L 1943.36,3171.98 L 1939.5,3160.08 L 1938.19,3147.64 z " style="fill-opacity:1.000000;fill:rgb(225,252,103);stroke:rgb(0,0,0);stroke-width:2"/></g>
<g fill-rule="evenodd"><path d="M 1955.51,1053.15 L 1956.89,1040.05 L 1960.96,1027.53 L 1967.54,1016.12 L 1976.35,1006.34 L 1987.01,998.597 L 1999.04,993.241 L 2011.92,990.503 L 2025.09,990.503 L 2037.97,993.241 L 2046.14,996.88 L 2125.84,917.183 L 2128.83,914.734 L 2132.23,912.915 L 2135.92,911.795 L 2139.76,911.417 L 2249.72,911.417 L 2296.46,864.68 L 2296.46,861.109 L 2282.68,855.206 L 2271.36,846.982 L 2261.99,836.584 L 2255,824.467 L 2250.68,811.159 L 2249.21,797.244 L 2250.68,783.329 L 2255,770.022 L 2261.99,757.904 L 2271.36,747.506 L 2282.68,739.282 L 2295.46,733.591 L 2309.15,730.682 L 2314.71,730.682 L 2388.05,657.339 L 2390.4,655.333 L 2393.03,653.719 L 2395.88,652.537 L 2398.89,651.815 L 2401.97,651.573 L 2482.28,651.573 L 2482.28,593.275 L 2470.47,588.017 L 2459.82,580.277 L 2451.01,570.49 L 2444.42,559.086 L 2440.35,546.561 L 2438.98,533.465 L 2440.35,520.368 L 2444.42,507.843 L 2451.01,496.439 L 2459.82,486.652 L 2470.47,478.912 L 2482.5,473.555 L 2495.38,470.818 L 2508.55,470.818 L 2521.43,473.555 L 2530.15,477.438 L 2597.24,410.348 L 2597.24,376.857 L 2583.46,370.954 L 2572.14,362.73 L 2562.78,352.332 L 2555.79,340.215 L 2551.46,326.907 L 2550,312.992 L 2551.46,299.077 L 2555.79,285.77 L 2562.78,273.652 L 2572.14,263.254 L 2583.46,255.03 L 2596.25,249.339 L 2609.93,246.43 L 2623.93,246.43 L 2637.61,249.339 L 2650.39,255.03 L 2661.71,263.254 L 2671.08,273.652 L 2678.07,285.77 L 2682.4,299.077 L 2683.86,312.992 L 2682.4,326.907 L 2678.07,340.215 L 2671.08,352.332 L 2661.71,362.73 L 2650.39,370.954 L 2636.61,376.858 L 2636.61,418.502 L 2636.23,422.342 L 2635.11,426.035 L 2633.3,429.438 L 2630.85,432.421 L 2558.02,505.251 L 2559.51,507.843 L 2563.58,520.368 L 2564.96,533.465 L 2563.58,546.561 L 2559.51,559.086 L 2552.93,570.49 L 2544.12,580.277 L 2533.46,588.017 L 2521.65,593.276 L 2521.65,651.293 L 2521.93,651.573 L 2630.31,651.573 L 2634.15,651.951 L 2637.85,653.071 L 2641.25,654.891 L 2644.23,657.339 L 2702.89,715.995 L 2703.72,711.633 L 2704.9,708.779 L 2706.51,706.145 L 2708.52,703.797 L 2802.61,609.708 L 2801.12,607.117 L 2797.05,594.593 L 2795.67,581.496 L 2797.05,568.399 L 2801.12,555.875 L 2807.7,544.47 L 2816.51,534.684 L 2827.17,526.943 L 2839.2,521.587 L 2852.08,518.849 L 2865.25,518.849 L 2878.13,521.587 L 2890.16,526.943 L 2900.81,534.684 L 2909.62,544.47 L 2916.21,555.875 L 2920.28,568.399 L 2921.65,581.496 L 2920.28,594.593 L 2916.21,607.117 L 2909.62,618.522 L 2900.81,628.308 L 2890.16,636.049 L 2878.13,641.405 L 2865.25,644.143 L 2852.08,644.143 L 2839.2,641.405 L 2830.47,637.522 L 2742.12,725.87 L 2742.12,749.941 L 2750,753.447 L 2759.32,760.22 L 2767.03,768.783 L 2772.79,778.763 L 2776.35,789.721 L 2777.56,801.181 L 2776.35,812.641 L 2772.79,823.6 L 2767.03,833.579 L 2759.32,842.142 L 2750,848.915 L 2739.47,853.602 L 2728.2,855.997 L 2716.68,855.997 L 2705.41,853.602 L 2694.88,848.915 L 2685.56,842.142 L 2677.85,833.579 L 2672.09,823.6 L 2668.53,812.641 L 2667.32,801.181 L 2668.53,789.721 L 2672.09,778.763 L 2677.85,768.783 L 2685.56,760.22 L 2688.96,757.747 L 2622.16,690.943 L 2410.12,690.943 L 2356.66,744.406 L 2360.93,747.506 L 2370.29,757.904 L 2377.28,770.022 L 2381.61,783.329 L 2383.07,797.244 L 2381.61,811.159 L 2377.28,824.467 L 2370.29,836.584 L 2360.93,846.982 L 2349.61,855.206 L 2335.83,861.11 L 2335.58,875.913 L 2334.86,878.917 L 2333.68,881.771 L 2332.07,884.405 L 2330.06,886.753 L 2271.79,945.021 L 2268.81,947.47 L 2265.41,949.289 L 2261.71,950.409 L 2257.87,950.787 L 2147.92,950.787 L 2074.27,1024.44 L 2076.05,1027.53 L 2080.12,1040.05 L 2081.5,1053.15 L 2080.12,1066.25 L 2076.05,1078.77 L 2069.47,1090.18 L 2060.65,1099.96 L 2050,1107.7 L 2037.97,1113.06 L 2025.09,1115.8 L 2011.92,1115.8 L 1999.04,1113.06 L 1987.01,1107.7 L 1976.35,1099.96 L 1967.54,1090.18 L 1960.96,1078.77 L 1956.89,1066.25 L 1955.51,1053.15 z " style="fill-opacity:1.000000;fill:rgb(62,1,126);stroke:rgb(0,0,0);stroke-width:2"/></g>
<g fill-rule="evenodd"><path d="M 2155.51,1653.15 L 2156.89,1640.05 L 2160.96,1627.53 L 2167.54,1616.12 L 2176.35,1606.34 L 2187.01,1598.6 L 2199.04,1593.24 L 2211.92,1590.5 L 2225.09,1590.5 L 2237.97,1593.24 L 2250,1598.6 L 2260.65,1606.34 L 2269.47,1616.12 L 2276.05,1627.53 L 2280.12,1640.05 L 2281.5,1653.15 L 2280.12,1666.25 L 2276.05,1678.77 L 2269.34,1690.32 L 2415.63,1836.61 L 2524.02,1836.61 L 2527.86,1836.99 L 2531.55,1838.11 L 2534.95,1839.93 L 2537.93,1842.38 L 2610.91,1915.35 L 2716.93,1915.35 L 2716.93,2049.21 L 2583.07,2049.21 L 2583.07,1943.19 L 2515.86,1875.98 L 2407.48,1875.98 L 2404.4,1875.74 L 2401.4,1875.02 L 2398.54,1873.84 L 2395.91,1872.22 L 2393.56,1870.22 L 2236.68,1713.33 L 2225.09,1715.8 L 2211.92,1715.8 L 2199.04,1713.06 L 2187.01,1707.7 L 2176.35,1699.96 L 2167.54,1690.18 L 2160.96,1678.77 L 2156.89,1666.25 L 2155.51,1653.15 z " style="fill-opacity:1.000000;fill:rgb(151,234,220);stroke:rgb(0,0,0);stroke-width:2"/></g>
<g fill-rule="evenodd"><path d="M 2155.51,1053.15 L 2156.89,1040.05 L 2160.96,1027.53 L 2167.54,1016.12 L 2176.35,1006.34 L 2187.01,998.597 L 2199.04,993.241 L 2211.92,990.503 L 2225.09,990.503 L 2237.97,993.241 L 2250,998.597 L 2260.65,1006.34 L 2269.47,1016.12 L 2276.05,1027.53 L 2280.12,1040.05 L 2281.5,1053.15 L 2280.12,1066.25 L 2276.05,1078.77 L 2269.47,1090.18 L 2260.65,1099.96 L 2250,1107.7 L 2237.97,1113.06 L 2225.09,1115.8 L 2211.92,1115.8 L 2199.04,1113.06 L 2187.01,1107.7 L 2176.35,1099.96 L 2167.54,1090.18 L 2160.96,1078.77 L 2156.89,1066.25 L 2155.51,1053.15 z " style="fill-opacity:1.000000;fill:rgb(107,150,143);stroke:rgb(0,0,0);stroke-width:2"/></g>
<g fill-rule="evenodd"><path d="M 2355.51,1653.15 L 2356.89,1640.05 L 2360.96,1627.53 L 2367.54,1616.12 L 2376.35,1606.34 L 2387.01,1598.6 L 2399.04,1593.24 L 2411.92,1590.5 L 2425.09,1590.5 L 2437.97,1593.24 L 2450,1598.6 L 2460.65,1606.34 L 2469.47,1616.12 L 2476.05,1627.53 L 2480.12,1640.05 L 2481.5,1653.15 L 2480.25,1665.01 L 2651.85,1836.61 L 2764.17,1836.61 L 2768.01,1836.99 L 2771.7,1838.11 L 2775.11,1839.93 L 2778.09,1842.38 L 2789.9,1854.19 L 2791.91,1856.54 L 2793.52,1859.17 L 2794.71,1862.03 L 2795.43,1865.03 L 2795.67,1868.11 L 2795.67,2101.97 L 2795.43,2105.05 L 2794.7,2108.05 L 2793.52,2110.9 L 2791.91,2113.54 L 2789.9,2115.89 L 2716.93,2188.86 L 2716.93,2307.8 L 2583.07,2307.8 L 2583.07,2173.94 L 2676.17,2173.94 L 2756.3,2093.81 L 2756.3,1876.26 L 2756.02,1875.98 L 2643.7,1875.98 L 2639.86,1875.6 L 2636.17,1874.48 L 2632.76,1872.67 L 2629.78,1870.22 L 2460,1700.44 L 2450,1707.7 L 2437.97,1713.06 L 2425.09,1715.8 L 2411.92,1715.8 L 2399.04,1713.06 L 2387.01,1707.7 L 2376.35,1699.96 L 2367.54,1690.18 L 2360.96,1678.77 L 2356.89,1666.25 L 2355.51,1653.15 z " style="fill-opacity:1.000000;fill:rgb(56,92,42);stroke:rgb(0,0,0);stroke-width:2"/></g>
<g fill-rule="evenodd"><path d="M 2355.51,1053.15 L 2356.89,1040.05 L 2360.96,1027.53 L 2367.54,1016.12 L 2376.35,1006.34 L 2387.01,998.597 L 2399.04,993.241 L 2411.92,990.503 L 2425.09,990.503 L 2437.97,993.241 L 2450,998.597 L 2460.65,1006.34 L 2469.47,1016.12 L 2476.05,1027.53 L 2480.12,1040.05 L 2481.5,1053.15 L 2480.12,1066.25 L 2476.05,1078.77 L 2469.47,1090.18 L 2460.65,1099.96 L 2450,1107.7 L 2437.97,1113.06 L 2425.09,1115.8 L 2411.92,1115.8 L 2399.04,1113.06 L 2387.01,1107.7 L 2376.35,1099.96 L 2367.54,1090.18 L 2360.96,1078.77 L 2356.89,1066.25 L 2355.51,1053.15 z " style="fill-opacity:1.000000;fill:rgb(236,176,59);stroke:rgb(0,0,0);stroke-width:2"/></g>
<g fill-rule="evenodd"><path d="M 2449.21,864.173 L 2449.21,730.315 L 2583.07,730.315 L 2583.07,836.335 L 2638.47,891.731 L 2857.4,891.731 L 2861.24,892.109 L 2864.93,893.229 L 2868.34,895.049 L 2871.32,897.497 L 2978.56,1004.74 L 2987.01,998.597 L 2999.04,993.241 L 3011.92,990.503 L 3025.09,990.503 L 3037.97,993.241 L 3050,998.597 L 3060.65,1006.34 L 3069.47,1016.12 L 3076.05,1027.53 L 3080.12,1040.05 L 3081.5,1053.15 L 3080.12,1066.25 L 3076.05,1078.77 L 3069.47,1090.18 L 3060.65,1099.96 L 3050,1107.7 L 3037.97,1113.06 L 3025.09,1115.8 L 3011.92,1115.8 L 2999.04,1113.06 L 2987.01,1107.7 L 2976.35,1099.96 L 2967.54,1090.18 L 2960.96,1078.77 L 2956.89,1066.25 L 2955.51,1053.15 L 2956.89,1040.05 L 2957.21,1039.06 L 2849.25,931.101 L 2630.31,931.101 L 2626.47,930.723 L 2622.78,929.603 L 2619.38,927.784 L 2616.39,925.335 L 2555.23,864.173 L 2449.21,864.173 z " style="fill-opacity:1.000000;fill:rgb(251,50,175);stroke:rgb(0,0,0);stroke-width:2"/></g>
<g fill-rule="evenodd"><path d="M 2555.51,1653.15 L 2556.89,1640.05 L 2560.96,1627.53 L 2567.54,1616.12 L 2576.35,1606.34 L 2587.01,1598.6 L 2599.04,1593.24 L 2611.92,1590.5 L 2625.09,1590.5 L 2637.97,1593.24 L 2650,1598.6 L 2660.65,1606.34 L 2669.47,1616.12 L 2676.05,1627.53 L 2680.12,1640.05 L 2681.5,1653.15 L 2680.12,1666.25 L 2676.05,1678.77 L 2674.55,1681.36 L 2751.07,1757.87 L 2796.79,1757.87 L 2800.63,1758.25 L 2804.32,1759.37 L 2807.72,1761.19 L 2810.71,1763.64 L 2868.64,1821.57 L 2870.65,1823.92 L 2872.26,1826.56 L 2873.45,1829.41 L 2874.17,1832.41 L 2874.41,1835.49 L 2874.41,2290.94 L 2874.03,2294.78 L 2872.91,2298.48 L 2871.09,2301.88 L 2868.64,2304.86 L 2716.93,2456.58 L 2716.93,2568.9 L 2583.07,2568.9 L 2583.07,2435.04 L 2682.79,2435.04 L 2835.04,2282.79 L 2835.04,1843.65 L 2788.63,1797.24 L 2742.91,1797.24 L 2739.83,1797 L 2736.83,1796.28 L 2733.97,1795.1 L 2731.34,1793.48 L 2728.99,1791.48 L 2646.69,1709.18 L 2637.97,1713.06 L 2625.09,1715.8 L 2611.92,1715.8 L 2599.04,1713.06 L 2587.01,1707.7 L 2576.35,1699.96 L 2567.54,1690.18 L 2560.96,1678.77 L 2556.89,1666.25 L 2555.51,1653.15 z " style="fill-opacity:1.000000;fill:rgb(60,84,236);stroke:rgb(0,0,0);stroke-width:2"/></g>
<g fill-rule="evenodd"><path d="M 2583.07,2836.61 L 2583.07,2702.76 L 2682.79,2702.76 L 2913.78,2471.76 L 2913.78,1776.26 L 2846.69,1709.18 L 2837.97,1713.06 L 2825.09,1715.8 L 2811.92,1715.8 L 2799.04,1713.06 L 2787.01,1707.7 L 2776.35,1699.96 L 2767.54,1690.18 L 2760.96,1678.77 L 2756.89,1666.25 L 2755.51,1653.15 L 2756.89,1640.05 L 2760.96,1627.53 L 2767.54,1616.12 L 2776.35,1606.34 L 2787.01,1598.6 L 2799.04,1593.24 L 2811.92,1590.5 L 2825.09,1590.5 L 2837.97,1593.24 L 2850,1598.6 L 2860.65,1606.34 L 2869.47,1616.12 L 2876.05,1627.53 L 2880.12,1640.05 L 2881.5,1653.15 L 2880.12,1666.25 L 2876.05,1678.77 L 2874.55,1681.36 L 2947.38,1754.19 L 2949.39,1756.54 L 2951,1759.17 L 2952.19,1762.03 L 2952.91,1765.03 L 2953.15,1768.11 L 2953.15,2479.92 L 2952.91,2483 L 2952.19,2486 L 2951,2488.85 L 2949.39,2491.49 L 2947.38,2493.84 L 2716.93,2724.29 L 2716.93,2836.61 L 2583.07,2836.61 z " style="fill-opacity:1.000000;fill:rgb(24,219,92);stroke:rgb(0,0,0);stroke-width:2"/></g>
<g fill-rule="evenodd"><path d="M 2755.51,1053.15 L 2756.89,1040.05 L 2760.96,1027.53 L 2767.54,1016.12 L 2776.35,1006.34 L 2787.01,998.597 L 2799.04,993.241 L 2811.92,990.503 L 2825.09,990.503 L 2837.97,993.241 L 2850,998.597 L 2860.65,1006.34 L 2869.47,1016.12 L 2876.05,1027.53 L 2880.12,1040.05 L 2881.5,1053.15 L 2880.12,1066.25 L 2876.05,1078.77 L 2869.47,1090.18 L 2860.65,1099.96 L 2850,1107.7 L 2837.97,1113.06 L 2825.09,1115.8 L 2811.92,1115.8 L 2799.04,1113.06 L 2787.01,1107.7 L 2776.35,1099.96 L 2767.54,1090.18 L 2760.96,1078.77 L 2756.89,1066.25 L 2755.51,1053.15 z " style="fill-opacity:1.000000;fill:rgb(2,26,254);stroke:rgb(0,0,0);stroke-width:2"/></g>
<g fill-rule="evenodd"><path d="M 2955.51,1653.15 L 2956.89,1640.05 L 2960.96,1627.53 L 2967.54,1616.12 L 2976.35,1606.34 L 2987.01,1598.6 L 2999.04,1593.24 L 3011.92,1590.5 L 3025.09,1590.5 L 3037.97,1593.24 L 3050,1598.6 L 3060.65,1606.34 L 3069.47,1616.12 L 3076.05,1627.53 L 3080.12,1640.05 L 3081.5,1653.15 L 3080.12,1666.25 L 3076.05,1678.77 L 3069.47,1690.18 L 3060.65,1699.96 L 3050,1707.7 L 3038.19,1712.96 L 3038.19,2271.14 L 3060.35,2293.31 L 3083.26,2293.31 L 3085.71,2285.77 L 3092.7,2273.65 L 3102.07,2263.25 L 3113.39,2255.03 L 3126.17,2249.34 L 3139.85,2246.43 L 3153.85,2246.43 L 3167.53,2249.34 L 3180.31,2255.03 L 3191.63,2263.25 L 3201,2273.65 L 3207.99,2285.77 L 3212.32,2299.08 L 3213.78,2312.99 L 3212.32,2326.91 L 3207.99,2340.21 L 3201,2352.33 L 3191.63,2362.73 L 3180.31,2370.95 L 3167.53,2376.65 L 3153.85,2379.55 L 3139.85,2379.55 L 3126.17,2376.65 L 3113.39,2370.95 L 3102.07,2362.73 L 3092.7,2352.33 L 3085.71,2340.21 L 3083.26,2332.68 L 3052.2,2332.68 L 3049.12,2332.43 L 3046.11,2331.71 L 3043.26,2330.53 L 3040.63,2328.92 L 3038.28,2326.91 L 3004.58,2293.22 L 3002.14,2290.23 L 3000.32,2286.83 L 2999.2,2283.14 L 2998.82,2279.3 L 2998.82,1712.96 L 2987.01,1707.7 L 2976.35,1699.96 L 2967.54,1690.18 L 2960.96,1678.77 L 2956.89,1666.25 L 2955.51,1653.15 z " style="fill-opacity:1.000000;fill:rgb(67,251,250);stroke:rgb(0,0,0);stroke-width:2"/></g>
<g fill-rule="evenodd"><path d="M 3067.32,801.181 L 3068.53,789.721 L 3072.09,778.763 L 3077.85,768.783 L 3085.56,760.22 L 3094.88,753.447 L 3105.41,748.761 L 3116.68,746.365 L 3128.2,746.365 L 3139.47,748.761 L 3150,753.447 L 3159.32,760.22 L 3167.03,768.783 L 3172.79,778.763 L 3176.35,789.721 L 3177.56,801.181 L 3176.35,812.641 L 3172.79,823.6 L 3167.03,833.579 L 3159.32,842.142 L 3157.87,843.195 L 3157.87,972.554 L 3175.48,990.158 L 3281.5,990.157 L 3281.5,1116.14 L 3238.19,1116.14 L 3238.19,1464.36 L 3372.58,1598.76 L 3375.03,1601.74 L 3376.85,1605.14 L 3377.97,1608.84 L 3378.34,1612.68 L 3378.34,1781.5 L 3377.97,1785.34 L 3376.85,1789.03 L 3375.03,1792.43 L 3372.58,1795.42 L 3314.71,1853.28 L 3316.21,1855.87 L 3320.28,1868.4 L 3321.65,1881.5 L 3320.28,1894.59 L 3316.21,1907.12 L 3309.62,1918.52 L 3300.81,1928.31 L 3290.16,1936.05 L 3278.13,1941.41 L 3265.25,1944.14 L 3252.08,1944.14 L 3239.2,1941.41 L 3227.17,1936.05 L 3216.51,1928.31 L 3207.7,1918.52 L 3201.12,1907.12 L 3197.05,1894.59 L 3195.67,1881.5 L 3197.05,1868.4 L 3201.12,1855.87 L 3207.7,1844.47 L 3216.51,1834.68 L 3227.17,1826.94 L 3239.2,1821.59 L 3252.08,1818.85 L 3265.25,1818.85 L 3278.13,1821.59 L 3286.85,1825.47 L 3338.97,1773.34 L 3338.97,1620.83 L 3204.58,1486.44 L 3202.13,1483.45 L 3200.31,1480.05 L 3199.19,1476.36 L 3198.82,1472.52 L 3198.82,1116.14 L 3155.51,1116.14 L 3155.51,1025.87 L 3124.27,994.628 L 3122.26,992.279 L 3120.65,989.645 L 3119.47,986.791 L 3118.74,983.788 L 3118.5,980.708 L 3118.5,855.997 L 3116.68,855.997 L 3105.41,853.602 L 3094.88,848.915 L 3085.56,842.142 L 3077.85,833.579 L 3072.09,823.6 L 3068.53,812.641 L 3067.32,801.181 z " style="fill-opacity:1.000000;fill:rgb(170,58,251);stroke:rgb(0,0,0);stroke-width:2"/></g>
<g fill-rule="evenodd"><path d="M 3079.92,2712.99 L 3081.38,2699.08 L 3085.71,2685.77 L 3092.7,2673.65 L 3102.07,2663.25 L 3113.39,2655.03 L 3126.17,2649.34 L 3139.85,2646.43 L 3153.85,2646.43 L 3167.53,2649.34 L 3180.31,2655.03 L 3191.63,2663.25 L 3201,2673.65 L 3207.99,2685.77 L 3212.32,2699.08 L 3213.78,2712.99 L 3212.32,2726.91 L 3207.99,2740.21 L 3201,2752.33 L 3191.63,2762.73 L 3180.31,2770.95 L 3167.53,2776.65 L 3153.85,2779.55 L 3139.85,2779.55 L 3126.17,2776.65 L 3113.39,2770.95 L 3102.07,2762.73 L 3092.7,2752.33 L 3085.71,2740.21 L 3081.38,2726.91 L 3079.92,2712.99 z " style="fill-opacity:1.000000;fill:rgb(41,209,230);stroke:rgb(0,0,0);stroke-width:2"/></g>
<g fill-rule="evenodd"><path d="M 3079.92,2179.92 L 3079.92,2046.06 L 3127.16,2046.06 L 3127.16,2014.85 L 3122.69,2010.38 L 3120.25,2007.39 L 3118.43,2003.99 L 3117.31,2000.3 L 3116.93,1996.46 L 3116.93,1735.04 L 3117.31,1731.2 L 3118.43,1727.51 L 3120.25,1724.1 L 3122.69,1721.12 L 3162.45,1681.36 L 3160.96,1678.77 L 3156.89,1666.25 L 3155.51,1653.15 L 3156.89,1640.05 L 3160.96,1627.53 L 3167.54,1616.12 L 3176.35,1606.34 L 3187.01,1598.6 L 3199.04,1593.24 L 3211.92,1590.5 L 3225.09,1590.5 L 3237.97,1593.24 L 3250,1598.6 L 3260.65,1606.34 L 3269.47,1616.12 L 3276.05,1627.53 L 3280.12,1640.05 L 3281.5,1653.15 L 3280.12,1666.25 L 3276.56,1677.19 L 3277.18,1679.23 L 3277.56,1683.07 L 3277.18,1686.91 L 3276.06,1690.6 L 3274.24,1694.01 L 3271.79,1696.99 L 3268.81,1699.44 L 3265.41,1701.26 L 3261.71,1702.38 L 3256.81,1702.76 L 3250,1707.7 L 3237.97,1713.06 L 3225.09,1715.8 L 3211.92,1715.8 L 3199.04,1713.06 L 3190.31,1709.17 L 3156.3,1743.19 L 3156.3,1988.3 L 3160.77,1992.77 L 3163.22,1995.76 L 3165.04,1999.16 L 3166.16,2002.85 L 3166.53,2006.69 L 3166.53,2046.06 L 3213.78,2046.06 L 3213.78,2179.92 L 3079.92,2179.92 z " style="fill-opacity:1.000000;fill:rgb(5,60,124);stroke:rgb(0,0,0);stroke-width:2"/></g>
</svg>
