<?xml version="1.0" standalone="no"?>
<!DOCTYPE svg PUBLIC "-//W3C//DTD SVG 1.1//EN"
"http://www.w3.org/Graphics/SVG/1.1/DTD/svg11.dtd">
<svg width="195.591" height="170.273" viewBox="0 0 4074.8 3547.34" version="1.1"
xmlns="http://www.w3.org/2000/svg"
xmlns:xlink="http://www.w3.org/1999/xlink">
<g fill-rule="evenodd"><path d="M -1.81899e-12,3547.34 L -1.81899e-12,-9.09495e-13 L 4074.8,-9.09495e-13 L 4074.8,3547.34 L -1.81899e-12,3547.34 z " style="fill-opacity:0.200000;fill:rgb(103,198,105);"/></g>
<polyline points="37.3994,1773.67 37.8794,1779.14 39.2994,1784.44 41.6194,1789.42 1025.87,3494.19 1029.02,3498.69 1032.9,3502.57 1037.4,3505.72 1042.38,3508.04 1047.68,3509.46 1053.15,3509.94 3021.65,3509.94 3027.12,3509.46 3032.43,3508.04 3037.4,3505.72 3041.9,3502.57 3045.78,3498.69 3048.93,3494.19 4033.18,1789.42 4035.5,1784.44 4036.92,1779.14 4037.4,1773.67 4036.92,1768.2 4035.5,1762.9 4033.18,1757.92 3048.93,53.1461 3045.78,48.6501 3041.9,44.7681 3037.4,41.6181 3032.43,39.2981 3027.12,37.8781 3021.65,37.3981 1053.15,37.3981 1047.68,37.8781 1042.38,39.2981 1037.4,41.6181 1032.9,44.7681 1029.02,48.6501 1025.87,53.1461 41.6194,1757.92 39.2994,1762.9 37.8794,1768.2 37.3994,1773.67" style="stroke:rgb(103,198,105);stroke-width:62.992126;fill:none;stroke-opacity:0.5;stroke-linecap:round;stroke-linejoin:round;;fill:none"/>
<polyline points="37.3994,1773.67 37.8794,1779.14 39.2994,1784.44 41.6194,1789.42 1025.87,3494.19 1029.02,3498.69 1032.9,3502.57 1037.4,3505.72 1042.38,3508.04 1047.68,3509.46 1053.15,3509.94 3021.65,3509.94 3027.12,3509.46 3032.43,3508.04 3037.4,3505.72 3041.9,3502.57 3045.78,3498.69 3048.93,3494.19 4033.18,1789.42 4035.5,1784.44 4036.92,1779.14 4037.4,1773.67 4036.92,1768.2 4035.5,1762.9 4033.18,1757.92 3048.93,53.1461 3045.78,48.6501 3041.9,44.7681 3037.4,41.6181 3032.43,39.2981 3027.12,37.8781 3021.65,37.3981 1053.15,37.3981 1047.68,37.8781 1042.38,39.2981 1037.4,41.6181 1032.9,44.7681 1029.02,48.6501 1025.87,53.1461 41.6194,1757.92 39.2994,1762.9 37.8794,1768.2 37.3994,1773.67" style="stroke:rgb(0,0,0);stroke-width:1px;fill:none;stroke-opacity:1;stroke-linecap:round;stroke-linejoin:round;;fill:none"/>
<g fill-rule="evenodd"><path d="M 68.8974,1773.67 L 1053.15,68.8961 L 3021.65,68.8961 L 4005.91,1773.67 L 3021.65,3478.45 L 1053.15,3478.45 L 68.8974,1773.67 z " style="fill-opacity:1.000000;fill:rgb(103,198,105);stroke:rgb(0,0,0);stroke-width:2"/></g>
</svg>
