M48
; DRILL file {KiCad 5.1.5+dfsg1-2build2} date Mon 12 Sep 2022 14:00:15 BST
; FORMAT={-:-/ absolute / inch / decimal}
; #@! TF.CreationDate,2022-09-12T14:00:15+01:00
; #@! TF.GenerationSoftware,Kicad,Pcbnew,5.1.5+dfsg1-2build2
; #@! TF.FileFunction,Plated,1,2,PTH
FMAT,2
INCH
T1C0.0276
T2C0.0315
T3C0.0354
T4C0.0394
%
G90
G05
T1
X7.8819Y-3.2598
X8.0819Y-3.2598
X7.3591Y-3.0079
X7.5591Y-3.0079
T2
X7.6496Y-4.4331
X7.748Y-4.4331
X7.1632Y-3.1693
X7.2616Y-3.1693
X7.126Y-4.4016
X7.126Y-4.5
X7.5748Y-3.126
X7.7717Y-3.126
X7.4409Y-3.1299
X7.4409Y-3.2283
X6.8299Y-3.3858
X6.8299Y-3.6858
X6.9299Y-3.3858
X6.9299Y-3.6858
X7.0299Y-3.3858
X7.0299Y-3.6858
X7.1299Y-3.3858
X7.1299Y-3.6858
X7.2299Y-3.3858
X7.2299Y-3.6858
X7.3299Y-3.3858
X7.3299Y-3.6858
X7.4299Y-3.3858
X7.4299Y-3.6858
X7.5299Y-3.3858
X7.5299Y-3.6858
X7.6299Y-3.3858
X7.6299Y-3.6858
X7.7299Y-3.3858
X7.7299Y-3.6858
X7.8299Y-3.3858
X7.8299Y-3.6858
X7.9299Y-3.3858
X7.9299Y-3.6858
X8.0299Y-3.3858
X8.0299Y-3.6858
X8.1299Y-3.3858
X8.1299Y-3.6858
X7.3197Y-4.4331
X7.4197Y-4.4331
X7.5197Y-4.4331
T3
X7.1146Y-3.0118
X7.2146Y-3.0118
T4
X6.6781Y-3.776
X6.751Y-3.7462
X6.8674Y-3.8564
X7.0048Y-3.7848
X7.1229Y-3.7633
X7.1717Y-3.9376
X7.2Y-4.25
X7.2016Y-3.7642
X7.2552Y-4.0617
X7.5197Y-3.85
X7.7Y-4.35
X7.95Y-3.15
X8.1008Y-3.118
X8.15Y-3.8
X7.6457Y-3.8504
X7.7457Y-3.8504
X7.8457Y-3.8504
X7.5787Y-3.2579
X7.6787Y-3.2579
X7.7787Y-3.2579
X7.6457Y-4.2441
X7.7457Y-4.2441
X7.8457Y-4.2441
X8.0941Y-3.9157
X8.0941Y-4.0157
X8.0941Y-4.1157
X8.0941Y-4.2157
X8.0941Y-4.3157
X7.6457Y-3.9797
X7.7457Y-3.9797
X7.8457Y-3.9797
X7.3331Y-3.9339
X7.3331Y-4.0339
X7.3331Y-4.1339
X7.4331Y-3.9339
X7.4331Y-4.0339
X7.4331Y-4.1339
X7.8291Y-3.0157
X7.9291Y-3.0157
X7.6457Y-4.1102
X7.7457Y-4.1102
X7.8457Y-4.1102
X7.0193Y-3.1323
X7.0193Y-3.2323
X6.9866Y-3.9047
X6.9866Y-4.0047
X6.9866Y-4.1047
X6.9866Y-4.2047
X7.0866Y-3.9047
X7.0866Y-4.0047
X7.0866Y-4.1047
X7.0866Y-4.2047
T0
M30
