EESchema Schematic File Version 4
EELAYER 30 0
EELAYER END
$Descr A4 11693 8268
encoding utf-8
Sheet 1 1
Title ""
Date ""
Rev ""
Comp ""
Comment1 ""
Comment2 ""
Comment3 ""
Comment4 ""
$EndDescr
$Comp
L proto-rescue:Conn_01x03 J7
U 1 1 5BBB4667
P 6250 5250
F 0 "J7" H 6250 5450 50  0000 C CNN
F 1 "Servo 1" H 6250 5050 50  0000 C CNN
F 2 "Connector_PinHeader_2.54mm:PinHeader_1x03_P2.54mm_Vertical" H 6250 5250 50  0001 C CNN
F 3 "" H 6250 5250 50  0001 C CNN
	1    6250 5250
	1    0    0    -1  
$EndComp
$Comp
L proto-rescue:Conn_01x03 J8
U 1 1 5BBB46C0
P 6250 5700
F 0 "J8" H 6250 5900 50  0000 C CNN
F 1 "Servo 2" H 6250 5500 50  0000 C CNN
F 2 "Connector_PinHeader_2.54mm:PinHeader_1x03_P2.54mm_Vertical" H 6250 5700 50  0001 C CNN
F 3 "" H 6250 5700 50  0001 C CNN
	1    6250 5700
	1    0    0    -1  
$EndComp
$Comp
L proto-rescue:Conn_01x03 J9
U 1 1 5BBB46E7
P 6250 6150
F 0 "J9" H 6250 6350 50  0000 C CNN
F 1 "Servo 3" H 6250 5950 50  0000 C CNN
F 2 "Connector_PinHeader_2.54mm:PinHeader_1x03_P2.54mm_Vertical" H 6250 6150 50  0001 C CNN
F 3 "" H 6250 6150 50  0001 C CNN
	1    6250 6150
	1    0    0    -1  
$EndComp
$Comp
L proto-rescue:Earth #PWR022
U 1 1 5BBB4F2D
P 6050 5350
F 0 "#PWR022" H 6050 5100 50  0001 C CNN
F 1 "Earth" H 6050 5200 50  0001 C CNN
F 2 "" H 6050 5350 50  0001 C CNN
F 3 "" H 6050 5350 50  0001 C CNN
	1    6050 5350
	0    1    1    0   
$EndComp
$Comp
L proto-rescue:Earth #PWR024
U 1 1 5BBB5010
P 6050 5800
F 0 "#PWR024" H 6050 5550 50  0001 C CNN
F 1 "Earth" H 6050 5650 50  0001 C CNN
F 2 "" H 6050 5800 50  0001 C CNN
F 3 "" H 6050 5800 50  0001 C CNN
	1    6050 5800
	0    1    1    0   
$EndComp
$Comp
L proto-rescue:Earth #PWR026
U 1 1 5BBB5195
P 6050 6250
F 0 "#PWR026" H 6050 6000 50  0001 C CNN
F 1 "Earth" H 6050 6100 50  0001 C CNN
F 2 "" H 6050 6250 50  0001 C CNN
F 3 "" H 6050 6250 50  0001 C CNN
	1    6050 6250
	0    1    1    0   
$EndComp
$Comp
L proto-rescue:+5V #PWR021
U 1 1 5BBB548B
P 6050 5250
F 0 "#PWR021" H 6050 5100 50  0001 C CNN
F 1 "+5V" H 6050 5390 50  0000 C CNN
F 2 "" H 6050 5250 50  0001 C CNN
F 3 "" H 6050 5250 50  0001 C CNN
	1    6050 5250
	0    -1   -1   0   
$EndComp
$Comp
L proto-rescue:+5V #PWR023
U 1 1 5BBB5622
P 6050 5700
F 0 "#PWR023" H 6050 5550 50  0001 C CNN
F 1 "+5V" H 6050 5840 50  0000 C CNN
F 2 "" H 6050 5700 50  0001 C CNN
F 3 "" H 6050 5700 50  0001 C CNN
	1    6050 5700
	0    -1   -1   0   
$EndComp
$Comp
L proto-rescue:+5V #PWR025
U 1 1 5BBB5705
P 6050 6150
F 0 "#PWR025" H 6050 6000 50  0001 C CNN
F 1 "+5V" H 6050 6290 50  0000 C CNN
F 2 "" H 6050 6150 50  0001 C CNN
F 3 "" H 6050 6150 50  0001 C CNN
	1    6050 6150
	0    -1   -1   0   
$EndComp
$Comp
L proto-rescue:Conn_02x04_Counter_Clockwise J6
U 1 1 5BBB6AFE
P 4950 2200
F 0 "J6" H 5000 2400 50  0000 C CNN
F 1 "Conn_02x04_Counter_Clockwise" H 5000 1900 50  0000 C CNN
F 2 "Pin_Headers:Pin_Header_Straight_2x04_Pitch2.54mm" H 4950 2200 50  0001 C CNN
F 3 "" H 4950 2200 50  0001 C CNN
	1    4950 2200
	1    0    0    -1  
$EndComp
$Comp
L proto-rescue:Earth #PWR016
U 1 1 5BBB71DA
P 4750 2100
F 0 "#PWR016" H 4750 1850 50  0001 C CNN
F 1 "Earth" H 4750 1950 50  0001 C CNN
F 2 "" H 4750 2100 50  0001 C CNN
F 3 "" H 4750 2100 50  0001 C CNN
	1    4750 2100
	0    1    1    0   
$EndComp
$Comp
L proto-rescue:+5V #PWR015
U 1 1 5BBB7322
P 4450 1200
F 0 "#PWR015" H 4450 1050 50  0001 C CNN
F 1 "+5V" H 4450 1340 50  0000 C CNN
F 2 "" H 4450 1200 50  0001 C CNN
F 3 "" H 4450 1200 50  0001 C CNN
	1    4450 1200
	0    -1   -1   0   
$EndComp
$Comp
L proto-rescue:CP C3
U 1 1 5BBB7B4C
P 5150 1650
F 0 "C3" H 5175 1750 50  0000 L CNN
F 1 "CP" H 5175 1550 50  0000 L CNN
F 2 "Capacitor_THT:CP_Radial_D5.0mm_P2.50mm" H 5188 1500 50  0001 C CNN
F 3 "" H 5150 1650 50  0001 C CNN
	1    5150 1650
	0    1    1    0   
$EndComp
$Comp
L proto-rescue:LED D1
U 1 1 5BBB94A5
P 5850 4100
F 0 "D1" H 5850 4200 50  0000 C CNN
F 1 "LED" H 5850 4000 50  0000 C CNN
F 2 "LEDs:LED_D3.0mm_FlatTop" H 5850 4100 50  0001 C CNN
F 3 "" H 5850 4100 50  0001 C CNN
	1    5850 4100
	0    1    1    0   
$EndComp
$Comp
L proto-rescue:R R2
U 1 1 5BBB950A
P 5850 3750
F 0 "R2" V 5930 3750 50  0000 C CNN
F 1 "R" V 5850 3750 50  0000 C CNN
F 2 "Resistor_THT:R_Axial_DIN0204_L3.6mm_D1.6mm_P5.08mm_Horizontal" V 5780 3750 50  0001 C CNN
F 3 "" H 5850 3750 50  0001 C CNN
	1    5850 3750
	1    0    0    -1  
$EndComp
$Comp
L proto-rescue:Earth #PWR020
U 1 1 5BBB9541
P 5850 3500
F 0 "#PWR020" H 5850 3250 50  0001 C CNN
F 1 "Earth" H 5850 3350 50  0001 C CNN
F 2 "" H 5850 3500 50  0001 C CNN
F 3 "" H 5850 3500 50  0001 C CNN
	1    5850 3500
	-1   0    0    1   
$EndComp
Text Label 4550 1500 0    60   ~ 0
+3v
Text Label 4600 2300 0    60   ~ 0
CE
Text Label 5400 2400 0    60   ~ 0
SCK
Text Label 5400 2200 0    60   ~ 0
MISO
Text Label 4950 3150 0    60   ~ 0
IRQ
Text Label 5400 2300 0    60   ~ 0
MOSI
Text Label 4600 2400 0    60   ~ 0
CSN
Text Label 5350 1500 0    60   ~ 0
Reg3v
$Comp
L proto-rescue:Conn_01x02 J3
U 1 1 5C9285A3
P 2100 1250
F 0 "J3" H 2100 1350 50  0000 C CNN
F 1 "Conn_01x02" H 2100 1050 50  0000 C CNN
F 2 "Connector_PinHeader_2.54mm:PinHeader_1x02_P2.54mm_Vertical" H 2100 1250 50  0001 C CNN
F 3 "" H 2100 1250 50  0001 C CNN
	1    2100 1250
	-1   0    0    1   
$EndComp
$Comp
L proto-rescue:+5V #PWR03
U 1 1 5C92868A
P 2300 1150
F 0 "#PWR03" H 2300 1000 50  0001 C CNN
F 1 "+5V" H 2300 1290 50  0000 C CNN
F 2 "" H 2300 1150 50  0001 C CNN
F 3 "" H 2300 1150 50  0001 C CNN
	1    2300 1150
	0    1    1    0   
$EndComp
$Comp
L proto-rescue:Earth #PWR04
U 1 1 5C9286C0
P 2300 1250
F 0 "#PWR04" H 2300 1000 50  0001 C CNN
F 1 "Earth" H 2300 1100 50  0001 C CNN
F 2 "" H 2300 1250 50  0001 C CNN
F 3 "" H 2300 1250 50  0001 C CNN
	1    2300 1250
	0    -1   -1   0   
$EndComp
Wire Wire Line
	5250 1200 5350 1200
Wire Wire Line
	4450 1200 4550 1200
Connection ~ 4550 1200
Wire Wire Line
	5800 5600 6050 5600
Wire Wire Line
	5750 6050 6050 6050
Wire Wire Line
	5850 3950 5850 3900
Wire Wire Line
	5850 3600 5850 3500
Wire Wire Line
	5250 2300 5900 2300
Wire Wire Line
	5350 2000 4600 2000
Wire Wire Line
	4600 2000 4600 2200
Wire Wire Line
	4600 2200 4750 2200
Wire Wire Line
	5350 1200 5350 1650
Wire Wire Line
	4350 2300 4750 2300
Wire Wire Line
	5650 2200 5250 2200
Wire Wire Line
	5350 2100 5250 2100
Wire Wire Line
	5550 2400 5250 2400
$Comp
L proto-rescue:LP2950-3.0_TO92 U2
U 1 1 5CABB898
P 4950 1200
F 0 "U2" H 4800 1325 50  0000 C CNN
F 1 "LP2950-3.0_TO92" H 4950 1325 50  0000 L CNN
F 2 "TO_SOT_Packages_THT:TO-92_Inline_Wide" H 4950 1425 50  0001 C CIN
F 3 "" H 4950 1150 50  0001 C CNN
	1    4950 1200
	1    0    0    -1  
$EndComp
$Comp
L proto-rescue:CP C2
U 1 1 5BBB776B
P 4700 1650
F 0 "C2" H 4725 1750 50  0000 L CNN
F 1 "CP" H 4725 1550 50  0000 L CNN
F 2 "Capacitor_THT:CP_Radial_D5.0mm_P2.50mm" H 4738 1500 50  0001 C CNN
F 3 "" H 4700 1650 50  0001 C CNN
	1    4700 1650
	0    -1   -1   0   
$EndComp
Wire Wire Line
	4550 1200 4550 1650
Wire Wire Line
	4950 1500 4950 1650
Wire Wire Line
	4850 1650 4950 1650
Connection ~ 4950 1650
Wire Wire Line
	5300 1650 5350 1650
Connection ~ 5350 1650
$Comp
L proto-rescue:Earth #PWR018
U 1 1 5CABEB6C
P 4950 1750
F 0 "#PWR018" H 4950 1500 50  0001 C CNN
F 1 "Earth" H 4950 1600 50  0001 C CNN
F 2 "" H 4950 1750 50  0001 C CNN
F 3 "" H 4950 1750 50  0001 C CNN
	1    4950 1750
	1    0    0    -1  
$EndComp
Wire Wire Line
	4550 1200 4650 1200
Wire Wire Line
	4950 1650 4950 1750
Wire Wire Line
	4950 1650 5000 1650
Wire Wire Line
	5350 1650 5350 2000
$Comp
L proto-rescue:Earth #PWR027
U 1 1 5AB7C7DD
P 6700 5450
F 0 "#PWR027" H 6700 5200 50  0001 C CNN
F 1 "Earth" H 6700 5300 50  0001 C CNN
F 2 "" H 6700 5450 50  0001 C CNN
F 3 "" H 6700 5450 50  0001 C CNN
	1    6700 5450
	1    0    0    -1  
$EndComp
$Comp
L proto-rescue:Earth #PWR010
U 1 1 5AB7CC1B
P 1950 4350
F 0 "#PWR010" H 1950 4100 50  0001 C CNN
F 1 "Earth" H 1950 4200 50  0001 C CNN
F 2 "" H 1950 4350 50  0001 C CNN
F 3 "" H 1950 4350 50  0001 C CNN
	1    1950 4350
	0    -1   -1   0   
$EndComp
$Comp
L proto-rescue:Earth #PWR012
U 1 1 5AB7CC9D
P 2750 6450
F 0 "#PWR012" H 2750 6200 50  0001 C CNN
F 1 "Earth" H 2750 6300 50  0001 C CNN
F 2 "" H 2750 6450 50  0001 C CNN
F 3 "" H 2750 6450 50  0001 C CNN
	1    2750 6450
	1    0    0    -1  
$EndComp
$Comp
L proto-rescue:Earth #PWR02
U 1 1 5AB7D114
P 1950 6350
F 0 "#PWR02" H 1950 6100 50  0001 C CNN
F 1 "Earth" H 1950 6200 50  0001 C CNN
F 2 "" H 1950 6350 50  0001 C CNN
F 3 "" H 1950 6350 50  0001 C CNN
	1    1950 6350
	1    0    0    -1  
$EndComp
$Comp
L proto-rescue:R R1
U 1 1 5AB7E3BC
P 5350 3900
F 0 "R1" V 5430 3900 50  0000 C CNN
F 1 "R" V 5350 3900 50  0000 C CNN
F 2 "Resistor_THT:R_Axial_DIN0204_L3.6mm_D1.6mm_P5.08mm_Horizontal" V 5280 3900 50  0001 C CNN
F 3 "" H 5350 3900 50  0001 C CNN
	1    5350 3900
	1    0    0    -1  
$EndComp
$Comp
L proto-rescue:+5V #PWR09
U 1 1 5AB9BC9A
P 1950 4150
F 0 "#PWR09" H 1950 4000 50  0001 C CNN
F 1 "+5V" H 1950 4290 50  0000 C CNN
F 2 "" H 1950 4150 50  0001 C CNN
F 3 "" H 1950 4150 50  0001 C CNN
	1    1950 4150
	0    1    1    0   
$EndComp
$Comp
L proto-rescue:+5V #PWR019
U 1 1 5AB9C3A7
P 5350 3650
F 0 "#PWR019" H 5350 3500 50  0001 C CNN
F 1 "+5V" H 5350 3790 50  0000 C CNN
F 2 "" H 5350 3650 50  0001 C CNN
F 3 "" H 5350 3650 50  0001 C CNN
	1    5350 3650
	1    0    0    -1  
$EndComp
$Comp
L proto-rescue:+5V #PWR013
U 1 1 5AB9C9FA
P 4250 3950
F 0 "#PWR013" H 4250 3800 50  0001 C CNN
F 1 "+5V" H 4250 4090 50  0000 C CNN
F 2 "" H 4250 3950 50  0001 C CNN
F 3 "" H 4250 3950 50  0001 C CNN
	1    4250 3950
	1    0    0    -1  
$EndComp
$Comp
L proto-rescue:+5V #PWR011
U 1 1 5AB9CC08
P 2750 5600
F 0 "#PWR011" H 2750 5450 50  0001 C CNN
F 1 "+5V" H 2750 5740 50  0000 C CNN
F 2 "" H 2750 5600 50  0001 C CNN
F 3 "" H 2750 5600 50  0001 C CNN
	1    2750 5600
	1    0    0    -1  
$EndComp
$Comp
L proto-rescue:+5V #PWR01
U 1 1 5AB9CEFF
P 1200 5600
F 0 "#PWR01" H 1200 5450 50  0001 C CNN
F 1 "+5V" H 1200 5740 50  0000 C CNN
F 2 "" H 1200 5600 50  0001 C CNN
F 3 "" H 1200 5600 50  0001 C CNN
	1    1200 5600
	1    0    0    -1  
$EndComp
Wire Wire Line
	2250 4450 1950 4450
Wire Wire Line
	1950 4550 2300 4550
Wire Wire Line
	2300 7100 5400 7100
Wire Wire Line
	6500 4850 6500 4750
Wire Wire Line
	6500 4750 6850 4750
Wire Wire Line
	6850 4750 6850 4950
Connection ~ 6850 4950
Wire Wire Line
	6550 4950 6550 5150
Connection ~ 6550 4950
Wire Wire Line
	6550 5450 6700 5450
Connection ~ 6700 5450
Wire Wire Line
	1950 5800 1950 6350
Connection ~ 5350 5750
Wire Wire Line
	2750 6250 2750 6450
Wire Wire Line
	5350 3750 5350 3650
Wire Wire Line
	2750 5950 2750 5600
Wire Wire Line
	1300 5900 1200 5900
Wire Wire Line
	1200 5900 1200 5600
Wire Wire Line
	1800 5800 1950 5800
Wire Wire Line
	950  5800 1300 5800
Wire Wire Line
	1150 6000 1300 6000
Wire Wire Line
	2200 6000 1800 6000
Wire Wire Line
	2150 5900 1800 5900
Wire Wire Line
	6850 4950 6850 5150
Wire Wire Line
	6700 5450 6850 5450
$Comp
L Device:C C1
U 1 1 61EEA8AA
P 2750 6100
F 0 "C1" H 2865 6146 50  0000 L CNN
F 1 "C" H 2865 6055 50  0000 L CNN
F 2 "Capacitor_THT:C_Disc_D4.3mm_W1.9mm_P5.00mm" H 2788 5950 50  0001 C CNN
F 3 "~" H 2750 6100 50  0001 C CNN
	1    2750 6100
	1    0    0    -1  
$EndComp
$Comp
L Connector_Generic:Conn_02x03_Counter_Clockwise J1
U 1 1 61EEBC8C
P 1500 5900
F 0 "J1" H 1550 6217 50  0000 C CNN
F 1 "ISP" H 1550 6126 50  0000 C CNN
F 2 "Connector_PinHeader_2.54mm:PinHeader_2x03_P2.54mm_Vertical" H 1500 5900 50  0001 C CNN
F 3 "~" H 1500 5900 50  0001 C CNN
	1    1500 5900
	1    0    0    -1  
$EndComp
$Comp
L Device:C C5
U 1 1 61EEDA11
P 6850 5300
F 0 "C5" H 6965 5346 50  0000 L CNN
F 1 "C" H 6965 5255 50  0000 L CNN
F 2 "Capacitor_THT:C_Disc_D3.0mm_W2.0mm_P2.50mm" H 6888 5150 50  0001 C CNN
F 3 "~" H 6850 5300 50  0001 C CNN
	1    6850 5300
	1    0    0    -1  
$EndComp
$Comp
L Device:C C4
U 1 1 61EEEEC8
P 6550 5300
F 0 "C4" H 6665 5346 50  0000 L CNN
F 1 "C" H 6665 5255 50  0000 L CNN
F 2 "Capacitor_THT:C_Disc_D3.0mm_W2.0mm_P2.50mm" H 6588 5150 50  0001 C CNN
F 3 "~" H 6550 5300 50  0001 C CNN
	1    6550 5300
	1    0    0    -1  
$EndComp
$Comp
L Device:Crystal Y1
U 1 1 61EF0101
P 6700 4950
F 0 "Y1" H 6700 5218 50  0000 C CNN
F 1 "Crystal" H 6700 5127 50  0000 C CNN
F 2 "Crystal:Crystal_AT310_D3.0mm_L10.0mm_Vertical" H 6700 4950 50  0001 C CNN
F 3 "~" H 6700 4950 50  0001 C CNN
	1    6700 4950
	1    0    0    -1  
$EndComp
$Comp
L MCU_Microchip_ATmega:ATmega328P-PU U1
U 1 1 61EF48A0
P 4250 5450
F 0 "U1" H 3606 5496 50  0000 R CNN
F 1 "ATmega328P-PU" H 3606 5405 50  0000 R CNN
F 2 "Package_DIP:DIP-28_W7.62mm" H 4250 5450 50  0001 C CIN
F 3 "http://ww1.microchip.com/downloads/en/DeviceDoc/ATmega328_P%20AVR%20MCU%20with%20picoPower%20Technology%20Data%20Sheet%2040001984A.pdf" H 4250 5450 50  0001 C CNN
	1    4250 5450
	1    0    0    -1  
$EndComp
Wire Wire Line
	4850 4950 6550 4950
Wire Wire Line
	4850 4850 6500 4850
Wire Wire Line
	4850 4550 5100 4550
Wire Wire Line
	4850 4650 5150 4650
Wire Wire Line
	4850 4750 5200 4750
Connection ~ 5200 4750
Wire Wire Line
	5200 4750 6150 4750
Connection ~ 5150 4650
Wire Wire Line
	5150 4650 6150 4650
Connection ~ 5100 4550
Wire Wire Line
	4850 5550 5450 5550
Wire Wire Line
	4850 5650 5400 5650
Wire Wire Line
	4850 5750 5350 5750
Wire Wire Line
	2250 7150 5450 7150
Wire Wire Line
	2150 7200 5500 7200
Wire Wire Line
	950  7300 5150 7300
Wire Wire Line
	1150 7350 5200 7350
Wire Wire Line
	5350 4050 5350 5750
Wire Wire Line
	5350 5750 5500 5750
Text Label 5500 4750 0    50   ~ 0
SCK
Text Label 5500 4650 0    50   ~ 0
MISO
Text Label 5500 4550 0    50   ~ 0
MOSI
Wire Wire Line
	4850 6150 4950 6150
Wire Wire Line
	4950 6150 4950 2900
Wire Wire Line
	4950 2900 5350 2900
Wire Wire Line
	5350 2900 5350 2100
Wire Wire Line
	5100 4550 6150 4550
Wire Wire Line
	4850 4450 6150 4450
Wire Wire Line
	4850 4350 6150 4350
Wire Wire Line
	4850 4250 5850 4250
Text Label 5500 4350 0    50   ~ 0
CE
Text Label 5500 4450 0    50   ~ 0
CSN
Wire Wire Line
	4750 2400 4600 2400
Wire Wire Line
	4850 5150 6050 5150
Wire Wire Line
	4850 5250 5800 5250
Wire Wire Line
	5800 5250 5800 5600
Wire Wire Line
	5750 5350 4850 5350
Wire Wire Line
	5400 5650 5400 7100
Wire Wire Line
	5450 5550 5450 7150
Wire Wire Line
	5500 5750 5500 7200
Wire Wire Line
	5100 4550 5100 7250
Wire Wire Line
	5150 4650 5150 7300
Wire Wire Line
	5200 4750 5200 7350
Wire Wire Line
	2200 7250 5100 7250
Wire Wire Line
	2300 4550 2300 7100
Wire Wire Line
	2250 4450 2250 7150
Wire Wire Line
	2200 6000 2200 7250
Wire Wire Line
	2150 5900 2150 7200
Wire Wire Line
	950  5800 950  7300
Wire Wire Line
	1150 6000 1150 7350
$Comp
L power:Earth #PWR014
U 1 1 620AD378
P 4250 6950
F 0 "#PWR014" H 4250 6700 50  0001 C CNN
F 1 "Earth" H 4250 6800 50  0001 C CNN
F 2 "" H 4250 6950 50  0001 C CNN
F 3 "~" H 4250 6950 50  0001 C CNN
	1    4250 6950
	1    0    0    -1  
$EndComp
Text Label 2000 4550 0    50   ~ 0
SDA
Text Label 2000 4450 0    50   ~ 0
SCL
$Comp
L proto-rescue:Conn_01x03 J4
U 1 1 6216D1B2
P 6250 6600
F 0 "J4" H 6250 6800 50  0000 C CNN
F 1 "Servo 4" H 6250 6400 50  0000 C CNN
F 2 "Connector_PinHeader_2.54mm:PinHeader_1x03_P2.54mm_Vertical" H 6250 6600 50  0001 C CNN
F 3 "" H 6250 6600 50  0001 C CNN
	1    6250 6600
	1    0    0    -1  
$EndComp
$Comp
L proto-rescue:Earth #PWR0101
U 1 1 6216D404
P 6050 6700
F 0 "#PWR0101" H 6050 6450 50  0001 C CNN
F 1 "Earth" H 6050 6550 50  0001 C CNN
F 2 "" H 6050 6700 50  0001 C CNN
F 3 "" H 6050 6700 50  0001 C CNN
	1    6050 6700
	0    1    1    0   
$EndComp
$Comp
L proto-rescue:+5V #PWR0102
U 1 1 6216D40E
P 6050 6600
F 0 "#PWR0102" H 6050 6450 50  0001 C CNN
F 1 "+5V" H 6050 6740 50  0000 C CNN
F 2 "" H 6050 6600 50  0001 C CNN
F 3 "" H 6050 6600 50  0001 C CNN
	1    6050 6600
	0    -1   -1   0   
$EndComp
Wire Wire Line
	5750 5350 5750 6050
Wire Wire Line
	4850 5450 5700 5450
Wire Wire Line
	5700 6500 6050 6500
$Comp
L proto-rescue:Conn_01x03 J5
U 1 1 621DD777
P 6250 7100
F 0 "J5" H 6250 7300 50  0000 C CNN
F 1 "NeoPixel" H 6250 6900 50  0000 C CNN
F 2 "Connector_PinHeader_2.54mm:PinHeader_1x03_P2.54mm_Vertical" H 6250 7100 50  0001 C CNN
F 3 "" H 6250 7100 50  0001 C CNN
	1    6250 7100
	1    0    0    -1  
$EndComp
$Comp
L proto-rescue:Earth #PWR0103
U 1 1 621DDA63
P 6050 7200
F 0 "#PWR0103" H 6050 6950 50  0001 C CNN
F 1 "Earth" H 6050 7050 50  0001 C CNN
F 2 "" H 6050 7200 50  0001 C CNN
F 3 "" H 6050 7200 50  0001 C CNN
	1    6050 7200
	0    1    1    0   
$EndComp
$Comp
L proto-rescue:+5V #PWR0104
U 1 1 621DDA6D
P 6050 7100
F 0 "#PWR0104" H 6050 6950 50  0001 C CNN
F 1 "+5V" H 6050 7240 50  0000 C CNN
F 2 "" H 6050 7100 50  0001 C CNN
F 3 "" H 6050 7100 50  0001 C CNN
	1    6050 7100
	0    -1   -1   0   
$EndComp
Wire Wire Line
	5700 5450 5700 6500
Wire Wire Line
	4850 5950 5600 5950
Wire Wire Line
	5600 5950 5600 7000
Wire Wire Line
	5600 7000 6050 7000
$Comp
L Connector:Conn_01x05_Female J2
U 1 1 621F774B
P 1750 4350
F 0 "J2" H 1642 3925 50  0000 C CNN
F 1 "Sensors" H 1642 4016 50  0000 C CNN
F 2 "Connector_PinHeader_2.54mm:PinHeader_1x05_P2.54mm_Vertical" H 1750 4350 50  0001 C CNN
F 3 "~" H 1750 4350 50  0001 C CNN
	1    1750 4350
	-1   0    0    1   
$EndComp
$EndSCHEMATC
